

{
	"sDecimal":        ",",
	"sInfo":           "_TOTAL_ kayıttan _START_ - _END_ arasındaki kayıtlar gösteriliyor",
	"sInfoEmpty":      "",
	"sInfoFiltered":   "(_MAX_ kayıt içerisinden bulunan)",
	"sInfoPostFix":    "",
	"sInfoThousands":  ".",
	"sLengthMenu":     "_MENU_ kayıtı göster",
	"sSearch":         "Ara:",
	"oPaginate": {
		"sFirst":    "İlk",
		"sLast":     "Son",
		"sNext":     "Sonraki",
		"sPrevious": "Önceki"
	},
	"oAria": {
		"sSortAscending":  ": artan sütun sıralamasını aktifleştir",
		"sSortDescending": ": azalan sütun sıralamasını aktifleştir"
	},
	"select": {
		"rows": {
			"_": "%d kayıt seçildi",
			"0": "",
			"1": "1 kayıt seçildi"
		}
	}
}
