<svg width="234" height="150" viewBox="0 0 234 150" fill="none" xmlns="http://www.w3.org/2000/svg">
<g clip-path="url(#clip0)">
<path fill-rule="evenodd" clip-rule="evenodd" d="M117.074 77.8094C118.925 77.7175 120.791 77.7481 122.657 77.7788L123.453 77.7941L123.422 79.3095L122.627 79.2942C120.806 79.2636 118.971 79.233 117.151 79.3248C116.906 79.3401 116.63 79.3555 116.34 79.3708C116.126 79.3861 115.85 79.4014 115.529 79.4167C113.877 79.5238 112.21 79.5545 110.543 79.5851C108.875 79.6157 107.223 79.6463 105.526 79.7535C104.455 79.8147 103.338 79.8606 102.206 79.8759C100.998 79.8912 99.7742 79.8912 98.5964 79.8606C97.3574 79.83 96.3478 79.7841 95.4301 79.7382C92.6309 79.6004 90.6424 79.4932 86.8948 80.1668C84.1874 80.6566 81.5259 80.9322 78.8185 81.2077C77.9619 81.2995 77.1206 81.3914 76.1264 81.4985L75.9581 79.9831C76.7841 79.8912 77.7325 79.7841 78.6655 79.6922C81.3118 79.4167 83.9121 79.1411 86.6195 78.6513C90.52 77.9471 92.5697 78.0543 95.4913 78.2074C96.4243 78.2533 97.4645 78.2992 98.627 78.3298C99.7895 78.3605 100.998 78.3604 102.191 78.3451C103.262 78.3298 104.348 78.2839 105.434 78.2227C107.101 78.1155 108.814 78.0849 110.527 78.0543C112.149 78.0237 113.77 77.9931 115.437 77.8859C115.667 77.8706 115.927 77.8553 116.248 77.84C116.508 77.84 116.768 77.8247 117.074 77.8094L117.105 78.5748L117.074 77.8094ZM134.466 78.1308C137.173 78.2533 139.758 78.4217 142.313 78.6054C144.76 78.7891 147.376 79.0187 150.114 79.2636C151.643 79.4014 150.267 79.2789 151.949 79.4167C154.963 79.6769 157.869 79.9371 160.959 80.3198C161.234 80.3505 161.831 80.427 162.687 80.5341C163.375 80.626 164.416 80.7638 164.416 80.7638L164.217 82.2639C163.544 82.1721 162.962 82.0955 162.504 82.0343C162.213 82.0037 161.662 81.9272 160.775 81.82C157.716 81.4373 154.825 81.1924 151.812 80.9168C151.337 80.8709 152.745 80.9934 149.976 80.7485C147.406 80.5188 144.882 80.3045 142.19 80.1055C139.59 79.9065 137.02 79.7535 134.389 79.631L134.466 78.1308ZM204.767 89.78L206.25 90.2546C207.78 90.7444 209.172 91.4333 210.579 92.1527C211.726 92.7344 212.874 93.3161 214.082 93.76C216.514 94.6632 218.319 95.4439 220.048 96.4236C221.776 97.4033 223.397 98.5973 225.432 100.327C226.089 100.893 226.655 101.307 227.176 101.705C228.246 102.501 229.103 103.144 230.418 104.736C231.489 106.037 232.376 107.415 232.988 108.884C233.615 110.384 233.982 111.976 233.998 113.721V113.737C233.998 116.4 233.08 119.003 231.351 121.482C229.608 123.993 227.023 126.381 223.703 128.646L222.847 127.391C226.013 125.233 228.476 122.952 230.112 120.61C231.673 118.375 232.483 116.079 232.483 113.721C232.468 112.191 232.147 110.782 231.581 109.466C231.015 108.134 230.219 106.879 229.225 105.685C228.047 104.246 227.237 103.649 226.242 102.899C225.722 102.516 225.156 102.087 224.422 101.46C222.464 99.7913 220.904 98.6585 219.267 97.7248C217.615 96.791 215.872 96.0409 213.516 95.1684C212.216 94.6785 211.023 94.0815 209.86 93.4998C208.514 92.8263 207.183 92.1527 205.761 91.6935L204.277 91.219C200.881 90.1474 197.486 89.0606 194.151 88.1421L194.549 86.6726C194.579 86.7032 201.417 88.7238 204.767 89.78ZM194.243 140.847L193.861 139.377C186.105 141.444 178.243 143.036 170.35 144.276C162.442 145.531 154.458 146.449 146.473 147.169C143.169 147.475 139.605 147.597 136.148 147.72C135.093 147.75 134.037 147.796 133.028 147.842C130.382 147.949 127.735 148.026 125.12 148.087C122.474 148.148 119.843 148.179 117.212 148.194C116.049 148.21 114.963 148.225 113.908 148.256C110.589 148.332 107.499 148.393 103.919 148.041C101.64 147.827 99.4835 147.659 97.3268 147.551C95.1853 147.429 93.0133 147.352 90.7342 147.276C89.9235 147.245 89.0363 147.184 88.1644 147.108C87.9656 147.092 87.7514 147.077 87.4608 147.046C81.9848 146.618 76.5088 146.082 71.0939 145.378C65.6638 144.674 60.249 143.816 54.8648 142.775L54.4824 142.699C53.4269 142.485 52.448 142.24 51.469 141.995C50.1689 141.658 48.8687 141.337 47.385 141.107C45.7789 140.847 44.494 140.617 43.2091 140.311C41.9396 140.005 40.6853 139.653 39.1251 139.148C38.4214 138.918 37.7331 138.719 37.0601 138.52L36.4941 138.352C35.6376 138.091 34.8727 137.8 34.0926 137.494C33.129 137.112 32.1653 136.744 30.9875 136.423C29.152 135.933 27.6071 135.504 26.154 134.999C24.6855 134.494 23.2324 133.882 21.5345 133.009C21.1521 132.81 20.8156 132.642 20.5097 132.489C20.2344 132.351 19.8826 132.183 19.4849 131.999C16.3186 130.499 12.7699 128.539 9.63415 126.182C7.17148 124.33 4.95354 122.248 3.39334 119.967C1.64958 117.502 1.25188 114.961 1.68017 112.466C2.12376 109.91 3.42393 107.369 5.07591 104.965L5.30535 104.629C7.4774 101.536 10.9343 99.7607 14.3454 98.0003C14.896 97.7248 15.4314 97.4339 15.9667 97.1584C16.4562 96.8981 16.8998 96.6685 17.3128 96.4695C17.6646 96.2858 18.1235 96.0715 18.6742 95.8113C19.8061 95.3214 20.8003 95.0612 21.8099 94.801C23.1406 94.4642 24.4714 94.1274 26.1387 93.2702C27.9283 92.3517 29.2744 91.6935 30.651 91.1271C32.0277 90.5607 33.4349 90.0709 35.3469 89.4739C38.0084 88.6626 40.6853 87.9278 43.3621 87.2543C46.1001 86.5654 48.8228 85.9378 51.5302 85.402C53.7176 84.9581 55.9814 84.5295 58.3523 84.1009C60.6314 83.6876 62.9105 83.3202 65.1897 82.9681L64.9602 81.4679C62.6352 81.82 60.3561 82.2027 58.077 82.616C55.8896 83.014 53.6105 83.4426 51.2243 83.9172C48.4404 84.4836 45.6871 85.1112 42.9797 85.7847C40.257 86.4736 37.5496 87.2236 34.888 88.0196C32.9454 88.632 31.4923 89.1371 30.0545 89.7341C28.6166 90.3311 27.24 90.9893 25.4197 91.9231C23.9207 92.7038 22.6664 93.0253 21.4275 93.3314C20.3567 93.607 19.286 93.8825 18.0317 94.4336L18.0164 94.4489C17.634 94.6326 17.1904 94.8469 16.6398 95.1224C16.135 95.3674 15.6761 95.6123 15.2631 95.8266C14.7278 96.1174 14.1924 96.393 13.657 96.6532C10.093 98.4901 6.46786 100.358 4.06637 103.756L3.82163 104.093C2.04728 106.649 0.655333 109.389 0.181153 112.206C-0.308322 115.068 0.150561 117.992 2.09317 120.839C3.76044 123.273 6.08545 125.478 8.68579 127.406C11.9286 129.84 15.569 131.846 18.7965 133.377C19.0872 133.514 19.4084 133.667 19.8061 133.851C20.1732 134.019 20.4944 134.188 20.8003 134.341C22.5441 135.244 24.0584 135.887 25.6186 136.423C27.1788 136.959 28.7237 137.387 30.5592 137.877C31.6606 138.168 32.5783 138.535 33.5114 138.887C34.3068 139.209 35.1175 139.515 36.02 139.79L36.5859 139.959C37.2742 140.158 37.9626 140.372 38.6203 140.571C40.2417 141.092 41.5266 141.459 42.8267 141.765C44.1116 142.071 45.4271 142.316 47.1096 142.576C48.5016 142.791 49.7865 143.128 51.0713 143.449C52.0809 143.709 53.0751 143.954 54.1612 144.168L54.5436 144.245C59.9125 145.301 65.3732 146.158 70.8798 146.863C76.3864 147.567 81.8777 148.118 87.3231 148.547C87.4914 148.562 87.7514 148.577 88.0267 148.608C88.8833 148.669 89.7399 148.745 90.673 148.776C92.9062 148.837 95.0477 148.929 97.2197 149.052C99.3765 149.174 101.533 149.327 103.751 149.542C107.422 149.894 110.543 149.817 113.908 149.756C114.979 149.741 116.08 149.71 117.196 149.695C119.843 149.679 122.489 149.633 125.135 149.587C127.797 149.526 130.443 149.45 133.074 149.342C134.114 149.297 135.139 149.266 136.179 149.22C139.651 149.098 143.23 148.975 146.58 148.669C154.595 147.934 162.611 147.016 170.549 145.76C178.534 144.521 186.442 142.913 194.243 140.847Z" fill="#050522"/>
<path fill-rule="evenodd" clip-rule="evenodd" d="M122.736 148.99C122.797 147.123 122.828 145.393 122.828 143.679C122.828 141.964 122.797 140.25 122.736 138.367C122.721 138.015 122.721 137.663 122.706 137.28C122.706 136.928 122.69 136.561 122.69 136.193L124.205 136.178C124.205 136.53 124.22 136.882 124.22 137.249C124.22 137.586 124.235 137.954 124.25 138.321C124.312 140.204 124.342 141.934 124.342 143.679C124.342 145.424 124.312 147.154 124.25 149.036L122.736 148.99ZM122.675 125.064V124.666C122.675 121.681 122.675 119.263 122.95 116.217C123.21 113.385 123.042 110.706 122.889 107.981C122.782 106.221 122.675 104.43 122.675 102.608V94.8469H124.205V102.608C124.205 104.445 124.312 106.19 124.419 107.889C124.587 110.66 124.755 113.385 124.48 116.339C124.205 119.324 124.205 121.712 124.205 124.651V125.049H122.675V125.064ZM122.675 83.7182V82.5701C122.675 77.5645 122.675 72.666 122.537 67.645C122.461 64.9968 122.522 62.3485 122.583 59.7156C122.629 57.9858 122.66 56.2561 122.66 54.3273V53.516H124.189V54.3273C124.189 56.0264 124.143 57.8787 124.097 59.7462C124.036 62.3638 123.975 64.9815 124.052 67.5991C124.189 72.6201 124.189 77.5492 124.189 82.5701V83.7182H122.675ZM122.675 42.3872V32.3913C122.66 29.2532 122.384 25.7783 121.344 22.7474C120.335 19.8083 118.56 17.2519 115.516 15.8129C113.1 14.7567 111.019 14.8639 109.245 15.7211C107.073 16.7773 105.314 18.9663 103.983 21.538C101.306 26.7274 101.536 28.7633 101.903 32.0392C102.071 33.4934 102.255 35.1773 102.255 37.4275V42.3719H100.725V37.4275C100.725 35.2385 100.541 33.6006 100.389 32.1922C99.9908 28.6255 99.7461 26.4212 102.637 20.8339C104.105 18.002 106.079 15.5527 108.587 14.3434C110.744 13.2872 113.253 13.1494 116.128 14.4046L116.144 14.4199C119.616 16.0732 121.62 18.9357 122.767 22.2422C123.883 25.4721 124.159 29.0848 124.189 32.3759V42.3719H122.675V42.3872ZM102.27 53.3935V64.5988V65.1039L101.811 65.3029C99.7767 66.1755 97.7882 66.5582 95.8609 66.4663C93.9183 66.3745 92.0521 65.7928 90.2319 64.7672L89.8495 64.5529V64.1089V53.4088H91.3791V63.6497C92.8628 64.4304 94.3924 64.8743 95.9373 64.9509C97.4976 65.0274 99.1036 64.7519 100.756 64.1089V53.4088H102.27V53.3935ZM90.186 42.3413C90.186 42.3566 90.186 42.3719 90.2013 42.3872C90.6143 42.3872 91.012 42.4025 91.425 42.4025C90.8131 35.4069 90.3849 28.2888 91.8686 21.4309C93.3523 14.573 96.9622 7.89883 102.882 4.14843C109.796 -0.229593 118.82 0.811335 124.801 6.29151C127.952 9.18468 130.262 13.0729 131.378 17.3131C131.684 18.5224 132.021 19.8848 132.373 21.3237C132.709 22.7321 133.015 24.1251 133.245 25.3344C133.443 26.3447 133.551 27.2631 133.612 28.1663C133.673 29.1154 133.688 30.0339 133.703 31.0595C133.703 34.0292 133.719 37.0142 133.719 39.9839C133.734 43.9486 133.749 47.9133 133.734 51.8627C133.734 53.317 133.596 54.6181 133.459 55.904C133.26 57.7868 133.061 59.6544 133.26 61.9965C133.306 62.5782 133.382 63.2976 133.443 63.9865C133.612 65.6244 133.749 67.0939 133.749 68.9921C133.749 70.6913 133.749 72.3904 133.734 74.0896C133.734 75.7888 133.719 77.4879 133.719 79.1871C133.703 80.7944 133.596 82.2946 133.489 83.7641C133.306 86.1521 133.138 88.4483 133.428 91.3415C133.765 94.5867 133.734 97.6329 133.719 100.817C133.719 101.49 133.703 102.164 133.703 102.853C133.703 104.399 133.673 105.914 133.627 107.415C133.566 110.155 133.505 112.849 133.627 115.742C133.673 116.859 133.703 117.931 133.719 118.972C133.78 121.115 133.826 123.228 133.994 125.417C134.239 128.677 134.101 130.545 133.887 133.407C133.856 133.775 133.826 134.157 133.795 134.662C133.612 137.127 133.642 140.035 133.673 142.791C133.688 143.648 133.688 144.49 133.688 145.684V148.547H135.218V145.684C135.218 145.026 135.202 143.924 135.187 142.791C135.157 140.097 135.126 137.249 135.31 134.785C135.34 134.417 135.371 133.958 135.401 133.53C135.631 130.606 135.768 128.692 135.508 125.325C135.34 123.09 135.279 121.039 135.233 118.957C135.202 117.885 135.172 116.798 135.141 115.696C135.019 112.834 135.08 110.17 135.141 107.461C135.172 105.96 135.202 104.445 135.218 102.868C135.218 102.179 135.218 101.506 135.233 100.832C135.264 97.6023 135.279 94.5255 134.942 91.2037C134.667 88.4636 134.835 86.2133 135.019 83.8866C135.126 82.4323 135.248 80.9322 135.248 79.2024C135.264 77.5032 135.264 75.8041 135.264 74.1049C135.264 72.4057 135.279 70.7066 135.279 69.0074C135.279 67.0327 135.126 65.5326 134.958 63.8487C134.897 63.2823 134.851 62.7159 134.774 61.874C134.591 59.6544 134.774 57.8787 134.973 56.0724C135.111 54.7559 135.248 53.4241 135.264 51.8627C135.279 47.898 135.264 43.9486 135.248 39.9839C135.218 29.4369 135.83 16.7467 128.656 8.15906C121.008 -0.994981 108.801 -3.04622 99.5013 4.91382C94.3924 9.27653 91.3179 15.6905 90.0483 22.2881C88.7482 28.9011 89.1765 35.713 90.186 42.3413Z" fill="#050522"/>
<path fill-rule="evenodd" clip-rule="evenodd" d="M90.8858 61.2464C89.601 61.6291 88.5608 62.1496 87.8572 62.7619C87.2607 63.267 86.9241 63.8181 86.9241 64.3845C86.9241 65.3336 87.8572 66.2367 89.3562 66.9409C91.0388 67.7216 93.3791 68.2114 95.9794 68.2114C98.5798 68.2114 100.92 67.7216 102.603 66.9409C104.102 66.2367 105.035 65.3336 105.035 64.3845C105.035 63.8487 104.714 63.2976 104.148 62.7925C103.475 62.2108 102.496 61.6903 101.241 61.2923L101.7 59.8381C103.153 60.2973 104.331 60.9249 105.157 61.6444C106.075 62.4404 106.564 63.3742 106.564 64.3692C106.564 65.9612 105.295 67.3389 103.245 68.3033C101.364 69.1758 98.7939 69.7269 95.9794 69.7269C93.165 69.7269 90.5799 69.1911 88.7138 68.3033C86.6641 67.3389 85.3945 65.9612 85.3945 64.3692C85.3945 63.3436 85.9299 62.3945 86.863 61.5985C87.7348 60.8484 88.9738 60.2208 90.4576 59.7769L90.8858 61.2464Z" fill="#050522"/>
<path fill-rule="evenodd" clip-rule="evenodd" d="M65.1433 145.363C64.7915 110.461 64.4397 75.5438 64.0726 40.6421C64.0114 35.3763 63.9349 27.355 58.9025 24.171C55.981 22.3341 51.9734 22.4106 49.1283 24.3547C44.3559 27.6305 43.9123 34.3813 43.9429 40.1676C43.9888 48.3113 44.0194 56.4398 44.0653 64.5835C44.0806 66.7572 44.0806 68.9921 43.3311 71.0281C42.5816 73.064 40.9296 74.9162 38.7728 75.253C36.2031 75.651 33.7251 73.7528 32.5932 71.4108C31.4613 69.0687 31.3848 66.3745 31.3236 63.7722C31.2166 59.3789 31.1095 54.9855 31.0024 50.5769C30.773 41.2392 30.6047 31.5953 34.1687 22.9617C37.7327 14.3281 46.0538 6.94976 55.3691 7.56207C63.8279 8.11315 70.757 15.0935 73.8621 22.977C76.9672 30.8605 76.9825 39.5706 76.9672 48.0511C76.9672 80.8863 76.8449 113.721 76.7225 146.572C76.2636 146.572 75.82 146.572 75.3611 146.572C75.3458 124.804 75.3305 103.037 75.3153 81.269C75.3153 70.4923 75.3 59.7156 75.3 48.939C75.3 39.6318 74.9328 29.0695 70.8947 20.4512C68.4014 15.1241 63.8585 10.4552 58.1224 9.16938C49.5107 7.2406 40.7613 13.5168 36.8761 21.4309C32.9909 29.345 32.8227 38.5297 32.7309 47.3623C32.6697 52.6894 32.6085 58.0165 32.5626 63.3436C32.532 65.5632 32.532 67.8747 33.4651 69.8953C34.3982 71.9159 36.5396 73.5538 38.727 73.1405C40.5625 72.7885 41.9085 71.0893 42.4133 69.2983C42.9181 67.492 42.7498 65.5785 42.6122 63.711C41.985 55.3988 41.9544 47.0408 42.5051 38.7134C42.7651 34.8099 43.1781 30.8146 44.9525 27.3397C46.7268 23.8495 50.1226 20.9564 54.0384 20.8645C58.306 20.7574 62.0688 24.0485 63.8432 27.9367C65.6175 31.8249 65.8011 36.2182 65.9234 40.4891C66.8565 75.452 64.8221 110.446 65.1586 145.424C65.1433 145.378 65.1433 145.378 65.1433 145.363Z" fill="#050522"/>
<path fill-rule="evenodd" clip-rule="evenodd" d="M32.5304 69.0227C31.2455 69.4054 30.2054 69.9259 29.5017 70.5382C28.9052 71.0434 28.5687 71.5944 28.5687 72.1608C28.5687 73.1099 29.5017 74.0131 31.0008 74.7172C32.6833 75.4979 35.0236 75.9878 37.624 75.9878C40.2243 75.9878 42.5646 75.4979 44.2472 74.7172C45.7462 74.0131 46.6793 73.1099 46.6793 72.1608C46.6793 71.6251 46.3733 71.074 45.7921 70.5688C45.1191 69.9871 44.1401 69.4667 42.8858 69.0687L43.3447 67.6144C44.7978 68.0737 45.9756 68.7013 46.8016 69.4207C47.7194 70.2167 48.2089 71.1505 48.2089 72.1455C48.2089 73.7375 46.9393 75.1152 44.8896 76.0796C43.0082 76.9522 40.4384 77.5032 37.624 77.5032C34.8095 77.5032 32.2244 76.9675 30.3583 76.0796C28.3086 75.1152 27.0391 73.7375 27.0391 72.1455C27.0391 71.1199 27.5744 70.1708 28.5075 69.3748C29.3794 68.6247 30.6183 67.9971 32.1021 67.5532L32.5304 69.0227Z" fill="#050522"/>
<path fill-rule="evenodd" clip-rule="evenodd" d="M76.0625 41.6218C80.3148 41.6218 82.854 41.6218 85.4237 41.6065C91.7104 41.5912 98.0124 41.5759 104.284 41.6218C105.752 41.6371 107.068 41.7137 108.383 41.8055C110.372 41.928 112.345 42.0505 114.578 41.9127C115.924 41.8361 117.133 41.7596 118.402 41.7137C119.672 41.6678 120.926 41.6218 122.257 41.6218H123.481C126.28 41.6218 128.146 43.321 128.972 45.4794C129.278 46.2754 129.431 47.1479 129.446 48.0052C129.446 48.8624 129.308 49.735 129.002 50.5157C128.207 52.5669 126.387 54.1436 123.45 54.1436C121.89 54.1436 120.513 54.1589 119.182 54.2048C117.806 54.2355 116.398 54.2967 114.915 54.3579C112.467 54.4651 110.066 54.3732 107.634 54.2814C105.997 54.2201 104.36 54.1589 102.632 54.1589H76.0625V52.6281H102.601C104.238 52.6281 105.951 52.6894 107.664 52.7659C110.051 52.8578 112.437 52.9496 114.823 52.8424C116.291 52.7812 117.699 52.72 119.121 52.6894C120.59 52.6434 122.012 52.6281 123.435 52.6281C125.637 52.6281 126.999 51.48 127.58 49.9799C127.825 49.3676 127.932 48.694 127.932 48.0205C127.932 47.3469 127.794 46.6581 127.549 46.0305C126.937 44.4232 125.545 43.1526 123.481 43.1526H122.257C120.85 43.1526 119.641 43.1832 118.463 43.2292C117.27 43.2751 116.047 43.3516 114.67 43.4282C112.345 43.5659 110.326 43.4435 108.291 43.321C106.976 43.2445 105.661 43.1526 104.269 43.1373C98.0125 43.0914 91.7104 43.1067 85.4237 43.122C81.7374 43.1373 78.0357 43.1373 76.0625 43.1373V41.6218Z" fill="#050522"/>
<path fill-rule="evenodd" clip-rule="evenodd" d="M76.0625 82.9681C76.965 82.9681 79.6571 82.9681 82.3033 82.9834C86.4945 82.9987 90.6856 82.9987 94.8614 82.9681C96.2075 82.9528 97.4159 82.8763 98.5784 82.7997C100.949 82.6467 103.106 82.5242 106.119 82.8763C107.863 83.0753 109.102 83.1671 110.311 83.1824C111.534 83.1977 112.773 83.1365 114.517 83.0447C116.551 82.9375 118.754 82.9528 120.895 82.9681C121.431 82.9681 121.981 82.9834 123.098 82.9834H123.511C126.31 82.9834 128.176 84.6826 129.002 86.841C129.308 87.637 129.461 88.5095 129.477 89.3668C129.477 90.224 129.339 91.0966 129.033 91.8773C128.238 93.9285 126.417 95.5052 123.48 95.5052C121.354 95.5052 119.213 95.5358 117.071 95.5664C115.006 95.5971 112.926 95.6277 110.861 95.6277C109.01 95.6277 107.282 95.5205 105.569 95.3981C103.167 95.245 100.766 95.0919 98.2266 95.245C96.8346 95.3521 95.3662 95.4134 93.8978 95.444C92.46 95.4746 91.0068 95.4899 89.5843 95.4899H76.1084V93.9591H89.5843C90.9915 93.9591 92.4294 93.9438 93.8672 93.9132C95.2744 93.8826 96.697 93.8214 98.1195 93.7142C100.75 93.5458 103.198 93.6989 105.645 93.8673C107.358 93.9744 109.087 94.0969 110.846 94.0969C112.896 94.0969 114.976 94.0663 117.041 94.0357C119.182 94.005 121.324 93.9744 123.465 93.9744C125.668 93.9744 127.029 92.8263 127.61 91.3262C127.855 90.7139 127.962 90.0403 127.962 89.3668C127.962 88.6932 127.825 88.0044 127.58 87.3768C126.968 85.7694 125.576 84.4989 123.511 84.4989H123.098C122.777 84.4989 121.844 84.4989 120.895 84.4836C118.8 84.4683 116.628 84.453 114.609 84.5601C112.865 84.652 111.611 84.7132 110.326 84.6979C109.026 84.6826 107.741 84.5907 105.966 84.3917C103.075 84.055 100.995 84.1774 98.6855 84.3305C97.5383 84.4071 96.3452 84.4683 94.9073 84.4989C90.7315 84.5295 86.5251 84.5142 82.3339 84.5142C80.8196 84.5142 79.3359 84.4989 76.0931 84.4989V82.9681H76.0625Z" fill="#050522"/>
<path fill-rule="evenodd" clip-rule="evenodd" d="M76.0625 124.299C77.791 124.299 77.1179 124.299 77.3474 124.299C80.1466 124.299 82.6398 124.284 85.5614 124.575C88.3147 124.835 89.8443 124.712 92.047 124.529C92.6129 124.483 93.2248 124.437 94.0049 124.376C96.0545 124.238 98.5325 124.268 100.873 124.284C101.653 124.299 102.402 124.299 103.458 124.299C104.819 124.299 106.028 124.253 107.236 124.192C108.169 124.146 109.102 124.115 110.096 124.1C111.55 124.069 113.003 124.131 114.471 124.192C115.679 124.238 116.888 124.299 118.173 124.299H123.481C126.28 124.299 128.146 125.998 128.972 128.157C129.278 128.953 129.431 129.825 129.446 130.682C129.446 131.54 129.308 132.412 129.002 133.193C128.207 135.244 126.387 136.821 123.45 136.821C122.853 136.821 122.242 136.836 121.614 136.836C119.091 136.867 116.429 136.913 114.043 136.362C110.739 135.596 109.485 135.856 107.817 136.193C106.808 136.408 105.645 136.637 103.871 136.729C102.204 136.806 100.536 136.821 98.8843 136.836C97.0335 136.851 95.1827 136.867 93.2706 136.974C90.5479 137.127 87.9629 137.02 85.3625 136.928C83.6494 136.867 81.9362 136.79 80.1925 136.79H78.7393C77.8674 136.79 76.9956 136.79 76.1084 136.79V135.275C76.9803 135.275 77.8521 135.275 78.7393 135.275H80.1925C81.9974 135.275 83.7259 135.336 85.4237 135.412C87.9935 135.52 90.5326 135.612 93.1942 135.458C95.1062 135.351 97.0029 135.336 98.8843 135.321C100.521 135.305 102.142 135.29 103.825 135.213C105.477 135.137 106.578 134.907 107.527 134.708C109.377 134.326 110.769 134.035 114.395 134.877C116.613 135.382 119.182 135.351 121.614 135.321C122.242 135.305 122.853 135.305 123.481 135.305C125.683 135.305 127.045 134.157 127.626 132.657C127.871 132.045 127.978 131.371 127.978 130.698C127.978 130.024 127.84 129.335 127.595 128.708C126.983 127.1 125.591 125.83 123.526 125.83H118.219C117.01 125.83 115.725 125.769 114.456 125.723C113.003 125.661 111.565 125.6 110.173 125.631C109.24 125.646 108.291 125.692 107.343 125.723C106.058 125.784 104.789 125.83 103.504 125.83C102.923 125.83 101.928 125.815 100.903 125.799C98.6243 125.769 96.1922 125.738 94.1578 125.891C93.5001 125.937 92.8271 125.998 92.2152 126.044C89.9514 126.228 88.3759 126.366 85.4696 126.09C82.6092 125.815 80.1466 125.815 77.4086 125.83C76.3225 125.83 76.965 125.83 76.1237 125.83V124.299H76.0625Z" fill="#050522"/>
<path fill-rule="evenodd" clip-rule="evenodd" d="M10.0039 127.361C12.7878 124.36 16.5201 121.605 20.5429 119.293C25.0247 116.706 29.8889 114.655 34.2177 113.385C35.7626 112.925 37.0933 112.481 38.4241 111.992C39.7701 111.502 41.0703 110.966 42.5234 110.338C46.6075 108.578 47.7394 108.41 51.594 107.889L52.2671 107.797C53.7661 107.583 55.5251 107.2 57.2383 106.833C58.1561 106.634 59.0585 106.435 59.9151 106.267C60.6493 106.129 61.4906 105.96 62.4237 105.792C63.3873 105.608 64.2133 105.471 64.9323 105.333L65.1923 106.833C64.2286 107.001 63.3873 107.154 62.6837 107.277C61.9495 107.415 61.1235 107.568 60.1905 107.751C59.3645 107.92 58.462 108.119 57.5442 108.318C55.8158 108.7 54.0414 109.083 52.4659 109.297L51.7929 109.389C48.0912 109.894 47.0052 110.048 43.12 111.731C41.5904 112.39 40.2596 112.941 38.9442 113.431C37.6134 113.92 36.2367 114.38 34.6459 114.854C30.4242 116.094 25.6671 118.099 21.2924 120.625C17.3919 122.875 13.7973 125.524 11.1205 128.417L10.0039 127.361ZM75.9608 103.649C79.54 103.19 82.997 102.838 86.5151 102.486L88.2129 102.317C89.6202 102.179 90.8286 101.98 91.9758 101.781C94.1784 101.414 96.1822 101.077 99.1803 101.215C100.343 101.276 101.322 101.307 102.27 101.322C103.234 101.337 104.213 101.322 105.375 101.276C108.373 101.169 111.387 101.123 114.4 101.093C117.413 101.077 120.411 101.093 123.425 101.138L123.394 102.654C120.396 102.608 117.398 102.577 114.4 102.608C111.417 102.623 108.419 102.685 105.406 102.792C104.243 102.838 103.249 102.838 102.239 102.838C101.23 102.822 100.251 102.792 99.0885 102.73C96.2587 102.593 94.3314 102.929 92.2052 103.282C91.0427 103.481 89.819 103.68 88.3353 103.833L86.6374 104.001C83.104 104.353 79.6318 104.705 76.1137 105.149L75.9608 103.649ZM134.468 101.536C138.032 101.72 141.505 101.95 144.885 102.241C148.327 102.531 151.722 102.868 155.042 103.266L154.858 104.782C151.569 104.384 148.204 104.047 144.763 103.756C141.336 103.465 137.879 103.236 134.392 103.052L134.468 101.536ZM170.843 105.624C173.734 106.144 176.487 106.695 179.21 107.307C181.948 107.935 184.67 108.609 187.485 109.405C188.647 109.726 189.794 110.032 190.957 110.338C192.563 110.767 194.184 111.196 195.745 111.655H195.76C196.769 111.961 197.703 112.313 198.651 112.65C199.752 113.048 200.854 113.446 201.985 113.783C203.959 114.349 205.427 114.9 206.834 115.574C208.242 116.247 209.588 117.028 211.285 118.099C212.066 118.574 212.8 118.972 213.549 119.37C214.406 119.829 215.278 120.288 216.15 120.855C217.557 121.743 218.888 122.676 220.157 123.687C221.427 124.697 222.635 125.784 223.798 127.009L222.696 128.065C221.58 126.901 220.417 125.86 219.194 124.881C217.97 123.916 216.685 123.013 215.324 122.141C214.467 121.605 213.641 121.146 212.815 120.717C212.02 120.288 211.24 119.875 210.475 119.401C208.808 118.375 207.523 117.61 206.177 116.967C204.831 116.324 203.423 115.803 201.557 115.267C200.318 114.915 199.217 114.517 198.116 114.104C197.198 113.767 196.265 113.431 195.301 113.14C193.771 112.68 192.165 112.252 190.559 111.839C189.381 111.517 188.204 111.211 187.072 110.889C184.257 110.093 181.565 109.42 178.873 108.808C176.15 108.195 173.428 107.644 170.583 107.124L170.843 105.624Z" fill="#050522"/>
<path fill-rule="evenodd" clip-rule="evenodd" d="M28.5225 72.2373C28.3848 72.6507 28.3695 73.1405 28.4307 73.5997C28.5225 74.3192 28.7366 74.9162 28.859 75.0999C29.379 75.9112 30.511 76.6307 32.0253 77.1511C33.5702 77.6869 35.5128 78.0083 37.6237 78.0083C39.7651 78.0083 41.7383 77.6716 43.2985 77.1205C44.8281 76.5847 45.9448 75.85 46.4342 75.0233C46.5566 74.8243 46.8625 74.1202 46.939 73.416C46.9696 73.0793 46.9543 72.7731 46.8319 72.5894L48.0709 71.7169C48.4533 72.2527 48.5298 72.9262 48.4533 73.5844C48.3463 74.5335 47.918 75.5132 47.7497 75.804C47.0767 76.9368 45.6694 77.9012 43.8186 78.5594C42.0901 79.1717 39.9487 79.5391 37.6237 79.5391C35.3598 79.5391 33.249 79.187 31.5358 78.59C29.7003 77.9624 28.293 77.0287 27.5894 75.9265C27.3906 75.605 27.0387 74.7325 26.9164 73.7681C26.8399 73.1099 26.8552 72.4057 27.0846 71.7322L28.5225 72.2373Z" fill="#050522"/>
<path fill-rule="evenodd" clip-rule="evenodd" d="M86.8975 64.461C86.7598 64.8743 86.7445 65.3642 86.8057 65.8234C86.8975 66.5429 87.1116 67.1399 87.234 67.3236C87.754 68.1349 88.886 68.8543 90.4003 69.3748C91.9452 69.9106 93.8878 70.232 95.9987 70.232C98.1401 70.232 100.113 69.8953 101.674 69.3442C103.203 68.8084 104.32 68.0736 104.809 67.247C104.932 67.048 105.238 66.3439 105.314 65.6397C105.345 65.3029 105.329 64.9968 105.207 64.8131L106.446 63.9406C106.828 64.4763 106.905 65.1499 106.828 65.8081C106.721 66.7572 106.293 67.7369 106.125 68.0277C105.452 69.1605 104.044 70.1249 102.194 70.7831C100.465 71.3954 98.3237 71.7628 95.9987 71.7628C93.7348 71.7628 91.624 71.4107 89.9108 70.8137C88.0753 70.1861 86.668 69.2523 85.9644 68.1502C85.7656 67.8287 85.4137 66.9562 85.2914 65.9918C85.2149 65.3336 85.2302 64.6294 85.4596 63.9559L86.8975 64.461Z" fill="#050522"/>
<path d="M123.024 137.28L123.008 136.484H122.687C122.32 136.484 121.953 136.499 121.586 136.499C119.123 136.53 116.508 136.591 114.091 136.04C112.209 135.612 110.557 135.367 108.645 135.703C108.339 135.749 108.033 135.826 107.728 135.887C106.412 136.163 105.188 136.346 103.842 136.423C102.19 136.499 100.523 136.515 98.8558 136.53C96.9744 136.545 95.0929 136.576 93.2268 136.668C90.5959 136.821 87.9802 136.714 85.3493 136.622C83.6208 136.561 81.8924 136.484 80.1639 136.484H78.7108H76.5234V146.342L76.8141 146.373C80.3475 146.756 83.8962 147.077 87.4449 147.353L88.1485 147.414C89.0051 147.475 89.877 147.552 90.7335 147.582C92.9362 147.643 95.1235 147.735 97.3109 147.858C99.5135 147.98 101.701 148.149 103.888 148.348C107.253 148.669 110.542 148.623 113.922 148.562C115.024 148.531 116.125 148.516 117.226 148.501C119.077 148.501 120.928 148.47 122.779 148.439H123.085L123.1 148.133C123.146 146.648 123.161 145.164 123.161 143.679C123.161 141.903 123.115 140.127 123.07 138.352L123.024 137.28Z" fill="#050522"/>
<path d="M64.8062 110.92C64.7603 109.604 64.7145 108.287 64.6992 106.955V106.573L64.332 106.634C63.7661 106.726 63.2154 106.833 62.6495 106.94C61.8082 107.093 60.9822 107.246 60.1562 107.415C59.269 107.583 58.3819 107.782 57.51 107.981C55.8427 108.348 54.1448 108.731 52.447 108.961L51.7739 109.053C50.4432 109.236 49.0818 109.405 47.7664 109.726C46.1297 110.109 44.5695 110.752 43.0246 111.425C41.6479 112.022 40.2713 112.589 38.864 113.109C37.4721 113.63 36.0495 114.089 34.627 114.502L34.5811 114.517C29.9617 115.864 25.327 117.9 21.1664 120.319C17.7401 122.294 14.3444 124.682 11.5605 127.483L11.2852 127.759L11.6064 127.973C14.069 129.596 16.6694 131.019 19.3309 132.29L20.4169 132.81C20.7381 132.963 21.0441 133.132 21.3653 133.285C22.8796 134.065 24.4092 134.739 26.0153 135.29C27.6061 135.841 29.2428 136.285 30.8795 136.714C31.9349 136.989 32.9291 137.372 33.954 137.77C34.7494 138.091 35.5448 138.398 36.3708 138.642L36.9367 138.811C37.625 139.01 38.3134 139.224 39.0017 139.438C40.3631 139.882 41.7244 140.28 43.1163 140.602C44.5083 140.923 45.9002 141.184 47.3075 141.398C48.6841 141.612 50.0149 141.949 51.361 142.286C52.3705 142.546 53.38 142.791 54.3896 142.99L54.772 143.066C57.923 143.679 61.0893 144.23 64.2556 144.72L64.6227 144.781V144.398C64.6227 142.224 64.6074 140.066 64.6074 137.892C64.5921 132.443 64.5768 126.993 64.638 121.544C64.6533 120.533 64.7145 119.523 64.7756 118.513C64.8521 117.227 64.9286 115.956 64.9133 114.655C64.8827 113.446 64.8521 112.175 64.8062 110.92Z" fill="#050522"/>
<path d="M122.991 102.654V102.332H122.67C119.917 102.287 117.164 102.271 114.41 102.302C111.412 102.317 108.414 102.378 105.416 102.486C104.361 102.516 103.321 102.531 102.265 102.531C101.225 102.516 100.17 102.486 99.1294 102.44C97.1409 102.348 95.336 102.486 93.3781 102.792C92.9804 102.853 92.5827 102.914 92.1697 102.991C90.8848 103.205 89.6152 103.404 88.3304 103.542L86.6325 103.71C83.3286 104.047 80.0246 104.368 76.7359 104.782L76.4453 104.812V105.103C76.4453 106.404 76.4453 107.705 76.4453 109.007C76.4453 110.292 76.4759 111.578 76.4912 112.864C76.5218 114.915 76.5524 116.967 76.5218 119.018C76.4912 120.778 76.4759 122.539 76.4759 124.314V124.636H76.7971C76.9501 124.636 77.103 124.636 77.2713 124.636H77.2866C77.3172 124.636 77.3325 124.636 77.3478 124.636C80.0858 124.636 82.7932 124.636 85.5312 124.896C86.9996 125.034 88.4069 125.08 89.8753 125.003C90.6095 124.973 91.3437 124.896 92.0779 124.835C92.7204 124.774 93.3781 124.728 94.0205 124.682C96.2843 124.529 98.5941 124.575 100.858 124.59C101.714 124.605 102.586 124.605 103.443 124.605C104.712 124.605 105.967 124.559 107.236 124.498C108.185 124.452 109.133 124.421 110.081 124.406C111.535 124.376 112.988 124.437 114.441 124.498C115.68 124.544 116.919 124.605 118.158 124.605H122.991V124.299C122.991 121.59 123.022 118.941 123.267 116.247C123.527 113.476 123.374 110.736 123.205 107.966C123.098 106.205 122.991 104.43 122.991 102.654Z" fill="#050522"/>
<path d="M220.324 125.401C220.018 125.141 219.713 124.881 219.391 124.636C218.137 123.641 216.837 122.738 215.491 121.88C214.665 121.36 213.824 120.901 212.967 120.442C212.187 120.013 211.391 119.6 210.642 119.125C209.235 118.253 207.812 117.38 206.313 116.676C204.799 115.956 203.254 115.421 201.648 114.961C200.485 114.625 199.369 114.227 198.237 113.813C197.304 113.476 196.371 113.124 195.407 112.834C193.831 112.359 192.241 111.946 190.65 111.517C189.487 111.211 188.325 110.905 187.162 110.568C184.44 109.803 181.702 109.098 178.948 108.486C176.44 107.92 173.916 107.415 171.377 106.94L171.056 106.879L170.994 107.2C170.673 109.022 170.459 110.874 170.245 112.711C169.97 115.084 169.725 117.472 169.48 119.86C169.098 123.702 168.761 127.529 168.425 131.371C168.379 131.846 168.165 134.77 167.966 135.091L167.889 135.168V135.275C167.828 135.52 167.874 135.902 167.874 136.086C167.889 136.698 167.889 137.311 167.859 137.938C167.767 140.005 167.69 142.087 167.645 144.169V144.567V144.811V145.056L168.027 144.995C168.822 144.873 169.633 144.75 170.428 144.628C173.212 144.184 175.981 143.709 178.75 143.174L179.025 143.128L179.01 142.852C179.01 142.791 179.01 142.714 179.01 142.653C179.025 142.01 179.04 140.127 179.53 139.699L179.637 139.607V139.454C179.667 139.362 179.683 139.239 179.698 139.163C179.744 138.918 179.79 138.688 179.851 138.443C180.08 137.418 180.493 135.367 181.564 134.938C181.901 134.8 182.313 134.678 182.665 134.77L183.017 134.861L183.063 134.509C183.155 133.943 183.323 133.392 183.491 132.856L183.644 132.366C183.889 131.57 184.531 130.958 185.235 130.545C185.541 130.361 185.878 130.208 186.214 130.07L186.459 129.978L186.413 129.718C186.29 128.937 187.438 127.85 187.958 127.33C188.126 127.162 188.325 126.978 188.478 126.794C188.57 126.672 188.692 126.595 188.83 126.519L189.044 126.396L188.998 126.151C188.952 125.937 189.136 125.753 189.289 125.631H189.304C189.9 125.141 190.665 124.544 191.369 124.238C191.797 124.039 192.21 123.748 192.608 123.457C193.327 122.937 194 122.477 194.856 122.217C195.422 122.049 195.82 122.156 196.355 122.309C196.692 122.416 197.028 122.508 197.38 122.462C198.619 122.34 200.149 122.676 201.189 123.365C201.342 123.457 201.495 123.58 201.617 123.717C201.648 123.748 201.663 123.763 201.678 123.794L201.801 123.962L202 123.916C202.015 123.916 202.045 123.901 202.061 123.901C202.55 123.794 203.055 123.702 203.545 123.61C204.585 123.427 205.64 123.258 206.696 123.136C207.43 123.044 208.24 122.952 208.975 122.983C209.479 122.998 209.999 123.029 210.504 123.074C210.933 123.12 211.391 123.166 211.804 123.273L211.866 123.289L211.927 123.273C212.095 123.243 212.279 123.228 212.462 123.228C212.783 123.228 213.242 123.488 213.518 123.641C213.579 123.671 213.655 123.717 213.716 123.748L213.671 123.763L214.542 124.146H214.558C214.833 124.268 215.124 124.391 215.414 124.483C216.638 124.911 217.892 125.279 219.131 125.661C219.437 125.753 219.728 125.845 220.034 125.937L221.533 126.396L220.324 125.401Z" fill="#050522"/>
<path d="M161.878 123.166L161.373 124.467C160.976 125.478 160.44 126.932 160.486 128.004C160.501 128.386 160.455 128.891 160.425 129.274C160.379 130.07 160.318 130.866 160.257 131.662C160.226 132.091 160.18 132.519 160.15 132.933C160.104 133.346 159.905 135.351 159.66 135.642C159.614 135.688 159.584 135.749 159.553 135.811C159.477 135.994 159.553 136.178 159.614 136.362C159.675 136.561 159.706 136.729 159.691 136.943C159.675 137.77 159.66 140.541 159.125 141.061C158.956 141.229 159.033 141.781 159.033 141.995C159.048 142.515 159.064 143.036 159.064 143.541C159.064 144.291 159.064 145.072 159.094 145.822L159.109 146.174L159.461 146.128C159.798 146.082 160.15 146.036 160.486 146.005L160.823 145.96L160.777 145.623C160.547 144.199 160.792 142.24 160.96 140.786C160.991 140.556 161.067 140.143 161.052 139.913C161.037 139.393 161.098 138.78 161.128 138.26C161.19 137.326 161.266 136.392 161.343 135.474C161.419 134.586 161.496 133.713 161.603 132.825C161.649 132.397 161.694 131.769 161.801 131.356C162.352 129.243 162.199 126.702 162.031 124.544L161.878 123.166Z" fill="#050522"/>
<path d="M154.595 104.659L154.565 104.414L154.32 104.384C151.138 104.016 147.972 103.695 144.775 103.435C141.578 103.159 138.397 102.945 135.2 102.776L134.863 102.761V103.098C134.863 104.552 134.833 106.022 134.787 107.476C134.726 110.231 134.68 112.971 134.787 115.727C134.833 116.814 134.863 117.885 134.879 118.972C134.94 121.1 135.001 123.228 135.154 125.355C135.276 126.993 135.322 128.601 135.246 130.238C135.2 131.341 135.123 132.427 135.032 133.53L134.94 134.785C134.741 137.448 134.787 140.158 134.817 142.821C134.833 143.786 134.848 144.75 134.848 145.715V148.087L135.185 148.072C135.506 148.057 135.827 148.057 136.133 148.041C139.575 147.919 143.047 147.796 146.473 147.49C148.752 147.291 151.031 147.062 153.31 146.817L153.601 146.465C153.509 145.363 153.509 144.23 153.494 143.128C153.494 142.806 153.494 142.485 153.494 142.148C153.494 141.122 153.509 140.097 153.54 139.071C153.555 138.535 153.555 137.816 153.647 137.295C153.983 135.229 153.968 133.132 153.968 131.05C153.953 128.891 153.938 126.718 154.32 124.59C154.565 123.212 154.825 120.962 154.901 119.569C155.024 117.441 155.07 115.313 155.054 113.186C155.054 112.772 155.054 112.359 155.039 111.946C155.024 109.558 154.932 107.047 154.595 104.659Z" fill="#050522"/>
<path d="M152.747 104.644L170.995 107.2L172.479 129.932L167.997 144.965L153.619 146.48C153.619 146.48 149.504 139.393 149.397 139.163C149.29 138.933 152.747 104.644 152.747 104.644Z" fill="#050522"/>
<path fill-rule="evenodd" clip-rule="evenodd" d="M99.7121 64.6753C99.7121 65.058 99.4062 65.3795 99.0238 65.3948C98.6414 65.3948 98.3202 65.0886 98.3049 64.7059C98.2743 62.67 98.3355 60.7718 98.412 58.8124V58.6287C98.4273 58.246 98.7485 57.9399 99.1462 57.9552C99.5286 57.9705 99.8345 58.292 99.8192 58.69V58.8737C99.7427 60.8484 99.6815 62.7618 99.7121 64.6753Z" fill="#050522"/>
<path fill-rule="evenodd" clip-rule="evenodd" d="M52.8329 134.387C54.0107 134.387 54.9743 133.422 54.9743 132.244C54.9743 131.065 54.0107 130.101 52.8329 130.101C51.6551 130.101 50.6914 131.065 50.6914 132.244C50.6914 133.422 51.6551 134.387 52.8329 134.387Z" fill="white"/>
<path fill-rule="evenodd" clip-rule="evenodd" d="M144.476 112.788C145.088 112.788 145.578 112.298 145.578 111.685C145.578 111.073 145.088 110.583 144.476 110.583C143.864 110.583 143.375 111.073 143.375 111.685C143.375 112.298 143.864 112.788 144.476 112.788Z" fill="white"/>
<path fill-rule="evenodd" clip-rule="evenodd" d="M145.91 143.112C146.522 143.112 147.011 142.622 147.011 142.01C147.011 141.398 146.522 140.908 145.91 140.908C145.298 140.908 144.809 141.398 144.809 142.01C144.809 142.622 145.298 143.112 145.91 143.112Z" fill="white"/>
<path fill-rule="evenodd" clip-rule="evenodd" d="M113.941 142.776C114.553 142.776 115.042 142.286 115.042 141.673C115.042 141.061 114.553 140.571 113.941 140.571C113.329 140.571 112.84 141.061 112.84 141.673C112.84 142.286 113.329 142.776 113.941 142.776Z" fill="white"/>
<path fill-rule="evenodd" clip-rule="evenodd" d="M46.8865 121.421C47.4983 121.421 47.9878 120.931 47.9878 120.319C47.9878 119.707 47.4983 119.217 46.8865 119.217C46.2746 119.217 45.7852 119.707 45.7852 120.319C45.7852 120.931 46.2746 121.421 46.8865 121.421Z" fill="white"/>
<path fill-rule="evenodd" clip-rule="evenodd" d="M29.4767 128.203C30.0885 128.203 30.578 127.713 30.578 127.1C30.578 126.488 30.0885 125.998 29.4767 125.998C28.8648 125.998 28.3753 126.488 28.3753 127.1C28.36 127.713 28.8648 128.203 29.4767 128.203Z" fill="white"/>
<path fill-rule="evenodd" clip-rule="evenodd" d="M106.067 117.426C106.556 117.426 106.954 117.028 106.954 116.538C106.954 116.048 106.556 115.65 106.067 115.65C105.577 115.65 105.18 116.048 105.18 116.538C105.18 117.028 105.562 117.426 106.067 117.426Z" fill="white"/>
<path fill-rule="evenodd" clip-rule="evenodd" d="M142.864 126.748C143.139 126.748 143.369 126.519 143.369 126.243C143.369 125.968 143.139 125.738 142.864 125.738C142.589 125.738 142.359 125.968 142.359 126.243C142.375 126.519 142.589 126.748 142.864 126.748Z" fill="white"/>
<path fill-rule="evenodd" clip-rule="evenodd" d="M191.066 118.436C191.678 118.436 192.167 117.946 192.167 117.334C192.167 116.722 191.678 116.232 191.066 116.232C190.454 116.232 189.965 116.722 189.965 117.334C189.965 117.946 190.47 118.436 191.066 118.436Z" fill="white"/>
<path fill-rule="evenodd" clip-rule="evenodd" d="M177.191 120.396C177.803 120.396 178.292 119.906 178.292 119.293C178.292 118.681 177.803 118.191 177.191 118.191C176.579 118.191 176.09 118.681 176.09 119.293C176.09 119.906 176.579 120.396 177.191 120.396Z" fill="white"/>
<path fill-rule="evenodd" clip-rule="evenodd" d="M175.617 136.239C176.229 136.239 176.718 135.749 176.718 135.137C176.718 134.525 176.229 134.035 175.617 134.035C175.005 134.035 174.516 134.525 174.516 135.137C174.516 135.749 175.005 136.239 175.617 136.239Z" fill="white"/>
<path fill-rule="evenodd" clip-rule="evenodd" d="M94.7146 143.204C95.3264 143.204 95.8159 142.714 95.8159 142.102C95.8159 141.49 95.3264 141 94.7146 141C94.1028 141 93.6133 141.49 93.6133 142.102C93.6133 142.714 94.1028 143.204 94.7146 143.204Z" fill="white"/>
<path fill-rule="evenodd" clip-rule="evenodd" d="M116.941 112.068C117.553 112.068 118.042 111.578 118.042 110.966C118.042 110.354 117.553 109.864 116.941 109.864C116.329 109.864 115.84 110.354 115.84 110.966C115.84 111.578 116.329 112.068 116.941 112.068Z" fill="white"/>
<path fill-rule="evenodd" clip-rule="evenodd" d="M194.242 140.847C194.242 140.847 219.389 133.514 223.703 128.646L220.781 125.11L206.755 121.13C206.755 121.13 191.917 120.273 191.657 120.396C191.397 120.518 182.128 127.208 182.128 127.208L177.952 139.806L177.539 142.301L178.717 143.143L194.242 140.847Z" fill="#050522"/>
<path fill-rule="evenodd" clip-rule="evenodd" d="M170.839 105.624L155.038 103.266L153.539 104.782L163.91 108.165L172.476 108.517" fill="#050522"/>
<path fill-rule="evenodd" clip-rule="evenodd" d="M164.422 80.7791C164.422 80.7791 190.762 85.2489 194.586 86.7032C198.41 88.1574 194.188 88.1727 194.188 88.1727" fill="#050522"/>
</g>
<defs>
<clipPath id="clip0">
<rect width="234" height="149.817" fill="white"/>
</clipPath>
</defs>
</svg>
