<?xml version="1.0" encoding="utf-8"?>
<!-- Generator: Adobe Illustrator 24.2.0, SVG Export Plug-In . SVG Version: 6.00 Build 0)  -->
<svg version="1.1" id="Layer_1" xmlns="http://www.w3.org/2000/svg" xmlns:xlink="http://www.w3.org/1999/xlink" x="0px" y="0px"
	 viewBox="0 0 745.7 665.6" style="enable-background:new 0 0 745.7 665.6;" xml:space="preserve">
<style type="text/css">
	.st0{display:none;fill:url(#zindhu-hr-01_1_);}
	.st1{fill:none;stroke:#FFFFFF;stroke-width:6;stroke-linecap:round;stroke-miterlimit:10;}
	.st2{display:none;}
	.st3{display:inline;fill:#00AAAD;}
	.st4{display:inline;fill:none;stroke:#00AAAD;stroke-width:6;stroke-linecap:round;stroke-miterlimit:10;}
</style>
<radialGradient id="zindhu-hr-01_1_" cx="-577.9725" cy="870.287" r="0.5" gradientTransform="matrix(745.7429 0 0 -665.6134 431391.7188 579607.5)" gradientUnits="userSpaceOnUse">
	<stop  offset="0" style="stop-color:#140958;stop-opacity:0.2"/>
	<stop  offset="1" style="stop-color:#00AAAD;stop-opacity:0.2"/>
</radialGradient>
<path id="zindhu-hr-01" class="st0" d="M75.3,19.9c-3.5,3.1-6.6,6.6-9.4,10.3c-28.1,37.5,50.1,56.1,75.9,66.7
	c40.7,16.6,84.9,27.6,123.6,46.2c44.8,21.6,101,38.8,124.9,72.4c9.6,13.5-7.3,32.1-26.3,35.9c-26.9,5.3-51.3,4.2-75.8,0
	c-36.8-6.2-73-13.4-108.7-21.7c-36.6-8.4-91.1-25.9-132.1-1.2c-8.4,5-16.3,10.8-22.4,17.6s-10.2,14.4-13.6,22
	c-7.6,16.8-12.5,34-11,50.4c6.6,68.6,73.5,113.3,138.5,145c67.1,32.8,141,58.2,209.1,89.7c61.4,28.4,123,56.8,189.4,79
	c33,11.2,66.8,20.4,100.9,27.4c26.5,5.4,64.2,12.4,92.2-5.3c31.2-19.8,7.8-41.9-10.4-55.3c-13.2-9.6-27.1-18.1-41.7-25.4
	c-31.6-16.1-63.8-31.5-96.4-46.6c-65.1-30-131.7-58.3-198.2-86.6c-17.9-7.6-33.9-17.1-50.9-25.5c-17.8-8.8-34.9-19.1-48.2-32
	c-10.4-10.1-7.9-28.2-0.7-42.5c14.1-28,65-38.9,95.1-43.1c54.1-7.5,100.3,8.5,148.7,16.5c37.3,6.2,125.4,13.6,128.3-40.6
	c1.6-29.9-22.4-50.7-47.5-69.5c-54.4-40.7-116.5-77.2-185.7-109C357.3,64.5,294,30.7,212.1,12C173.6,3.2,112.3-13.4,75.3,19.9z"/>
<g id="zindhu-hr-04" transform="translate(-222.404 -88.138)">
	<path id="Path_36" class="st1" d="M628.4,663.3c-1.4,15.5-2.7,31-3.8,46.5"/>
	<path id="Path_37" class="st1" d="M652.1,662.2c2.2,14.5,5.4,28.9,9.4,43.1"/>
	<path id="Path_38" class="st1" d="M674.8,657.5c6.7,14.9,14,29.6,21.9,44.1"/>
	<path id="Path_39" class="st1" d="M702.2,651.8l30.6,42.6"/>
	<path id="Path_40" class="st1" d="M737.1,653.6c11.1,14.6,17.4,18.3,29.5,32.1"/>
	<path id="Path_41" class="st1" d="M767.6,647.5c13.7,15,16,16.6,31.4,30.3"/>
	<path id="Path_42" class="st1" d="M797.1,640.4c15.1,12.2,16.7,13,32.6,24.4"/>
	<path id="Path_43" class="st1" d="M822.4,626.3c18.1,10.3,26,15.2,43.1,26.7"/>
	<path id="Path_44" class="st1" d="M497.6,696.9c47.3,1.4,93.5,1.9,140.6-4.2c39-5.1,77.6-12.4,115.7-22.1
		c37.9-9.6,75.1-21.4,111.5-35.5"/>
	<path id="Path_45" class="st1" d="M496.8,677.1c38.6,1.9,76.6,4.4,115.2,1c39.1-3.5,78-8.7,116.3-16.6
		c38.2-7.8,83.3-21.1,119.2-35.2"/>
	<path id="Path_46" class="st1" d="M490.4,379.9c-1.3,5-4.2,14.8-0.7,18.5c2.7,2.9,7.2,3.2,11.2,3.3c1.6,0,3.4,0,4.4-1.2
		c0.5-0.6,0.8-1.3,1-2.1l12.4-40.2c0.2-0.6,0.4-1.3,0.4-1.9c0.1-2.9-3.3-5-6.1-4.6c-2.9,0.4-5.3,2.3-7.4,4.3
		C498.5,362.5,493.3,370.7,490.4,379.9z"/>
	<path id="Path_47" class="st1" d="M624.4,452.8c3.3-0.3,7.2-3.4,9.2-5.8c5.1-5.9,9.7-12.1,13.9-18.7c2-3.2,3.7-6.6,5.4-9.9
		c0.6-1.2,2.3-3.5,2-4.8c-0.4-2.2-3.3-2.3-5-2c-3.3,0.6-6.5,1.8-9.5,3.6c-10.1,5.5-18.8,13.3-25.5,22.7c-1.2,1.6-2.2,3.2-3.2,4.9
		c-0.8,1.6-0.1,3.2,1.2,4.5c1.5,1.5,3.9,2.6,5.7,3.6c1.1,0.8,2.3,1.4,3.6,1.8C623,452.8,623.7,452.8,624.4,452.8z"/>
	<path id="Path_48" class="st1" d="M526.5,345.8c1.3,0.1,2.5,0.1,3.8,0c3-0.3,6.6-0.8,9.3-2.3c3.6-2,2.4-7.7,0.3-10.2
		c-1.2-1.5-3.8,0.1-5.3,0.7c-2.1,0.8-4.1,1.8-6.1,2.9c-1.8,1-10.2,5.4-6.1,7.7C523.7,345.3,525,345.7,526.5,345.8z"/>
	<path id="Path_49" class="st1" d="M579.1,468c0,0,19.9-1.6,34.6-2.8c5.7-0.5,14-0.4,19-3.3c3.8-2.2,7.6-7,10.6-10.2
		c16.2-16.9,25.4-39.4,25.8-62.8c0.1-19.1-7-35.5-21.6-48c-21.9-18.8-44.7-29.1-80.9-26.2l0,0c-36.2,2.9-57,16.8-75.6,38.9
		c-12.4,14.6-16.8,32-13.6,50.8c4.1,23.1,16.8,43.8,35.5,57.9c3.5,2.7,8,6.8,12.1,8.3c5.4,2.1,13.6,0.7,19.3,0.2
		C559.2,469.6,579.1,468,579.1,468z"/>
	<path id="Path_50" class="st1" d="M580,479.5c19.6-1.4,21.1-1.4,40.8-3.2c3.4-0.1,6.7-0.8,9.9-1.9c17.6-7.1,31.3-25.1,40-41.1
		c9.8-18.1,14.8-38.4,14.5-59c-0.1-6.1-0.7-12.1-2-18c-5.6-26-24.5-48-47.5-61.4c-21.6-12.7-47.3-18.2-72.1-16.5
		c-24.7,2.3-49.2,11.9-68.5,27.9c-20.5,17-35.6,41.6-37,68.2c-0.3,6.1,0,12.1,0.9,18.1c3,20.4,11.2,39.6,23.8,55.9
		c11.2,14.5,27.6,30,46.1,34.2c3.3,0.6,6.8,0.7,10.1,0.3C559,481.5,560.4,481.3,580,479.5z"/>
	<path id="Path_51" class="st1" d="M400.4,620.8c-3.7,2.5-6.6,5.3-8.2,9.5c-1.8,4.7-3.9,9.5-4.8,14.5c-0.4,2.3-2.8,9,0.7,10.4
		c1.7,0.5,3.5,0.6,5.3,0.3c1.7-0.1,3.3-0.4,5-0.8c3.4-1.3,5.3-5.4,6.6-8.5c1.3-3,3.5-10.6,5.5-14c2.8-4.8,5.5-9.1,11.1-13.5"/>
	<path id="Path_52" class="st1" d="M384.4,606.9c-3.2,2-6.2,4.2-9.1,6.7c-2.4,2-5.8,4.3-6.8,7.3c-1.7,5.4-3.1,10.8-4.2,16.3
		c-0.5,2.6-0.6,5.9,2.5,6.9c3.7,1.2,7,0.7,10.8,0c0.3,0,0.6-0.1,0.9-0.3c1-0.8,0.9-2.5,1.1-3.7c0.3-1.8,0.7-3.6,1.2-5.3
		c1-3.5,2.4-6.8,4.2-9.9"/>
	<path id="Path_53" class="st1" d="M432.9,633.6c0.3,3.1,0.2,6.1-0.2,9.2c-0.3,1.1-0.3,2.2,0.2,3.3c0.5,0.7,1.2,1.3,2.1,1.6
		c3.9,1.8,8.1,2.9,10.9-1.2c1.5-2.1,1.8-4.8,2.2-7.4l1.3-10.6c0.6-5,0.8-9.8-1.6-14.4c-2.5-4.7-6.9-8-10-12.3"/>
	<path id="Path_54" class="st1" d="M355.8,647c-3.7,6.6-6.9,13.4-9.7,20.4c-0.1,0.3-0.2,0.6-0.1,0.9c0.1,0.2,0.3,0.4,0.6,0.5
		c15.1,6.5,29.1,8.1,43.1,8.2c4.4,0,8.9-0.2,13-1.6c7.9-2.7,19.8-14.1,26.6-18.9"/>
	<path id="Path_55" class="st1" d="M376.3,655.1l-3.4,6.1c-0.4,0.6-0.7,1.5-0.3,2.1c0.2,0.3,0.5,0.5,0.9,0.6
		c2.7,0.9,5.5,1.5,8.3,1.6l10,0.8c1.4,0.1,3.1,0.2,4.1-0.9c1.9-2.2,3.6-4.5,5.5-6.9"/>
	<path id="Path_56" class="st1" d="M357.3,659.1c3.4,1.6,7.1,2.7,10.8,3.4"/>
	<path id="Path_57" class="st1" d="M604.3,665.8c-7.1,15.5-11.3,29.3-16.8,46.3"/>
	<path id="Path_58" class="st1" d="M578.7,668.3l-26.5,46.8"/>
	<path id="Path_59" class="st1" d="M438,543c9.9-18.1,18.9-45.2,37.4-56.1c6.1-3.5,12.4-6.6,19-9"/>
	<path id="Path_60" class="st1" d="M821.2,601.3c22.3-8.2,44.2-17.2,65.8-27.1"/>
	<path id="Path_61" class="st1" d="M465.2,644c78.4,6.3,163,4.8,240.5-8.9"/>
	<path id="Path_62" class="st1" d="M274.8,624.5c20.8,3.1,41.7,5.5,62.7,7.2"/>
	<path id="Path_63" class="st1" d="M431.5,552.5c-7.5,12-25.8,31.2-31.5,37.4c-6.7,1.2-13.1,1.5-19.3,4.1c-6.1,2.6-12,5.6-17.7,8.9
		c-1.4,0.8-2.8,1.8-3.9,3c-1.2,1.7-2,3.7-2.4,5.8l-6.3,24.3c-0.4,0.9-0.3,1.9,0,2.8c0.8,1.2,2.7,1.6,4,2c2.1,0.4,4.2,0.6,6.3,0.4"/>
	<path id="Path_64" class="st1" d="M760.1,606.8c3.7,2.5,6.6,5.3,8.2,9.5c1.8,4.7,3.9,9.5,4.8,14.5c0.4,2.3,2.8,9-0.7,10.4
		c-1.7,0.5-3.5,0.6-5.3,0.3c-1.7-0.1-3.3-0.4-5-0.8c-3.4-1.3-5.3-5.4-6.6-8.5c-1.3-3-3.5-10.6-5.5-14c-2.8-4.8-5.5-9.1-11.1-13.5"/>
	<path id="Path_65" class="st1" d="M776,592.9c3.2,2,6.2,4.2,9.1,6.7c2.4,2,5.8,4.3,6.8,7.3c1.7,5.4,3.1,10.8,4.2,16.3
		c0.5,2.6,0.6,5.9-2.5,6.9c-3.7,1.2-7,0.7-10.8,0c-0.3,0-0.6-0.1-0.9-0.3c-1-0.8-0.9-2.5-1.1-3.7c-0.3-1.8-0.7-3.6-1.2-5.3
		c-1-3.5-2.4-6.8-4.2-9.9"/>
	<path id="Path_66" class="st1" d="M732.1,624c0.9,2.9,2.2,5.7,3.9,8.3c0.7,0.9,1.1,1.9,1.2,3.1c-0.2,0.9-0.6,1.7-1.3,2.3
		c-2.8,3.2-6.2,5.9-10.5,3.2c-2.2-1.4-3.6-3.7-4.9-5.9l-5.5-9.2c-2.6-4.4-4.7-8.7-4.3-13.9c0.4-5.3,4.2-15.3,4.2-15.3"/>
	<path id="Path_67" class="st1" d="M728.9,538.6c7.5,12,25.8,31.2,31.5,37.4c6.7,1.2,13.1,1.5,19.3,4.1c6.1,2.6,12,5.6,17.7,8.9
		c1.5,0.8,2.8,1.8,3.9,3c1.2,1.7,2,3.7,2.4,5.8l6.3,24.3c0.4,0.9,0.3,1.9,0,2.8c-0.8,1.2-2.7,1.6-4,2c-2.1,0.4-4.2,0.6-6.3,0.4"/>
	<path id="Path_68" class="st1" d="M445.6,610.6c6-6.7,21.4-23.4,26.5-30.7"/>
	<path id="Path_69" class="st1" d="M500.8,552.8c-3.8,4-7.8,7.8-11.9,11.5c-2.4,2.2-4.6,5.3-7.4,7c-4.2,2.5-4.5-0.2-6.2-4.2
		c-3.7-8.4-9.2-16.8-18.1-20.4c-10.5-4.2-19.7-3.1-30.6-1"/>
	<path id="Path_70" class="st1" d="M488.9,564.4c-1.9,18.2-2.7,61,0,78.7"/>
	<path id="Path_71" class="st1" d="M722.4,529c-9.9-18.1-18.9-45.2-37.4-56.1c-6.1-3.5-12.4-6.6-19-9"/>
	<path id="Path_72" class="st1" d="M714.8,596.7c0,0-21.4-23.4-26.5-30.8"/>
	<path id="Path_73" class="st1" d="M659.7,538.8c3.8,4,7.8,7.8,11.9,11.5c2.4,2.2,4.6,5.3,7.4,7c4.2,2.5,4.5-0.2,6.2-4.2
		c3.7-8.4,9.2-16.8,18.1-20.4c10.5-4.2,19.7-3.1,30.6-1"/>
	<path id="Path_74" class="st1" d="M671.6,550.4c1.9,18.2,4.1,69.8,3.2,86.8"/>
	<path id="Path_75" class="st1" d="M549.7,667.5c-11,14.1-22.6,27.7-34.7,40.8"/>
	<path id="Path_76" class="st1" d="M518.5,662.8c-13.3,14.6-27.5,28.5-42.3,41.6"/>
	<path id="Path_77" class="st1" d="M560.5,257c7.2-25.1,19.2-48.5,35.3-69c48.7-61.1,139.4-92.4,215.1-73
		c63.4,16.3,108.1,83.6,124.6,143.7c14.8,54.2,7.4,115.4-25.3,161.2c-29.1,40.7-75.6,66.5-124,79.3c-15.4,4.2-31.4,6.2-47.4,5.9"/>
	<path id="Path_91" class="st1" d="M547.2,497.8c5,6.1,10.6,11.7,16.8,16.6c5.6,4.4,12.6,8.5,19.6,7c4.3-0.9,7.8-3.8,11.1-6.8
		c6.6-6.2,12.6-13,17.7-20.5"/>
</g>
<g id="zindhu-hr-02" transform="translate(-222.404 -88.138)" class="st2">
	<path id="Path_76-2" class="st3" d="M303.3,341.5c-1.6,0.6-2.5,2.4-1.9,4c0.6,1.6,2.4,2.5,4,1.9c1.6-0.6,2.5-2.4,1.9-4
		c-0.5-1.5-2.2-2.4-3.8-2"/>
	<path id="Path_77-2" class="st3" d="M812.4,526c-1.6,0.6-2.5,2.3-2,4c0.6,1.6,2.3,2.5,4,2c1.6-0.6,2.5-2.3,2-4
		c-0.5-1.6-2.2-2.5-3.8-2"/>
	<path id="Path_78-2" class="st3" d="M273.8,425.8c-1.6,0.6-2.5,2.4-1.9,4c0.6,1.6,2.4,2.5,4,1.9s2.5-2.4,1.9-4
		c-0.5-1.5-2.2-2.4-3.8-2"/>
	<path id="Path_79-2" class="st3" d="M319.4,480.2c-1.6,0.6-2.5,2.4-1.9,4s2.4,2.5,4,1.9s2.5-2.4,1.9-4c-0.5-1.5-2.2-2.4-3.8-2"/>
	<path id="Path_80-2" class="st3" d="M896.1,518.8c-1.6,0.6-2.5,2.4-1.9,4c0.6,1.6,2.4,2.5,4,1.9s2.5-2.4,1.9-4
		c-0.5-1.5-2.2-2.4-3.7-2"/>
	<path id="Path_81-2" class="st3" d="M410.9,203.2c0.5,1.3,2,2,3.3,1.5c0.4-0.1,0.7-0.3,0.9-0.6c0.8-1.2,0.5-2.9-0.7-3.8
		c0,0,0,0,0,0c-0.3-0.2-0.5-0.3-0.8-0.4c-1.6-0.2-3,1-3.2,2.6l0,0c0,0.2,0,0.4,0,0.7"/>
	<path id="Path_82-2" class="st3" d="M472.4,239.4c0.5,1.3,1.9,2,3.3,1.6c1.3-0.5,2-1.9,1.6-3.3s-1.9-2-3.3-1.6
		c-0.8,0.3-1.4,0.9-1.6,1.8"/>
	<path id="Path_83-2" class="st3" d="M275.5,183.3c0.5,1.3,1.9,2,3.3,1.6c1.3-0.5,2-1.9,1.6-3.3c-0.5-1.3-1.9-2-3.3-1.6
		c-0.8,0.3-1.4,0.9-1.6,1.8"/>
	<path id="Path_84-2" class="st3" d="M529.9,245.3c0.5,1.3,1.9,2,3.3,1.6c1.3-0.5,2-1.9,1.6-3.3c-0.5-1.3-1.9-2-3.3-1.6
		c-0.8,0.3-1.4,0.9-1.6,1.8"/>
	<path id="Path_84-2-2" class="st3" d="M862.9,487.2c0.5,1.3,1.9,2,3.3,1.6c1.3-0.5,2-1.9,1.6-3.3c-0.5-1.3-1.9-2-3.3-1.6
		c-0.8,0.3-1.4,0.9-1.6,1.8"/>
	<path id="Path_85-2" class="st3" d="M245.1,552.4c-1.3,1.4-1.2,3.6,0.2,4.9l0,0c0.1,0.1,0.2,0.1,0.2,0.2c1.7,1,3.9,0.5,5-1.2l0,0
		c0,0,0,0,0-0.1c0.9-1.7,0.3-3.9-1.5-4.8c-1.5-0.8-3.4-0.4-4.5,1"/>
	<path id="Path_86-2" class="st3" d="M339.8,233.7c1.2,0.1,2.4-0.1,3.4-0.8c1-0.6,1.6-1.8,1.5-3.1c-0.2-1-1-1.8-1.9-2.1
		c-1-0.3-2-0.2-2.9,0.3c-0.9,0.4-1.6,1.3-1.9,2.3c-0.3,1,0.1,2.1,1,2.7"/>
	<path id="Path_87-2" class="st3" d="M521,159.4c1.2,0.1,2.4-0.1,3.5-0.8c1-0.6,1.6-1.8,1.5-3.1c-0.2-1-1-1.8-1.9-2.1
		c-1-0.3-2-0.2-2.9,0.3c-0.9,0.4-1.6,1.3-1.9,2.3c-0.3,1,0.1,2.1,1,2.7"/>
	<path id="Path_88-2" class="st3" d="M392.8,428.7c1.2,0.1,2.4-0.1,3.5-0.8c1-0.6,1.6-1.8,1.5-3.1c-0.2-1-1-1.8-1.9-2.1
		c-1-0.3-2-0.2-2.9,0.3c-0.9,0.4-1.6,1.3-1.9,2.3c-0.3,1,0.1,2.1,1,2.7"/>
	<path id="Path_88-2-2" class="st3" d="M420.2,480.9c1.2,0.1,2.4-0.1,3.5-0.8c1-0.6,1.6-1.8,1.5-3.1c-0.2-1-1-1.8-1.9-2.1
		c-1-0.3-2-0.2-2.9,0.3c-0.9,0.4-1.6,1.3-1.9,2.3c-0.3,1,0.1,2.1,1,2.7"/>
	<path id="Path_89-2" class="st3" d="M349.4,577.1c1.2,0.1,2.4-0.1,3.4-0.8c1-0.6,1.6-1.8,1.5-3.1c-0.2-1-1-1.8-1.9-2.1
		c-1-0.3-2-0.2-2.9,0.3c-0.9,0.4-1.6,1.3-1.9,2.3c-0.3,1,0.1,2.1,1,2.7"/>
	<path id="Path_90-2" class="st3" d="M416.7,272.6c1.2,0.1,2.4-0.1,3.4-0.8c1-0.6,1.6-1.8,1.5-3.1c-0.2-1-1-1.8-1.9-2.1
		c-1-0.3-2-0.2-2.9,0.3c-0.9,0.4-1.6,1.3-1.9,2.3c-0.3,1,0.1,2.1,1,2.7"/>
	<path id="Path_91-2" class="st3" d="M941.4,455.9c1.2,0.1,2.4-0.1,3.4-0.8c1-0.6,1.6-1.8,1.5-3.1c-0.2-1-1-1.8-1.9-2.1
		c-1-0.3-2-0.2-2.9,0.3c-0.9,0.4-1.6,1.3-1.9,2.3c-0.3,1,0.1,2.1,1,2.7"/>
	<path id="Path_91-2-2" class="st3" d="M772.3,561.1c1.2,0.1,2.4-0.1,3.4-0.8c1-0.6,1.6-1.8,1.5-3.1c-0.2-1-1-1.8-1.9-2.1
		c-1-0.3-2-0.2-2.9,0.3c-0.9,0.4-1.6,1.3-1.9,2.3c-0.3,1,0.1,2.1,1,2.7"/>
	<path id="Path_91-3" class="st3" d="M842.5,569c1.2,0.1,2.4-0.1,3.4-0.8c1-0.6,1.6-1.8,1.5-3.1c-0.2-1-1-1.8-1.9-2.1
		c-1-0.3-2-0.2-2.9,0.3c-0.9,0.4-1.6,1.3-1.9,2.3c-0.3,1,0.1,2.1,1,2.7"/>
</g>
<g id="zindhu-hr-03" transform="translate(-222.404 -88.138)" class="st2">
	<path id="Path_78" class="st4" d="M733.2,184.6c-17.2-0.9-33.9,12.7-36.7,29.7c-1.2,7.7,0.4,16.3,6.1,21.7
		c10.4,9.8,23.9,5.9,34.8-0.8c11.1-6.9,12.8-18.5,10.5-30.9"/>
	<path id="Path_79" class="st4" d="M871.9,368.9c10.6-9.6,12.5-27.4,4.1-39c-3.8-5.3-9.8-9.3-16.3-9.2c-6,0.2-11.4,3.9-14.9,8.7
		c-8.9,12.6-3.8,30.1,6.9,39.8"/>
	<path id="Path_80" class="st4" d="M665.4,292.9c0.7-12.1-6-23.8-15.4-31.4"/>
	<path id="Path_81" class="st4" d="M640,257.4c-9.3-2-19,2.7-24.7,10.4"/>
	<path id="Path_82" class="st4" d="M870.7,305.6c-17.4-0.3-35.5,6.8-45.5,21s-9.8,35.8,2.8,47.8c8,7.7,19.3,10.6,30.3,12.2
		c4.4,0.6,8.8,1.1,13.2,0.2c4-0.9,7.8-2.6,11.1-4.9c13.9-9.4,22.3-27,18.8-43.4"/>
	<path id="Path_83" class="st4" d="M696.5,144c-6.6,1.5-13.3,3.8-18.3,8.4s-8.1,11.8-6.3,18.3c1.7,5.6,6.4,9.9,12.1,11.2
		c5.7,1.2,11.7-0.1,16.4-3.7c4.3-3.1,7.3-7.7,8.2-12.9c0.9-5.3-1-10.6-4.8-14.3"/>
	<path id="Path_84" class="st4" d="M813.4,408.3c-3.6,5.7-6.7,12.1-7,18.9s2.6,14.1,8.5,17.4c5.2,2.8,11.5,2.5,16.5-0.6
		c4.9-3.2,8.2-8.4,9-14.2c0.9-5.2-0.3-10.6-3.3-15c-3.1-4.3-8.2-6.8-13.5-6.7"/>
	<path id="Path_85" class="st4" d="M848.6,410.8c-6.6-10.1-9.8-14.3-21.9-15.1c-10.2-0.7-21.5,2.1-27.2,11.3
		c-7.8,12.4-11.9,25.7-3,39c7.2,10.7,19.3,19.6,32.8,16.1c19.4-5,29.6-22.8,27.8-42.6"/>
	<path id="Path_86" class="st4" d="M719.7,447.4c4.6,3.5,11.2,3.3,16.3,0.7s8.8-7.3,11.5-12.4c3.9-7.3,5.7-16.6,1.4-23.7
		c-4.2-6.9-12.8-9.5-20.8-10.5c-4-0.5-8.3-0.7-11.9,1.2c-5.4,2.9-7.5,9.4-8.6,15.4c-1.2,6.3-1.8,13,0.3,19.1s7.9,11.3,14.3,11"/>
	<path id="Path_87" class="st4" d="M807.1,156.6c-0.1,5.8,6.5,9.1,12,10.9c2.2,0.7,4.6,1.5,6.7,0.6c2.3-1,3.5-3.7,3.6-6.2
		c0.1-6-4.6-11-10.6-11.2c-3-0.1-6,1.1-8.1,3.3"/>
	<path id="Path_88" class="st4" d="M751.5,346.6c9.9,2.9,12-7.4,7.3-13.9c-2.5-3.4-6.6-5.2-10.7-4.8c-4.2,0.6-7.5,3.8-8.2,8
		c-0.4,3,0.9,6,2.1,8.8"/>
	<path id="Path_89" class="st4" d="M647.9,291.2c1.2-3.4,0.6-7.2-1.6-10c-2.5-3.4-6.6-5.2-10.7-4.8"/>
	<path id="Path_90" class="st4" d="M712.5,213.8c-0.8-2.9-0.1-6,1.8-8.3c1.9-2.3,4.6-3.8,7.5-4.3c2.8-0.7,5.8-0.3,8.3,1.2
		c2.9,2,4.3,5.6,4.9,9.1c0.7,4.6,0.3,9.7-2.6,13.4"/>
</g>
</svg>
