<?xml version="1.0" encoding="utf-8"?>
<!-- Generator: Adobe Illustrator 24.2.0, SVG Export Plug-In . SVG Version: 6.00 Build 0)  -->
<svg version="1.1" id="Layer_1" xmlns="http://www.w3.org/2000/svg" xmlns:xlink="http://www.w3.org/1999/xlink" x="0px" y="0px"
	 viewBox="0 0 817.1 576.7" style="enable-background:new 0 0 817.1 576.7;" xml:space="preserve">
<style type="text/css">
	.st0{display:none;fill:url(#Path_93_1_);}
	.st1{display:none;}
	.st2{display:inline;fill:none;stroke:#FFFFFF;stroke-width:6;stroke-linecap:round;stroke-miterlimit:10;}
	.st3{display:inline;fill:#00AAAD;}
	.st4{display:none;fill:none;stroke:#FFFFFF;stroke-width:6;stroke-linecap:round;stroke-miterlimit:10;}
	.st5{fill:none;stroke:#00AAAD;stroke-width:6;stroke-linecap:round;stroke-miterlimit:10;}
</style>
<g id="Group_15" transform="translate(-186.719 -132.604)">
	
		<radialGradient id="Path_93_1_" cx="-370.5797" cy="965.9074" r="0.5" gradientTransform="matrix(817.1081 0 0 -576.6824 303398.9688 557442.75)" gradientUnits="userSpaceOnUse">
		<stop  offset="0" style="stop-color:#140958;stop-opacity:0.2"/>
		<stop  offset="1" style="stop-color:#00AAAD;stop-opacity:0.2"/>
	</radialGradient>
	<path id="Path_93" class="st0" d="M395.5,305.4c-46,53.9-67.6,129.4-30.6,194.8c73.8,130.6,251.2-31.8,320.2-83.2
		c18.9-14.1,38.5-27.6,60-37.3c64.1-29,155.7-43.2,213,6.5c55.6,48.1,58.4,129.5,19.7,188.7c-49.5,75.7-145.9,117.5-234.9,102
		c-31.3-5.5-55.8-26.4-52.4-61.2c1.5-14.7,9-28.1,20.8-37c5.8-4.2,12.1-7.5,18.9-9.8c16-5.9,36-4.3,51.7-12.3
		c21.7-11,24.8-35.8,4.9-51.3c-7.6-5.9-16.3-10-25.6-12.2c-15.1-3.5-31-1.7-45.8,3c-25.2,8-48.2,23.1-68.9,39.2
		c-28.1,21.7-52.5,47.3-71.9,76.5c-20.1,30.2-44.4,58.9-77,75.9c-70.9,36.8-170.9,26.3-229.4-27.9c-15.9-14.7-31.2-30.4-43.2-48.5
		c-19.6-29.4-29.9-64.2-35-99.1c-30.4-207.6,167.5-349.1,351.3-375.6c2.3-0.3,4.6-0.6,6.9-1c22.9-3,58.1-8.3,75,12.4
		c19.7,24.1-10.1,56.5-32,65c-61.9,24.1-125.7,25.3-177.1,73.2C407.4,292.2,401.2,298.6,395.5,305.4z"/>
	<g id="Group_13" class="st1">
		<path id="Path_94" class="st2" d="M710.5,448c3.4,45.4,19.7,94.1,35.8,134.3"/>
		<path id="Path_95" class="st2" d="M784.7,442.5c2.8,5.6,4.5,8.9,7.1,15.2"/>
		<path id="Path_96" class="st2" d="M820.9,451.3c4.7,13.1,23.1,91.9,21.9,105.5c-0.3,3-0.7,6.2-2.7,8.5c-1.1,1.5-2.7,2.6-4.5,3.2
			c-7.6,1.7-15.4,3-23.2,3.8c-0.5,0.1-1-0.2-1.2-0.6c-0.5-1-1.1-2.6-0.8-3c0.4-0.5,0.9-1,1.6-1.3c4.3-2.4,8.7-3.7,13.2-5.5"/>
		<path id="Path_97" class="st2" d="M791.8,457.6c4.7,10.1,28.1,74.6,31.6,84.6c0.2,0.9,0.3,1.9,0.1,2.8c-0.2,1-0.7,1.9-1.4,2.6
			c-1.9,1.7-4,3.2-6.2,4.4c-0.8,0.4-1.4,0.9-1.8,1.7c-0.6,1.3,0.1,2.8,0.7,4c3.5-0.4,10.3-2,10.3-2"/>
		<path id="Path_98" class="st2" d="M803.1,486.5c-11.9,0.9-30.5,1.7-42.9,2.2c-2.9,0.1-5.2,2.6-5.1,5.5v0c1,22.6,4.7,47.5,7,67
			c0.4,3.1,3.1,5.4,6.2,5.2c10.3-0.5,34-2.2,34-2.2"/>
		<path id="Path_99" class="st2" d="M830,484.9c8.3-0.1,31.8-1.4,44.6-1.7c2.8-0.1,5.2,2.1,5.4,4.9c0.4,6,0.7,9.4,1.1,15.3"/>
		<path id="Path_100" class="st2" d="M671,437.9c10.9-6.1,41-20.9,51.2-26.5"/>
		<path id="Path_101" class="st2" d="M668.7,433.9c5.9,12.6,12.4,28,17.3,41"/>
		<path id="Path_102" class="st2" d="M598.5,496.8c8.5-2.1,50.4-14.1,65.6-19.4c13.2-4.7,35.5-11.4,47.9-16.4"/>
		<path id="Path_103" class="st2" d="M705.2,478.4c-16.2,39.6-33.7,81.2-50.2,119.8"/>
		<path id="Path_104" class="st2" d="M801.8,407c37.3,0.4,88.7-0.4,127.8,0.7c3,0.1,5.3,2.6,5.2,5.6c0,0.7-0.2,1.3-0.4,1.9
			c-15.8,38.4-34.3,90-48.8,126.4"/>
		<path id="Path_105" class="st2" d="M666.1,598.2c10.2-23.6,43.1-103.3,43.1-103.3"/>
		<path id="Path_106" class="st2" d="M807.7,417.3c29.9,0.2,74.2,0,103.9,0.5c2.9,0,5.2,2.4,5.1,5.3c0,0.7-0.1,1.3-0.4,1.9
			c-11.6,27.5-19.9,51.6-31.2,78.3"/>
		<path id="Path_107" class="st2" d="M862.3,558.3c-5.7,12.7-9,20.8-14.2,31.9c-2.2,4.8-7,7.9-12.3,7.9H606.4
			c-3.5,0-6.4,2.9-6.4,6.4v0c0,0,0,0.1,0,0.1v0c0.1,3.7,3,6.6,6.7,6.6h229.5c3.3,0,7.6,0,11.5-0.1c5.4-0.1,10.3-3.3,12.4-8.3
			c6.8-15.8,12.7-29.8,19.3-46.6"/>
		<path id="Path_108" class="st2" d="M464,514.3c16.2,39.6,18.6,45.3,35.1,83.9"/>
		<path id="Path_109" class="st2" d="M488.1,598.2c-10.2-23.6-35-83.9-35-83.9"/>
		<path id="Path_110" class="st2" d="M340.7,417.4c-29.9,0.2-68.5,0-98.2,0.5c-2.9,0-5.2,2.4-5.1,5.3c0,0.7,0.1,1.3,0.4,1.9
			c11.6,27.5,63.1,154,68.2,165.1c2.2,4.8,7,7.9,12.3,7.9h229.3c3.5,0,6.4,2.9,6.4,6.4v0v0.1c-0.1,3.7-3,6.6-6.7,6.6H317.9
			c-3.3,0-7.6,0-11.5-0.1c-5.4-0.1-10.3-3.3-12.4-8.3c-6.8-15.8-58.5-149.4-74.2-187.8c-1.1-2.8,0.2-5.9,2.9-7.1
			c0.6-0.2,1.2-0.4,1.9-0.4c39.1-1.1,105.5-0.4,142.9-0.8"/>
		<path id="Path_111" class="st2" d="M698,404.4c0.5,1.7,1.5,4.7,2.3,7.1c0.6,1.9,2.4,3,4.4,2.8c27.3-3.3,56.5-12.8,80.3-26.6
			c1.4-0.8,2.1-2.5,1.7-4.1l-1.9-7.9c3.2-6.9,4.1-18.4,3.2-26.4c-0.9-7.6-2.4-15.3-5.8-22.2c-7.4-15.2-19-25.1-35.2-29.9
			c-18.3-5.4-62.9,3-64.9,19.9"/>
		<path id="Path_112" class="st2" d="M784.7,375.7c-7.7,3.8-34.5,14.1-46.7,18"/>
		<path id="Path_113" class="st2" d="M692.7,314.9c10.9,4.2,20.1,12.1,26.9,21.6c4.2,5.9,7.6,12.3,10.2,19.1c4,10,4.2,21.2,0.6,31.3
			l-0.1,0.2c-0.2,0.7-0.6,1.4-1,2c-0.7,0.6-1.4,1.1-2.3,1.5c-7.2,3.5-21.7,10.2-29.1,13.7c-13.8-8.2-22.7-23.5-24.6-39.4
			s2.8-32.3,11.5-45.8"/>
		<path id="Path_114" class="st2" d="M733.9,344.7c-1.9-5.2-5.2-9.8-8.6-14.2c-3.1-4.3-6.7-8.2-10.7-11.6c-4.1-3.7-8.8-6.7-13.9-8.9
			"/>
		<path id="Path_115" class="st2" d="M690,327.3c0.3-0.5,1-0.7,1.5-0.5c1.4,0.5,3.6,1.5,3.8,2.3c0.1,1.1-0.1,2.1-0.4,3.1
			c-2.1,6.7-5.5,13.1-6.3,20.1c0,0.2-0.1,0.4-0.2,0.6c-0.1,0.1-0.3,0.1-0.5,0.1l-2.4-0.3c-1,0-2-0.4-2.7-1.1
			c-0.4-0.6-0.5-1.3-0.5-1.9c-0.1-3.9,1.3-8.4,2.5-12.1C685.9,333.8,687.7,330.4,690,327.3z"/>
		<path id="Path_116" class="st2" d="M688.4,360.5c1.1,0.1,2.1,1,2.2,2.1c1.1,7.1,5.5,13.5,8.9,20c0.1,0.2,0.1,0.3,0.2,0.5
			c0,0.4-0.4,0.6-0.8,0.7c-1.6,0.7-3.4,1.3-5.1,1.6c-1.8,0.3-3.6-0.1-5.1-1.1c-1.2-1-2.1-2.2-2.7-3.6c-3.2-6.1-4.8-11.2-4.6-18.5
			c0-1.3,1.2-2.4,2.5-2.4c0.1,0,0.3,0,0.4,0C685.6,360.1,687,360.3,688.4,360.5z"/>
		<path id="Path_117" class="st2" d="M753.7,347.9c-3.1-0.1-4.9,3.2-5.6,5.8c-0.7,2.8-0.4,5.8,0.9,8.4c1.6,2.9,4.7,4.5,8,4.2
			c3.2-0.4,6-2.5,7.3-5.5c1.2-3,0.9-6.5-0.9-9.2"/>
		<path id="Path_118" class="st2" d="M462,406.9c-0.5,1.7-1.5,4.7-2.3,7.1c-0.6,1.9-2.4,3-4.4,2.8c-27.3-3.3-56.5-12.8-80.3-26.6
			c-1.4-0.8-2.1-2.5-1.7-4.1l1.9-7.9c-3.2-6.9-4.1-18.4-3.2-26.4c0.9-7.6,2.4-15.3,5.8-22.2c7.4-15.2,19-25.1,35.2-29.9
			c18.3-5.4,62.9,3,64.9,19.9"/>
		<path id="Path_119" class="st2" d="M375.2,378.3c7.7,3.8,34.5,14.1,46.7,18"/>
		<path id="Path_120" class="st2" d="M467.2,317.4c-10.9,4.2-20.1,12.1-26.9,21.6c-4.2,5.9-7.6,12.3-10.2,19.1
			c-4,10-4.2,21.2-0.6,31.3l0.1,0.2c0.2,0.7,0.6,1.4,1,2c0.7,0.6,1.4,1.1,2.3,1.5c7.2,3.5,21.7,10.2,29.1,13.7
			c13.8-8.2,22.7-23.5,24.6-39.4s-2.8-32.3-11.5-45.8"/>
		<path id="Path_121" class="st2" d="M426.1,347.2c1.9-5.2,5.2-9.8,8.6-14.2c3.1-4.3,6.7-8.2,10.7-11.6c4.1-3.7,8.8-6.7,13.9-8.9"/>
		<path id="Path_122" class="st2" d="M470,329.8c-0.3-0.5-1-0.7-1.5-0.5c-1.4,0.5-3.6,1.5-3.8,2.3c-0.1,1.1,0.1,2.1,0.4,3.1
			c2.1,6.7,5.5,13.1,6.3,20.1c0,0.2,0.1,0.4,0.2,0.6c0.1,0.1,0.3,0.1,0.5,0.1l2.4-0.3c1,0,2-0.4,2.7-1.1c0.4-0.6,0.5-1.3,0.5-1.9
			c0.1-3.9-1.3-8.4-2.5-12.1C474,336.3,472.3,332.9,470,329.8z"/>
		<path id="Path_123" class="st2" d="M471.6,363c-1.1,0.1-2.1,1-2.2,2.1c-1.1,7.1-5.5,13.5-8.9,20c-0.1,0.2-0.1,0.3-0.2,0.5
			c0,0.4,0.4,0.6,0.8,0.7c1.6,0.7,3.4,1.3,5.1,1.6c1.8,0.3,3.6-0.1,5.1-1.1c1.2-1,2.1-2.2,2.7-3.6c3.2-6.1,4.9-11.2,4.6-18.5
			c0-1.3-1.2-2.4-2.5-2.4c-0.1,0-0.3,0-0.4,0C474.4,362.6,473,362.8,471.6,363z"/>
		<path id="Path_124" class="st2" d="M406.2,350.5c3.1-0.1,4.9,3.2,5.6,5.8c0.7,2.8,0.4,5.8-0.9,8.4c-1.6,2.9-4.7,4.5-8,4.2
			c-3.2-0.4-6-2.5-7.3-5.5c-1.2-3-0.9-6.5,0.9-9.2"/>
		<path id="Path_125" class="st2" d="M436.1,508.8c-2.6,19.2-8.8,51.2-14.3,73.5"/>
		<path id="Path_126" class="st2" d="M407.2,429.1c20.7,13.2,46,31,69.6,37.8"/>
		<path id="Path_127" class="st2" d="M479.1,461.8c-8.2,13.2-3.7,38.2,1,47.4"/>
		<path id="Path_128" class="st2" d="M480.1,434.1c-3.4,6.2-10.1,20-14.2,28.9"/>
		<path id="Path_129" class="st2" d="M556,478.6c-31.2-2.4-41.3-1.2-71.7-8.4"/>
		<path id="Path_130" class="st2" d="M566.2,505.4c-8.6,1.7-70.1,0-86.1-1.6c-45.5-4.6-91.1-21-123.6-47.5c-0.6-8,0-16.1,1.7-23.9"
			/>
		<path id="Path_131" class="st2" d="M378.6,404.7c-9.5,2-24.4,4.2-33,8.8c-7.9,4.2-12.9,16.1-14.6,24.8
			c-7.9,38.7-14.3,99-15.3,138.4"/>
		<path id="Path_132" class="st2" d="M449.4,426.5c13.2,4.7,39.4,13.1,51.9,19.5"/>
		<path id="Path_133" class="st2" d="M501.2,446c18.3-16.2,29.8-25,48.1-41.8c0.2-3.7-0.9-13.8-2.3-17.2c-0.2-0.4-0.1-1,0.2-1.3
			c0.6-0.6,1.3-1.2,2-1.8c0.6-0.5,4.9-0.1,5.4,0.6c1.8,2.5,3.2,5.3,4,8.3c2-1.1,12-5.6,16.4-6.9c1.1-0.3,2.2,0.1,2.3,1.2l0.9,8"/>
		<path id="Path_134" class="st2" d="M580.6,403.5c0-2.5-0.2-5.1-0.6-7.6c0-0.4-0.2-0.7-0.5-1c-0.3-0.2-0.8-0.2-1.1,0
			c-1,0.5-4.1,2.1-7.2,3.7c-0.2-0.8-0.3-2.4-0.5-3.2"/>
		<path id="Path_135" class="st2" d="M581.7,411.7c0,0-0.2-5.7-0.3-6.7c-0.1-0.5-0.1-0.8-0.5-1c-0.4-0.1-0.8-0.1-1.2,0
			c0,0-5.1,2.1-7.1,3l-0.2-1.9"/>
		<path id="Path_136" class="st2" d="M557.6,432.3l24.5-10.8c0.7-0.3,1-1.8,0.9-2.5l-0.3-5.4c0-0.9-0.8-1.6-1.7-1.5
			c-0.1,0-0.2,0-0.3,0c-2.3,0.5-4.9,2.3-6.9,2.8c-0.2-0.9-0.3-2-0.3-2"/>
		<path id="Path_137" class="st2" d="M514.1,475.4c11.3-11.2,39.5-34.5,51.5-46.2"/>
		<path id="Path_138" class="st2" d="M569.1,487.7c-0.3,0.2-0.7,0.3-1.1,0.3c-0.6-0.1-0.9-0.7-1.3-1.3c-0.2-0.3-0.3-0.6-0.5-0.8
			c-1-1.6-0.7-3.7,0.6-5c1.9-2,3.8-4.1,5.6-6.2c0.9-1,2.3-1.4,3.5-0.9c3.5,1.4,7,2.5,10.7,3.4c29.4-10.5,46.7-18.1,74.2-33"/>
		<path id="Path_139" class="st2" d="M582.9,498.2c2,0,4.1,0.3,5.9,0.3c0.9,0,1.7-0.7,1.7-1.6v0c0-1,0-2.1,0-3"/>
		<path id="Path_140" class="st2" d="M583.3,487c1.9,0.1,3.8,0.3,5.6,0.3c0.9,0,1.6,0.2,1.7-0.7c0-0.2,0.1-4.8,0.1-5.1
			c0-0.9-0.6-1.6-1.5-1.7c-1.6-0.1-10.2-0.5-11.6-0.6"/>
		<path id="Path_141" class="st2" d="M583,498.1l4.5,6.6c0.7,0.8,0.6,2-0.2,2.7c0,0,0,0,0,0c0,0-0.1,0.1-0.1,0.1
			c-1.5,1.1-3.1,2.1-4.8,3.1c-0.7,0.3-1.5,0.1-2-0.5c-0.6-0.9-1.1-1.5-1.1-1.5"/>
		<path id="Path_142" class="st2" d="M578.8,491.3c0.5,0.8,3.5,5.5,4.1,6.3c0.5,0.7,0.4,1.8-0.4,2.3l0,0c-1.3,0.8-3.4,2.1-5.1,3.1
			c-0.5,0.3-1.1,0.1-1.4-0.3c-0.5-0.7-0.5-0.8-0.9-1.4"/>
		<path id="Path_143" class="st2" d="M575.6,486.2c1.2,1.8,2.9,4.5,3,4.7c0.5,0.8-0.2,1-1,1.5c-1.2,0.8-3.1,2-4.7,3
			c-0.6,0.3-1.3,0.2-1.6-0.4l0,0c-0.5-0.8-0.3-0.7-0.7-1.4"/>
		<path id="Path_144" class="st2" d="M734.6,417.2c-1.7,5.6-0.5,18,0.6,19.7c0.2,0.3,0.6,0.6,1,0.7c0.5,0.2,1-0.2,1.4-0.6
			c11-10.8,19.6-27.2,29.9-38.7c0,0,14.6,0,22.8,1c3.2,0.4,8.3,2.7,10,5.4c7.5,12,14.6,26.2,18.7,38.4"/>
		<path id="Path_145" class="st2" d="M788.6,460.2c9.4-8,22.5-14.2,34.1-18.4"/>
		<line id="Line_1" class="st2" x1="574.5" y1="420.9" x2="574.9" y2="424.7"/>
		<path id="Path_146" class="st2" d="M764.4,565.2l12-52.5c0.3-2.2,2.1-3.9,4.4-4c7.8-0.6,19.5-1.4,19.5-1.4"/>
		<path id="Path_147" class="st2" d="M835.1,506.1c0,0,33.7-2.2,49.9-2.7c2.7,0,4.9,2.1,4.9,4.8c0,0.3,0,0.7-0.1,1
			c-1.7,11.6-3.3,28.8-5.6,40.1c-0.7,3.6-2.4,6.8-5.9,7.2c-12,1.6-22.6,2.4-36.1,4"/>
		<path id="Path_148" class="st2" d="M762.1,561.2l5.6-57c0.5-2.5,2.6-4.4,5.2-4.6l23.8-1.5"/>
		<path id="Path_149" class="st2" d="M832.7,497.5l36-2c2.3-0.1,4.2,1.7,4.3,4c0,0.2,0,0.5,0,0.7l-0.4,3.3"/>
		<path id="Path_150" class="st2" d="M433.4,425.1l2.6,22.3"/>
		<path id="Path_151" class="st2" d="M588.7,503.3c6.6-4.6,19.7-12.8,19.7-12.8"/>
		<path id="Path_152" class="st2" d="M552.9,483.4c1.6-1.5,6.3-8.1,7.7-9.8c0.1-0.3,0.4-0.4,0.7-0.2l0,0l6.5,2.3"/>
	</g>
	<g id="Group_14" class="st1">
		<path id="Path_76-2" class="st3" d="M222.4,354.7c-1.4,0.5-2.1,2-1.6,3.4c0.5,1.4,2,2.1,3.4,1.6c1.4-0.5,2.1-2,1.6-3.4
			c-0.4-1.3-1.8-2.1-3.2-1.7"/>
		<path id="Path_77-2" class="st3" d="M640.4,558.7c-1.4,0.5-2.2,2-1.7,3.4c0.5,1.4,2,2.2,3.4,1.7c1.4-0.5,2.2-2,1.7-3.4
			c-0.4-1.3-1.8-2.1-3.2-1.8"/>
		<path id="Path_77-2-2" class="st3" d="M626.4,662.6c-1.4,0.5-2.2,2-1.7,3.4s2,2.2,3.4,1.7c1.4-0.5,2.2-2,1.7-3.4
			c-0.4-1.3-1.8-2.1-3.2-1.8"/>
		<path id="Path_78-2" class="st3" d="M782.8,168c-1.4,0.5-2.1,2-1.6,3.4c0.5,1.4,2,2.1,3.4,1.6s2.1-2,1.6-3.4
			c-0.4-1.3-1.8-2.1-3.2-1.7"/>
		<path id="Path_79-2" class="st3" d="M520.6,536c-1.4,0.5-2.1,2-1.6,3.4s2,2.1,3.4,1.6c1.4-0.5,2.1-2,1.6-3.4
			c-0.4-1.3-1.8-2-3.2-1.7"/>
		<path id="Path_80-2" class="st3" d="M638.3,515.3c-1.4,0.5-2.1,2-1.6,3.4c0.5,1.4,2,2.1,3.4,1.6c1.4-0.5,2.1-2,1.6-3.4
			c-0.4-1.3-1.8-2.1-3.2-1.7"/>
		<path id="Path_81-2" class="st3" d="M405.4,235c0.4,1.1,1.7,1.7,2.8,1.2c0.3-0.1,0.6-0.3,0.8-0.5c0.7-1.1,0.4-2.5-0.6-3.2
			c-0.2-0.1-0.5-0.3-0.7-0.3c-1.3-0.1-2.6,0.8-2.7,2.2l0,0c0,0.2,0,0.4,0,0.6"/>
		<path id="Path_81-2-3" class="st3" d="M603,446.7c0.4,1.1,1.7,1.7,2.8,1.2c0.3-0.1,0.6-0.3,0.8-0.5c0.7-1.1,0.4-2.5-0.6-3.2
			c-0.2-0.1-0.5-0.3-0.7-0.3c-1.3-0.1-2.6,0.8-2.7,2.2l0,0c0,0.2,0,0.4,0,0.6"/>
		<path id="Path_82-2" class="st3" d="M522,173.4c0.4,1.1,1.6,1.7,2.8,1.3c1.1-0.4,1.7-1.6,1.3-2.8c-0.4-1.1-1.6-1.7-2.8-1.3
			c-0.7,0.2-1.2,0.8-1.4,1.5"/>
		<path id="Path_82-2-2" class="st3" d="M861.4,246.2c0.4,1.1,1.6,1.7,2.8,1.3s1.7-1.6,1.3-2.8c-0.4-1.1-1.6-1.7-2.8-1.3
			c-0.7,0.2-1.2,0.8-1.4,1.5"/>
		<path id="Path_83-2" class="st3" d="M339.1,244.1c0.4,1.1,1.6,1.7,2.8,1.3c1.1-0.4,1.7-1.6,1.3-2.8c-0.4-1.1-1.6-1.7-2.8-1.3
			c-0.7,0.2-1.2,0.8-1.4,1.5"/>
		<path id="Path_83-2-2" class="st3" d="M467.4,237.6c0.4,1.1,1.6,1.7,2.8,1.3c1.1-0.4,1.7-1.6,1.3-2.8c-0.4-1.1-1.6-1.7-2.8-1.3
			c-0.7,0.2-1.2,0.8-1.4,1.5"/>
		<path id="Path_84-2" class="st3" d="M281.4,224.2c0.4,1.1,1.6,1.7,2.8,1.3c1.1-0.4,1.7-1.6,1.3-2.8c-0.4-1.1-1.6-1.7-2.8-1.3
			c-0.7,0.2-1.2,0.8-1.4,1.5"/>
		<path id="Path_84-2-4" class="st3" d="M720.1,654.7c0.4,1.1,1.6,1.7,2.8,1.3c1.1-0.4,1.7-1.6,1.3-2.8c-0.4-1.1-1.6-1.7-2.8-1.3
			c-0.7,0.2-1.2,0.8-1.4,1.5"/>
		<path id="Path_84-2-5" class="st3" d="M369.6,178.6c0.4,1.1,1.6,1.7,2.8,1.3c1.1-0.4,1.7-1.6,1.3-2.8c-0.4-1.1-1.6-1.7-2.8-1.3
			c-0.7,0.2-1.2,0.8-1.4,1.5"/>
		<path id="Path_84-2-6" class="st3" d="M467.4,642.2c0.4,1.1,1.6,1.7,2.8,1.3c1.1-0.4,1.7-1.6,1.3-2.8c-0.4-1.1-1.6-1.7-2.8-1.3
			c-0.7,0.2-1.2,0.8-1.4,1.5"/>
		<path id="Path_84-2-7" class="st3" d="M907.1,286.4c0.4,1.1,1.6,1.7,2.8,1.3s1.7-1.6,1.3-2.8s-1.6-1.7-2.8-1.3
			c-0.7,0.2-1.2,0.8-1.4,1.5"/>
		<path id="Path_84-2-8" class="st3" d="M952.8,298.9c0.4,1.1,1.6,1.7,2.8,1.3c1.1-0.4,1.7-1.6,1.3-2.8c-0.4-1.1-1.6-1.7-2.8-1.3
			c-0.7,0.2-1.2,0.8-1.4,1.5"/>
		<path id="Path_84-2-9" class="st3" d="M877.4,317.6c0.4,1.1,1.6,1.7,2.8,1.3s1.7-1.6,1.3-2.8s-1.6-1.7-2.8-1.3
			c-0.7,0.2-1.2,0.8-1.4,1.5"/>
		<path id="Path_84-2-9-2" class="st3" d="M914.6,198.4c0.4,1.1,1.6,1.7,2.8,1.3c1.1-0.4,1.7-1.6,1.3-2.8c-0.4-1.1-1.6-1.7-2.8-1.3
			c-0.7,0.2-1.2,0.8-1.4,1.5"/>
		<path id="Path_84-2-10" class="st3" d="M818.2,302.3c0.4,1.1,1.6,1.7,2.8,1.3c1.1-0.4,1.7-1.6,1.3-2.8c-0.4-1.1-1.6-1.7-2.8-1.3
			c-0.7,0.2-1.2,0.8-1.4,1.5"/>
		<path id="Path_84-2-2-3" class="st3" d="M516.7,661.1c0.4,1.1,1.6,1.7,2.8,1.3c1.1-0.4,1.7-1.6,1.3-2.8c-0.4-1.1-1.6-1.7-2.8-1.3
			c-0.7,0.2-1.2,0.8-1.4,1.5"/>
		<path id="Path_84-2-2-3-2" class="st3" d="M820.6,644.9c0.4,1.1,1.6,1.7,2.8,1.3c1.1-0.4,1.7-1.6,1.3-2.8
			c-0.4-1.1-1.6-1.7-2.8-1.3c-0.7,0.2-1.2,0.8-1.4,1.5"/>
		<path id="Path_84-2-2-4" class="st3" d="M943.4,382.9c0.4,1.1,1.6,1.7,2.8,1.3c1.1-0.4,1.7-1.6,1.3-2.8c-0.4-1.1-1.6-1.7-2.8-1.3
			c-0.7,0.2-1.2,0.8-1.4,1.5"/>
		<path id="Path_84-2-2-5" class="st3" d="M245.4,289c0.4,1.1,1.6,1.7,2.8,1.3s1.7-1.6,1.3-2.8s-1.6-1.7-2.8-1.3
			c-0.7,0.2-1.2,0.8-1.4,1.5"/>
		<path id="Path_85-2" class="st3" d="M879,366.2c-1.1,1.2-1,3.1,0.2,4.2l0,0c0.1,0.1,0.1,0.1,0.2,0.2c1.4,0.9,3.3,0.4,4.2-1l0,0
			l0-0.1c0.8-1.5,0.2-3.3-1.2-4.1c-1.3-0.7-2.9-0.3-3.8,0.8"/>
		<path id="Path_85-2-2" class="st3" d="M573.6,453.2c-1.1,1.2-1,3.1,0.2,4.2l0,0c0.1,0.1,0.1,0.1,0.2,0.2c1.4,0.9,3.3,0.4,4.2-1
			c0,0,0,0,0,0l0,0l0-0.1c0.8-1.5,0.2-3.3-1.2-4.1c-1.3-0.7-2.9-0.3-3.8,0.8"/>
		<path id="Path_85-2-3" class="st3" d="M599,570.5c-1.1,1.2-1,3.1,0.2,4.2l0,0c0.1,0.1,0.1,0.1,0.2,0.2c1.4,0.9,3.3,0.4,4.2-1l0,0
			c0,0,0,0,0-0.1c0.8-1.5,0.2-3.3-1.2-4.1c-1.3-0.7-2.9-0.3-3.8,0.8"/>
		<path id="Path_87-2" class="st3" d="M483.1,277.5c1,0.1,2-0.1,2.9-0.6c0.9-0.6,1.4-1.6,1.2-2.6c-0.2-0.9-0.8-1.5-1.6-1.8
			c-0.8-0.3-1.7-0.2-2.5,0.2c-0.8,0.4-1.4,1.1-1.6,1.9c-0.2,0.9,0.1,1.8,0.8,2.3"/>
		<path id="Path_88-2-3" class="st3" d="M356.2,296c1,0.1,2-0.1,2.9-0.6c0.9-0.6,1.4-1.6,1.2-2.6c-0.2-0.9-0.8-1.5-1.6-1.8
			c-0.8-0.3-1.7-0.2-2.5,0.2c-0.8,0.4-1.4,1.1-1.6,1.9c-0.2,0.9,0.1,1.8,0.8,2.3"/>
		<path id="Path_88-2-4" class="st3" d="M314.4,369c1,0.1,2-0.1,2.9-0.6c0.9-0.6,1.4-1.6,1.2-2.6c-0.2-0.9-0.8-1.5-1.6-1.8
			c-0.8-0.3-1.7-0.2-2.5,0.2c-0.8,0.4-1.4,1.1-1.6,1.9c-0.2,0.9,0.1,1.8,0.8,2.3"/>
		<path id="Path_88-2-5" class="st3" d="M768.5,639.8c1,0.1,2-0.1,2.9-0.6c0.9-0.6,1.4-1.6,1.2-2.6c-0.2-0.9-0.8-1.5-1.6-1.8
			c-0.8-0.3-1.7-0.2-2.5,0.2c-0.8,0.4-1.4,1.1-1.6,1.9c-0.2,0.9,0.1,1.8,0.8,2.3"/>
		<path id="Path_88-2-6" class="st3" d="M420.5,665.1c1,0.1,2-0.1,2.9-0.6c0.9-0.6,1.4-1.6,1.2-2.6c-0.2-0.9-0.8-1.5-1.6-1.8
			c-0.8-0.3-1.7-0.2-2.5,0.2c-0.8,0.4-1.4,1.1-1.6,1.9c-0.2,0.9,0.1,1.8,0.8,2.3"/>
		<path id="Path_88-2-2-2" class="st3" d="M582.9,544.1c1,0.1,2-0.1,2.9-0.6c0.9-0.6,1.4-1.6,1.2-2.6c-0.2-0.9-0.8-1.5-1.6-1.8
			c-0.8-0.3-1.7-0.2-2.5,0.2c-0.8,0.4-1.4,1.1-1.6,1.9c-0.2,0.9,0.1,1.8,0.8,2.3"/>
		<path id="Path_88-2-2-3" class="st3" d="M862.2,200.3c1,0.1,2-0.1,2.9-0.6c0.9-0.6,1.4-1.6,1.2-2.6c-0.2-0.9-0.8-1.5-1.6-1.8
			c-0.8-0.3-1.7-0.2-2.5,0.2c-0.8,0.4-1.4,1.1-1.6,1.9c-0.2,0.9,0.1,1.8,0.8,2.3"/>
		<path id="Path_88-2-2-4" class="st3" d="M933.6,342.2c1,0.1,2-0.1,2.9-0.6c0.9-0.6,1.4-1.6,1.2-2.6c-0.2-0.9-0.8-1.5-1.6-1.8
			c-0.8-0.3-1.7-0.2-2.5,0.2c-0.8,0.4-1.4,1.1-1.6,1.9c-0.2,0.9,0.1,1.8,0.8,2.3"/>
		<path id="Path_89-2" class="st3" d="M356.3,644.1c1,0.1,2-0.1,2.9-0.6c0.9-0.6,1.4-1.6,1.2-2.6c-0.2-0.9-0.8-1.5-1.6-1.8
			c-0.8-0.3-1.7-0.2-2.5,0.2c-0.8,0.4-1.4,1.1-1.6,1.9c-0.2,0.9,0.1,1.8,0.8,2.3"/>
		<path id="Path_89-2-2" class="st3" d="M537.7,575.2c1,0.1,2-0.1,2.9-0.6c0.9-0.6,1.4-1.6,1.2-2.6c-0.2-0.9-0.8-1.5-1.6-1.8
			c-0.8-0.3-1.7-0.2-2.5,0.2c-0.8,0.4-1.4,1.1-1.6,1.9c-0.2,0.9,0.1,1.8,0.8,2.3"/>
		<path id="Path_89-2-3" class="st3" d="M500,409.5c1,0.1,2-0.1,2.9-0.6c0.9-0.5,1.4-1.6,1.2-2.6c-0.2-0.9-0.8-1.5-1.6-1.8
			c-0.8-0.3-1.7-0.2-2.5,0.2c-0.8,0.4-1.4,1.1-1.6,1.9c-0.2,0.9,0.1,1.8,0.8,2.3"/>
		<path id="Path_89-2-4" class="st3" d="M566.6,637.2c1,0.1,2-0.1,2.9-0.6c0.9-0.6,1.4-1.6,1.2-2.6c-0.2-0.9-0.8-1.5-1.6-1.8
			c-0.8-0.3-1.7-0.2-2.5,0.2c-0.8,0.4-1.4,1.1-1.6,1.9c-0.2,0.9,0.1,1.8,0.8,2.3"/>
		<path id="Path_90-2" class="st3" d="M305.1,312.6c1,0.1,2-0.1,2.9-0.6c0.9-0.6,1.4-1.6,1.2-2.6c-0.2-0.9-0.8-1.5-1.6-1.8
			c-0.8-0.3-1.7-0.2-2.5,0.2c-0.8,0.4-1.4,1.1-1.6,1.9c-0.2,0.9,0.1,1.8,0.8,2.3"/>
		<path id="Path_90-2-3" class="st3" d="M910.9,236.8c1,0.1,2-0.1,2.9-0.6c0.9-0.6,1.4-1.6,1.2-2.6c-0.2-0.9-0.8-1.5-1.6-1.8
			c-0.8-0.3-1.7-0.2-2.5,0.2c-0.8,0.4-1.4,1.1-1.6,1.9c-0.2,0.9,0.1,1.8,0.8,2.3"/>
		<path id="Path_91-2-2" class="st3" d="M653.8,639.8c1,0.1,2-0.1,2.9-0.6c0.9-0.6,1.4-1.6,1.2-2.6c-0.2-0.9-0.8-1.5-1.6-1.8
			c-0.8-0.3-1.7-0.2-2.5,0.2c-0.8,0.4-1.4,1.1-1.6,1.9c-0.2,0.9,0.1,1.8,0.8,2.3"/>
		<path id="Path_91-3" class="st3" d="M451.8,185.8c1,0.1,2-0.1,2.9-0.6c0.9-0.6,1.4-1.6,1.2-2.6c-0.2-0.9-0.8-1.5-1.6-1.8
			c-0.8-0.3-1.7-0.2-2.5,0.2c-0.8,0.4-1.4,1.1-1.6,1.9c-0.2,0.9,0.1,1.8,0.8,2.3"/>
	</g>
	<path id="Path_77" class="st4" d="M524.5,404c-26.4-60.8-13.6-141.3,31.1-190.2c37.4-41,105.8-47.6,157.3-36
		c46.5,10.5,89.4,40.5,110.6,83.2c18.9,38,19.6,83.1,9.9,124.5"/>
	<g id="Group_14-2">
		<path id="Path_78" class="st5" d="M570.5,251.9c0.3,14.6,12.8,27.9,27.3,29.2c6.6,0.6,13.8-1.4,18-6.5c7.7-9.4,3.6-20.6-2.8-29.4
			c-6.5-9-16.5-9.7-26.8-7"/>
		<path id="Path_79" class="st5" d="M698.9,212.2c-8.8-8.4-23.9-8.9-33.2-1.1c-4.2,3.5-7.3,8.9-6.8,14.4c0.5,5,4,9.4,8.3,12
			c11.2,6.8,25.7,1.4,33.3-8.3"/>
		<path id="Path_80" class="st5" d="M674.1,414.7c-5.5-8.7-15.9-13.5-26.2-14.1"/>
		<path id="Path_81" class="st5" d="M639.1,402.7c-7.4,3.2-11.8,11.2-11.9,19.3"/>
		<path id="Path_82" class="st5" d="M645.4,217.1c0.8,14.7,7.9,29.6,20.6,37.2c12.6,7.6,30.9,6.1,40.3-5.2c6-7.2,7.8-17,8.5-26.4
			c0.4-3.7,0.2-7.5-0.6-11.2c-1-3.3-2.6-6.4-4.8-9.1c-8.8-11.2-24.2-17.2-37.9-13.3"/>
		<path id="Path_83" class="st5" d="M562.2,329.6c1.7,5.5,4.1,11,8.2,15s10.5,6.2,15.9,4.2c4.7-1.8,8-6,8.7-10.9
			c0.7-4.9-0.8-9.9-4.1-13.7c-2.9-3.5-7-5.7-11.4-6.2c-4.5-0.4-8.9,1.5-11.8,5"/>
		<path id="Path_84" class="st5" d="M737.9,257.6c5.1,2.7,10.7,4.9,16.4,4.8s11.7-3,14.2-8.3c2-4.6,1.4-9.9-1.5-13.9
			c-3-3.9-7.6-6.4-12.5-6.8c-4.5-0.4-9,0.9-12.5,3.7c-3.5,2.9-5.3,7.3-4.8,11.9"/>
		<path id="Path_85" class="st5" d="M737.9,227.7c-8.1,6.2-11.5,9.2-11.4,19.4c0,8.7,3.1,18,11.2,22.4c11,5.9,22.5,8.5,33.2,0.1
			c8.6-6.8,15.4-17.5,11.7-28.7c-5.4-16.2-21.1-23.7-37.7-20.9"/>
		<path id="Path_86" class="st5" d="M678.2,304.8c-6.4-2.8-14.4-3.8-20.1,0.3c-5.6,4-7.3,11.4-7.6,18.2c-0.2,3.4-0.1,7.1,1.8,10
			c2.7,4.4,8.4,5.7,13.5,6.3"/>
		<path id="Path_87" class="st5" d="M537.3,322.1c4.9-0.3,7.3-6,8.5-10.8c0.5-1.9,1-4,0.1-5.7c-1-1.9-3.3-2.8-5.5-2.7
			c-5.1,0.2-9,4.6-8.8,9.7c0.1,2.6,1.3,5,3.3,6.7"/>
		<path id="Path_88" class="st5" d="M818.2,341c1.9-8.5-7-9.7-12.2-5.3c-2.7,2.3-4,5.9-3.4,9.4c0.8,3.5,3.7,6.1,7.3,6.5
			c2.6,0.1,5-1.1,7.4-2.3"/>
		<path id="Path_89" class="st5" d="M661.3,422.1c-0.9-2.9-3.1-5.2-6-6.1c-3.4-1.1-7.1-0.4-9.8,2"/>
		<path id="Path_90" class="st5" d="M596.5,267.6c-2.4,0.8-5,0.4-7.1-1c-2-1.5-3.5-3.6-4.1-6.1c-0.8-2.4-0.6-4.9,0.6-7.1
			c1.5-2.6,4.5-4,7.4-4.7c3.9-0.9,8.2-0.9,11.5,1.4"/>
	</g>
</g>
</svg>
