<svg width="14" height="14" viewBox="0 0 14 14" fill="none" xmlns="http://www.w3.org/2000/svg">
<path d="M5.13281 8.86676L8.86615 5.13342" stroke="#9999A7" stroke-width="1.5" stroke-linecap="round"/>
<path d="M6.06641 4.2L8.39974 1.86667C9.43067 0.835735 11.1021 0.835735 12.1331 1.86667V1.86667C13.164 2.8976 13.164 4.56907 12.1331 5.6L9.79974 7.93333" stroke="#9999A7" stroke-width="1.5" stroke-linecap="round"/>
<path d="M7.93359 9.8L5.60026 12.1333C4.56933 13.1643 2.89786 13.1643 1.86693 12.1333V12.1333C0.835996 11.1024 0.835996 9.43093 1.86693 8.4L4.20026 6.06667" stroke="#9999A7" stroke-width="1.5" stroke-linecap="round"/>
</svg>
