<svg width="168" height="106" viewBox="0 0 168 106" fill="none" xmlns="http://www.w3.org/2000/svg">
<g clip-path="url(#clip0)">
<path d="M63.2519 4.15833C90.2148 -7.27305 121.326 5.19754 132.733 31.1779C144.141 58.1975 131.696 89.374 105.77 100.805C78.8074 112.237 47.6963 99.7662 36.2889 73.7858C23.8445 46.7662 36.2889 15.5897 63.2519 4.15833Z" fill="url(#paint0_linear)"/>
<path d="M93.1407 32.6953C63.7539 17.4667 35.3804 6.29909 19.167 4.26862C16.1269 4.26862 4.98022 2.23814 1.9402 9.34481C-3.1265 19.4972 13.0869 34.7258 31.327 47.9239C32.3404 41.8325 33.3537 38.7868 34.3671 33.7106C24.2337 26.6039 18.1536 20.5125 15.1136 17.4667C16.1269 17.4667 17.1403 17.4667 18.1536 17.4667C32.3404 19.4972 59.7005 29.6496 88.074 44.8782C125.568 64.1678 145.834 81.4268 151.914 89.5488C150.901 89.5488 149.888 89.5488 148.874 89.5488C142.794 88.5335 135.701 86.503 126.581 83.4573C124.554 86.503 117.461 93.6097 117.461 93.6097C129.621 98.6859 139.754 100.716 147.861 101.732C150.901 101.732 162.048 103.762 165.088 96.6554C174.208 77.3659 112.394 42.8477 93.1407 32.6953Z" fill="white"/>
</g>
<defs>
<linearGradient id="paint0_linear" x1="76.5882" y1="6.18584" x2="94.3828" y2="118.282" gradientUnits="userSpaceOnUse">
<stop offset="0.0153257" stop-color="#FF067D"/>
<stop offset="0.1264" stop-color="#F9599D"/>
<stop offset="1" stop-color="#FF9F67"/>
</linearGradient>
<clipPath id="clip0">
<rect width="168" height="106" fill="white"/>
</clipPath>
</defs>
</svg>
