<svg width="341" height="257" viewBox="0 0 341 257" fill="none" xmlns="http://www.w3.org/2000/svg">
<g clip-path="url(#clip0)">
<path d="M81.5859 97.9446C82.0984 98.0087 82.6109 98.0729 83.1874 98.137C82.6109 98.137 82.0984 98.0729 81.5859 97.9446Z" fill="#7666FF"/>
<path d="M68.9038 95.122C68.3273 94.9296 67.8148 94.8013 67.2383 94.6089C67.8148 94.8013 68.3273 94.9296 68.9038 95.122Z" fill="#FF4040"/>
<path d="M103.746 98.586C104.259 98.5218 104.835 98.4577 105.348 98.3936C104.835 98.4577 104.259 98.5218 103.746 98.586Z" fill="#FF4040"/>
<path d="M111.374 95.058C111.182 95.3787 110.926 95.6994 110.67 96.0201C110.093 96.7257 109.453 97.3671 108.812 97.9444C108.492 98.0086 108.235 98.0085 107.979 98.0727C107.723 98.1368 107.403 98.1368 107.146 98.201C106.89 98.2651 106.634 98.2651 106.378 98.3293C106.057 98.3934 105.737 98.3934 105.417 98.4575C104.904 98.5217 104.328 98.5858 103.815 98.65C103.559 98.65 103.367 98.7141 103.111 98.7141C102.983 98.7141 102.919 98.7141 102.79 98.7141C102.534 98.7141 102.342 98.7783 102.086 98.7783C101.83 98.7783 101.509 98.8424 101.253 98.8424C100.997 98.8424 100.677 98.9065 100.42 98.9065C99.9078 98.9065 99.3954 98.9707 98.8829 98.9707C98.7548 98.9707 98.6907 98.9707 98.5626 98.9707C98.3064 98.9707 98.0501 98.9707 97.7939 98.9707C97.5377 98.9707 97.3455 98.9707 97.0893 98.9707C97.0252 98.9707 96.8971 98.9707 96.833 98.9707C96.5127 98.9707 96.3206 98.9707 96.0643 98.9707C95.7441 98.9707 95.4878 98.9707 95.1675 98.9707C94.7832 98.9707 94.3988 98.9707 94.0785 98.9707C93.8223 98.9707 93.5661 98.9707 93.3739 98.9707C92.4771 98.9707 91.5162 98.9065 90.6194 98.8424C90.1069 98.8424 89.5945 98.7783 89.0179 98.7783C88.7617 98.7783 88.6336 98.7782 88.4414 98.7141C88.2492 98.7141 88.0571 98.7141 87.8649 98.65C87.4805 98.65 87.1602 98.5858 86.7759 98.5858C86.5197 98.5858 86.3275 98.5217 86.0713 98.5217C85.815 98.5217 85.5588 98.4575 85.3025 98.4575C85.1104 98.4575 84.9182 98.3934 84.662 98.3934C84.5338 98.3934 84.4698 98.3934 84.3417 98.3293C84.2136 98.3293 84.0214 98.2651 83.8933 98.2651C83.7011 98.2651 83.573 98.201 83.3808 98.201C82.6762 98.1368 82.1637 98.0086 81.5872 97.9444C81.4591 97.9444 81.395 97.9444 81.2669 97.8803C81.0107 97.8161 80.8185 97.8161 80.5622 97.752C80.306 97.6878 80.0498 97.6878 79.7936 97.6237C79.6654 97.6237 79.5373 97.5596 79.4092 97.5596C79.217 97.5596 79.0248 97.4954 78.8967 97.4313C78.6405 97.3671 78.3843 97.3671 78.1921 97.303C77.9359 97.2388 77.6796 97.1747 77.3593 97.1747C77.1031 97.1106 76.8469 97.0464 76.5906 97.0464C76.2063 96.9823 75.9501 96.9181 75.7579 96.854C75.3095 96.7257 75.0532 96.7257 74.797 96.6616C74.4767 96.5974 74.2205 96.5333 73.9643 96.4691C73.5799 96.405 73.3237 96.3409 73.1315 96.2767C72.8112 96.2126 72.555 96.1484 72.3628 96.0843C72.2347 96.0843 72.1706 96.0201 72.0425 96.0201C71.8503 95.956 71.7222 95.956 71.53 95.8919C71.466 95.8919 71.3379 95.8277 71.2738 95.8277C71.0816 95.7636 70.8254 95.6994 70.6332 95.6353C70.1848 95.507 69.9926 95.4429 69.8005 95.3787C69.7364 95.3787 69.6083 95.3146 69.5442 95.3146C69.288 95.2504 69.0958 95.1863 68.8396 95.1222C68.2631 94.9297 67.7506 94.8014 67.1741 94.609C65.7648 91.5943 64.868 88.3231 64.3555 85.0519C63.2025 78.0604 63.5227 70.9406 62.6259 63.885C61.2167 64.2057 59.8074 64.2699 58.3981 63.885C56.6045 63.3719 55.0671 62.1532 54.3624 60.4214C51.0955 62.1532 46.6754 61.4476 44.1772 58.6254C40.9743 60.1006 36.6183 58.4971 35.6574 54.9693C35.5934 54.841 35.5934 54.7127 35.6574 54.5844C35.6574 50.7359 36.4902 46.8874 37.8354 43.2954C39.0525 40.0883 40.718 37.0095 42.7038 34.1873C44.5615 31.4933 46.6754 28.8635 49.3018 26.8751C52.0563 24.8225 55.3233 23.7963 58.7824 23.9887C62.4978 24.1811 66.1491 25.464 69.6083 26.7468C69.8005 26.811 69.8645 26.8751 69.9926 27.0034C73.5158 28.7352 77.4234 29.5049 80.8185 31.4292C82.6121 32.4554 84.1495 33.8024 85.8791 34.8287C86.7118 35.3418 87.7368 35.5984 88.4414 36.2398C88.7617 36.4964 88.9539 36.9454 89.2101 37.3302C89.4023 37.3302 89.5944 37.3302 89.7866 37.4585C91.5162 38.4848 92.9255 39.9601 94.1426 41.6277C96.3206 44.7066 97.7939 48.2344 99.2673 51.698C100.805 55.29 102.086 59.0102 102.342 62.8587C103.495 66.6431 104.648 70.4275 105.801 74.1477C105.929 74.6609 105.673 75.0457 105.289 75.174C106.698 80.4978 108.299 85.7574 110.157 90.8888C110.477 91.8509 110.862 92.813 111.182 93.7752C111.438 94.2883 111.63 94.609 111.374 95.058Z" fill="white"/>
<path d="M81.5859 97.9446C82.0984 98.0087 82.6109 98.0729 83.1874 98.137C82.6109 98.137 82.0984 98.0729 81.5859 97.9446Z" fill="white"/>
<path d="M111.118 89.1569C105.929 76.7775 105.097 63.1153 100.228 50.6717C98.8829 47.2722 97.2174 44.001 95.2316 40.9863C94.6551 40.1524 93.3739 41.1146 93.9504 41.9484C101.317 52.9808 102.79 66.4507 106.121 78.9583C107.082 82.6144 108.235 86.2705 109.709 89.7342C110.093 90.6963 111.566 90.119 111.118 89.1569Z" fill="#141924"/>
<path d="M63.3314 64.3981C63.2033 63.3718 61.6018 63.6284 61.7299 64.5905C62.0502 66.9638 62.1784 69.337 62.1784 71.7103C62.1784 72.7365 63.7798 72.929 63.7798 71.9027C63.7798 69.4653 63.6517 66.8996 63.3314 64.3981Z" fill="#141924"/>
<path d="M265.115 153.748C265.115 159.136 264.666 164.46 263.769 169.591C260.951 185.819 253.776 200.636 243.527 212.695C227.448 231.681 203.683 243.932 177.098 244.701C176.202 244.701 175.241 244.766 174.344 244.766C134.82 244.766 101.125 219.494 88.634 184.151C85.303 174.658 83.4453 164.46 83.4453 153.812C83.4453 103.589 124.122 62.7948 174.344 62.7948C224.438 62.7306 265.115 103.525 265.115 153.748Z" fill="#DDF951"/>
<path d="M114.77 189.219C110.35 179.148 108.62 168.116 107.852 157.212C107.659 154.133 107.531 150.99 107.403 147.911C107.403 147.462 107.083 147.27 106.827 147.27C106.827 147.013 106.699 146.821 106.57 146.757C106.506 146.436 106.378 146.115 106.314 145.795C105.353 142.395 103.56 139.445 101.574 136.558C99.5881 133.608 98.0507 130.465 97.2179 127.001C96.8336 125.333 96.5133 123.602 96.3852 121.934C96.193 120.394 96.193 118.855 95.6165 117.38C95.04 115.904 93.7588 114.814 92.0933 114.622C90.3637 114.429 88.6982 115.199 87.2889 116.225C87.0327 116.418 86.9686 116.674 86.9686 116.931C85.6875 117.893 84.7266 119.24 84.8547 120.972C84.8547 121.164 84.9188 121.292 85.0469 121.357C84.4063 123.602 84.086 125.975 84.0219 128.348C84.0219 129.182 84.0219 130.016 84.086 130.85C84.086 131.234 84.1501 131.683 84.1501 132.068C84.2141 132.453 84.3422 132.966 84.2141 133.351C83.7657 134.506 81.5877 132.774 81.1393 132.453C78.5129 130.529 76.1428 128.22 74.0929 125.59C72.2993 123.281 70.7619 120.394 68.1355 118.855C65.7013 117.38 62.2421 117.251 60.3204 119.625C58.783 118.406 57.3097 117.123 55.3879 116.546C52.9537 115.84 49.8789 116.289 48.5977 118.534C46.0995 118.149 43.4731 119.817 42.7044 122.255C42.0638 124.115 42.5122 126.103 43.4731 127.771C41.7435 126.937 40.078 125.911 38.0922 126.295C35.5939 126.809 34.3768 129.438 34.7612 131.812C35.0174 133.223 35.722 134.57 36.4907 135.724C37.3235 137.007 38.2203 138.29 39.1171 139.573C40.9108 141.946 43.0887 143.999 45.587 145.731C48.0853 147.398 50.7117 148.809 53.338 150.22C56.3488 151.824 59.2955 153.492 62.3062 155.095C63.0108 155.48 63.7155 155.865 64.3561 156.25C64.9966 156.571 65.6372 156.955 65.9575 157.597C66.2778 158.238 66.4059 158.944 66.5981 159.585C66.8543 160.419 67.1106 161.253 67.3668 162.087C68.3277 165.358 69.2885 168.565 70.2494 171.836C72.3633 179.148 74.5413 186.397 76.6552 193.709C76.7193 193.901 76.8474 194.029 76.9755 194.094C77.8083 197.172 78.7692 200.251 79.7941 203.33C79.9222 203.779 80.3066 203.907 80.6909 203.779C80.8831 204.356 81.3315 204.42 81.7799 204.292C91.773 201.534 101.446 197.75 110.606 192.875C111.631 192.362 112.848 191.849 113.745 191.079C114.001 190.822 114.193 190.566 114.321 190.245C114.642 190.181 115.026 189.732 114.77 189.219Z" fill="white"/>
<path d="M75.5612 194.35C71.5896 182.227 67.5539 170.361 64.6713 158.174C59.8669 154.325 53.9095 152.337 48.5286 149.386C43.404 146.564 39.048 142.587 35.9091 137.648C34.3718 135.211 32.9625 132.389 33.6671 129.438C34.3077 126.744 36.6138 125.077 39.3683 125.269C40.5854 125.333 41.6744 125.718 42.7634 126.231C41.7384 123.665 41.29 120.715 43.5961 118.662C44.9414 117.444 46.799 117.123 48.5286 117.444C48.5286 117.187 48.5927 116.995 48.7848 116.802C50.6425 115.263 53.1408 115.006 55.4469 115.648C57.1765 116.161 58.6498 117.123 59.8669 118.342C61.2122 116.995 63.198 116.546 65.0556 116.995C67.1055 117.444 68.707 118.791 70.1162 120.33C71.6536 121.998 72.9989 123.794 74.4722 125.59C76.9705 128.604 79.9812 131.619 83.8888 132.325C83.8247 130.657 83.6966 128.989 83.5685 127.321C83.4403 125.269 83.3122 123.152 83.6966 121.036C84.2731 117.636 86.387 114.108 90.0384 113.403C91.896 113.082 93.8178 113.659 95.0349 115.07C96.3161 116.481 96.7645 118.534 97.2129 120.33C98.1097 124.371 98.3019 128.54 100.16 132.26C101.825 135.596 104.323 138.354 106.181 141.561C107.078 143.165 107.847 144.832 108.231 146.628C108.743 148.745 108.743 150.99 108.743 153.107C108.743 157.532 109 161.83 109.704 166.192C110.537 171.515 111.946 176.775 113.676 181.842C114.701 185.049 115.918 188.128 117.135 191.271C117.519 192.233 116.046 192.81 115.662 191.912C115.277 190.886 114.893 189.924 114.509 188.898C113.484 186.14 112.459 183.317 111.626 180.495C109.96 175.107 108.615 169.655 107.847 164.075C107.59 161.958 107.398 159.841 107.27 157.661C107.206 155.48 107.27 153.363 107.206 151.182C107.142 149.13 106.95 147.013 106.181 145.025C105.54 143.357 104.644 141.818 103.619 140.342C101.569 137.328 99.1987 134.441 97.9816 131.042C96.5723 127.129 96.4442 122.896 95.2911 118.983C94.7786 117.251 93.9459 115.455 92.0882 115.006C90.4227 114.621 88.7572 115.327 87.5401 116.546C84.6574 119.496 85.0418 123.922 85.234 127.706C85.3621 129.374 85.4262 131.042 85.5543 132.709C85.7465 132.966 85.7464 133.287 85.6183 133.543C85.6183 133.8 85.6183 134.056 85.6824 134.313C85.7464 136.365 85.7465 138.418 85.234 140.471C84.3372 143.742 81.3905 146.821 77.7392 146.308C76.7142 146.179 76.9064 144.576 77.9313 144.704C78.7641 144.832 79.5328 144.704 80.3015 144.319C84.145 142.523 84.2731 137.648 84.0809 134.056C82.1592 133.543 80.3015 132.774 78.7 131.619C75.1768 129.182 72.7426 125.59 69.9881 122.383C68.707 120.907 67.2977 119.368 65.3759 118.662C63.9667 118.149 62.109 118.277 61.02 119.432C62.6214 121.292 63.9026 123.473 65.2478 125.397C67.9383 129.182 71.6536 132.068 76.0096 133.736C76.9705 134.121 76.3939 135.596 75.4331 135.211C73.127 134.377 70.949 133.158 69.0272 131.683C67.2977 130.4 65.8243 128.797 64.5432 127.129C63.0698 125.205 61.9168 123.024 60.3794 121.164C59.0982 119.496 57.4968 118.021 55.4469 117.315C53.6533 116.674 51.6675 116.802 50.1301 117.957C50.7066 118.149 51.2191 118.47 51.7315 118.791C54.486 120.587 56.3437 123.73 58.2655 126.359C62.0449 131.683 66.7211 137.777 73.8316 137.969C74.8565 137.969 74.6644 139.573 73.6394 139.573C70.2444 139.508 66.9774 137.969 64.351 135.852C61.8527 133.864 59.8029 131.298 57.9452 128.733C56.0875 126.167 54.422 123.281 52.1159 121.164C50.2582 119.432 47.1834 118.149 44.8773 119.945C42.379 121.934 44.1727 125.718 45.3898 127.899C45.9022 128.284 46.4147 128.733 46.8631 129.117C49.2973 131.17 51.4753 133.415 53.9736 135.339C58.7779 138.995 64.351 141.689 70.1803 143.165C70.5647 143.293 70.7568 143.87 70.6287 144.191C70.4365 144.64 69.9881 144.768 69.6038 144.64C63.3901 143.036 57.4968 140.15 52.5002 136.237C50.1301 134.377 48.0162 132.196 45.7101 130.272C43.8524 128.668 41.4822 127.001 38.8558 127.065C36.1013 127.193 34.8842 129.823 35.3326 132.325C35.781 135.083 37.7668 137.712 39.4964 139.893C42.9555 144.255 47.4396 147.334 52.4362 149.771C56.4718 151.76 60.6997 153.491 64.351 156.057C65.0556 156.506 65.6962 157.019 66.3368 157.597C66.4649 158.11 66.593 158.623 66.7211 159.2C67.2977 161.702 68.0023 164.267 68.707 166.769C70.6287 173.568 72.8067 180.303 74.9847 187.038C75.7534 189.347 76.458 191.592 77.2267 193.901C78.7 198.391 80.1734 202.945 81.5827 207.435C81.8389 208.14 81.0702 208.718 80.4937 208.525L75.5612 194.35Z" fill="#141924"/>
<path d="M73.9637 120.907H13.8131C11.9554 120.907 10.418 119.368 10.418 117.508V87.0403C10.418 86.0782 10.8023 85.2443 11.507 84.6029L41.9346 55.9956C43.2158 54.7769 45.2657 54.7769 46.6109 55.9956L76.3339 84.6029C76.9745 85.2443 77.3588 86.1423 77.3588 87.0403V117.508C77.3588 119.368 75.8214 120.907 73.9637 120.907Z" fill="white"/>
<path d="M73.9629 121.677H13.8122C11.5061 121.677 9.64844 119.817 9.64844 117.508V87.0403C9.64844 85.8858 10.0968 84.7953 10.9937 83.9615L41.4213 55.3542C43.0228 53.8148 45.5851 53.8148 47.1866 55.4183L76.9096 84.0256C77.7424 84.7953 78.1908 85.8858 78.1908 87.0403V117.508C78.1908 119.817 76.269 121.677 73.9629 121.677ZM44.2399 55.8673C43.5993 55.8673 42.9587 56.1239 42.4463 56.5729L12.0186 85.1802C11.5061 85.6933 11.1858 86.3348 11.1858 87.0403V117.508C11.1858 118.919 12.3389 120.073 13.7482 120.073H73.8988C75.3081 120.073 76.4612 118.919 76.4612 117.508V87.0403C76.4612 86.3348 76.1409 85.6292 75.6925 85.1802L46.0335 56.5729C45.5211 56.1239 44.8805 55.8673 44.2399 55.8673Z" fill="#141924"/>
<path d="M75.8178 120.522C75.6897 120.522 75.5616 120.522 75.4334 120.458C75.4334 120.458 63.5827 114.301 50.0023 107.309C49.618 107.117 49.4899 106.604 49.682 106.219C49.8742 105.834 50.3867 105.706 50.771 105.898C64.3514 112.889 76.2022 119.047 76.2022 119.047C76.5865 119.24 76.7146 119.753 76.5224 120.138C76.3943 120.33 76.074 120.522 75.8178 120.522Z" fill="#141924"/>
<path d="M66.2759 55.1615V91.3376C60.1263 94.5447 51.8628 98.7781 43.6633 103.011C35.2717 98.6498 26.8801 94.3523 20.7305 91.2093V55.1615C20.7305 53.1731 22.3319 51.5696 24.3177 51.5696H62.6886C64.6744 51.6337 66.2759 53.2373 66.2759 55.1615Z" fill="#5E39F3"/>
<path d="M67.2393 60.6779C67.2393 59.6516 65.6378 59.9082 65.6378 60.8703C65.8941 70.4275 65.6378 80.0488 64.8691 89.6059C64.8051 90.6322 66.3425 90.8246 66.4706 89.7983C67.2393 80.1129 67.4955 70.3633 67.2393 60.6779Z" fill="white"/>
<path d="M35.5284 50.5438C31.8771 50.4797 28.2257 50.608 24.5744 50.9928C23.1652 51.1211 21.4996 51.2494 20.6669 52.5964C19.8341 53.8792 19.9622 55.611 19.8982 57.0863C19.5779 64.3985 19.3857 71.7107 19.4498 79.0229C19.4498 83.128 19.5779 87.2972 19.706 91.4023C19.7701 92.4286 21.3075 92.172 21.3075 91.2099C21.0512 84.3467 20.9872 77.4193 21.1153 70.492C21.1793 67.0283 21.2434 63.6288 21.4356 60.1651C21.4996 58.4974 21.5637 56.7656 21.6918 55.0979C21.7559 54.5206 21.7559 53.8792 22.1402 53.3661C22.5246 52.7888 23.2933 52.7247 23.9338 52.6605C27.7773 52.2115 31.6208 52.0832 35.4643 52.1474C36.3611 52.1474 36.5533 50.5438 35.5284 50.5438Z" fill="white"/>
<path d="M43.6646 103.846C43.5365 103.846 43.4084 103.846 43.2803 103.781C34.8886 99.4198 26.497 95.1222 20.3474 91.9793C12.5964 88.0025 11.123 87.2328 10.9949 87.1686C10.6106 86.9762 10.4184 86.5272 10.6105 86.1424C10.8027 85.7575 11.2511 85.5651 11.6355 85.6934C11.7636 85.7575 11.9558 85.8217 21.1161 90.5682C27.2657 93.7111 35.6573 98.0728 44.049 102.37C44.4333 102.563 44.5614 103.076 44.3692 103.461C44.2411 103.717 43.9208 103.846 43.6646 103.846Z" fill="#141924"/>
<path d="M12.0195 120.202C11.7633 120.202 11.443 120.073 11.3149 119.753C11.1227 119.368 11.2508 118.855 11.6351 118.662C11.6351 118.662 23.2297 112.697 36.5538 105.77C36.9382 105.577 37.4506 105.706 37.6428 106.091C37.835 106.475 37.7069 106.989 37.3225 107.181C23.9984 114.044 12.4038 120.073 12.4038 120.073C12.2117 120.202 12.0835 120.202 12.0195 120.202Z" fill="#141924"/>
<path d="M43.6679 103.846C43.4117 103.846 43.0914 103.717 42.9633 103.397C42.7711 103.012 42.8992 102.499 43.2836 102.306C51.483 98.0727 59.7465 93.8394 65.8961 90.6323C75.8252 85.5009 76.0814 85.4368 76.2095 85.3726C76.5939 85.1802 77.1063 85.3726 77.2345 85.8216C77.4266 86.2065 77.2344 86.7196 76.786 86.8479C76.6579 86.912 75.1205 87.6817 66.6008 92.0434C60.4512 95.2505 52.1877 99.4839 43.9882 103.717C43.9241 103.846 43.796 103.846 43.6679 103.846Z" fill="#141924"/>
<path d="M85.8737 0.494453C85.0409 2.547 84.4003 4.59954 84.016 6.78037C83.8238 7.80664 85.4253 7.99906 85.6174 6.97279C86.0018 4.92025 86.5783 2.99599 87.347 1.07173C87.7313 0.109602 86.258 -0.467677 85.8737 0.494453Z" fill="#141924"/>
<path d="M68.3293 51.8907C68.3934 54.1998 67.6247 56.3806 66.7919 58.4973C66.0232 60.3574 65.2545 62.7306 63.3328 63.7569C61.6672 64.6549 59.5533 64.2701 57.9519 63.3079C56.6066 62.4741 55.5817 61.2554 54.749 59.9084C54.2365 60.614 53.3397 60.9988 52.5069 60.9347C51.7382 61.3837 50.7773 61.5761 49.9446 61.5761C47.7025 61.6402 45.4605 60.6781 44.1153 58.9463C42.7701 59.5235 41.2967 59.716 39.8874 59.2028C38.5422 58.6897 37.5173 57.5351 37.1329 56.1882C37.0048 56.0599 36.8767 55.9316 36.8767 55.7392C36.8126 55.2902 36.8767 54.777 37.0689 54.328C37.0048 53.9432 37.0048 53.5583 37.0048 53.1735C36.8767 52.1472 36.8126 51.2492 36.8767 50.2871C36.8767 49.6457 37.6454 49.4532 38.0938 49.7098C38.4141 49.2608 38.7344 48.8118 39.1828 48.427C40.9124 46.7593 43.4106 46.3103 45.6527 45.8613C50.0727 45.0275 54.6208 44.4502 59.1049 45.0916C61.2829 45.4123 63.5249 45.9896 65.5107 46.9517C66.4076 47.4007 67.3044 48.0421 67.8168 48.9401C68.1371 49.8381 68.3293 50.8644 68.3293 51.8907Z" fill="white"/>
<path d="M94.9117 40.8583C90.5557 36.1118 85.1108 32.584 79.3455 29.8259C76.4629 28.4148 73.4522 27.2602 70.4415 26.1698C67.3026 25.0794 64.0356 23.8607 60.7687 23.2834C59.0391 22.9627 57.1814 22.8986 55.3878 23.2834C53.7223 23.6683 52.1848 24.438 50.7756 25.4001C48.2132 27.1961 45.9071 29.5052 43.8573 31.8785C39.8857 36.6891 37.0031 42.3336 35.5297 48.4271C34.761 51.6983 34.2485 55.8676 36.7468 58.6257C38.6045 60.6782 41.9996 61.7045 44.3697 59.7802C44.69 60.3575 45.2025 60.8065 45.715 61.1272C47.1883 62.1535 48.9819 62.9232 50.8396 62.859C52.1849 62.7949 53.5941 62.2176 54.4269 61.1913C54.6191 62.1535 55.0034 62.9873 55.8362 63.6287C57.1173 64.7191 58.911 64.9116 60.5124 64.9757C62.242 65.0398 64.0997 64.9757 65.3809 63.6287C66.7261 62.2176 67.1104 60.0368 67.9432 58.305C68.5838 56.8938 69.3525 55.5468 70.1852 54.1999C70.2493 55.0337 70.5055 55.8034 71.018 56.5731C73.9646 61.2555 80.6267 62.4742 85.1749 59.5236C87.6731 57.856 89.4027 55.162 89.787 52.1473C89.787 52.019 89.787 51.8908 89.723 51.7625C89.787 50.3514 89.2746 48.9402 88.3137 47.8498C88.1856 47.6574 87.9934 47.5932 87.8012 47.5932C88.1856 47.0801 88.5699 46.6311 88.8902 46.118C89.5308 45.2841 88.2496 44.322 87.6091 45.1559C85.2389 48.2988 82.8687 51.4418 80.4986 54.5847C79.858 55.4186 81.1392 56.3807 81.7798 55.5468C83.5093 53.2377 85.2389 50.9928 86.9044 48.6837C87.8653 49.7099 88.2496 50.8003 88.0575 52.019C88.0575 52.1473 88.0575 52.2756 88.0575 52.3397C87.2247 56.7655 83.0609 60.0368 78.5128 59.4595C76.2708 59.2029 74.0928 58.0484 72.6835 56.2524C72.2991 55.7393 71.9148 55.162 71.7226 54.5206C71.5304 53.815 71.7226 53.0453 71.9148 52.3397C72.3632 50.9286 72.8757 49.5816 73.3881 48.2347C74.6693 45.1559 76.2067 42.2695 78.0003 39.4472C78.5768 38.6134 77.2957 37.6512 76.7192 38.4851C74.8615 41.3073 73.26 44.322 71.9788 47.4008C71.5304 48.5554 71.018 49.7099 70.6336 50.8645C70.4414 50.8645 70.2493 50.9928 70.1212 51.1852C68.9681 52.7246 68.0072 54.264 67.1104 55.9958C66.3417 57.5352 65.7011 59.1388 65.0606 60.7423C64.8043 61.3838 64.484 62.0893 63.9075 62.6025C63.2669 63.1797 62.4342 63.308 61.6014 63.308C60.1921 63.308 58.5266 63.308 57.2455 62.6025C55.644 61.7686 55.7081 59.9726 55.9643 58.4332C56.2846 56.7655 56.733 55.162 57.2455 53.5584C58.2704 50.2872 59.6797 47.0801 61.4092 44.0654C63.331 40.6659 65.7011 37.523 68.3275 34.7007C69.0322 33.931 67.751 32.9689 67.0464 33.7386C61.8576 39.3189 57.9501 46.0538 55.644 53.3019C55.0675 55.0337 54.555 56.8938 54.2988 58.6898C54.2988 58.8822 54.2347 59.0746 54.2347 59.3312C53.9144 59.2029 53.5941 59.2671 53.402 59.5878C51.8646 62.2176 48.3414 60.9989 46.4196 59.5878C45.779 59.0747 45.4587 58.5615 45.4587 57.7277C45.4587 57.0221 45.5868 56.3166 45.6509 55.611C45.8431 54.264 46.0993 52.917 46.4196 51.57C47.7008 46.2463 50.135 41.179 53.466 36.8815C55.3237 34.4441 57.5017 32.2633 59.8718 30.3391C60.6405 29.6976 59.6797 28.4148 58.911 29.0562C54.0425 32.9689 50.199 37.9719 47.5727 43.6164C46.2915 46.3745 45.3306 49.3251 44.69 52.3397C44.3697 53.815 44.1135 55.3544 43.9854 56.8938C43.9213 57.2787 43.9213 57.7277 43.9213 58.1125C43.7932 58.1125 43.601 58.1767 43.4089 58.305C41.6152 59.8444 38.9248 58.8181 37.6436 57.0862C35.85 54.6489 36.4265 51.1852 37.0671 48.4912C38.4764 42.9109 41.1028 37.6512 44.69 33.2254C46.5477 30.9805 48.5976 28.8638 50.9678 27.0678C52.1849 26.1698 53.466 25.336 54.9394 24.887C56.6049 24.3739 58.3344 24.438 59.9999 24.6946C63.0747 25.1436 66.0855 26.2981 69.0322 27.3244C71.8507 28.2865 74.6052 29.3769 77.2957 30.5956C83.3172 33.2896 89.0824 36.8815 93.6305 41.8205C94.3352 42.5902 95.6163 41.5639 94.9117 40.8583Z" fill="#141924"/>
<path d="M95.4173 19.8652C95.4173 18.8389 93.8158 18.8389 93.8158 19.8652C93.8158 21.0197 93.4955 22.1101 92.919 23.1364C92.6628 23.6495 92.3425 24.0344 91.8941 24.4834C91.7019 24.6758 91.5097 24.8682 91.3176 24.9965C91.1894 25.0607 91.1254 25.1248 90.9973 25.2531C90.741 25.1889 90.4848 25.3172 90.2286 25.4455C89.8442 25.7021 89.8442 26.2794 90.1005 26.6001C90.3567 26.9849 90.8692 27.0491 91.3176 26.8566C92.0863 26.5359 92.855 25.7662 93.3674 25.1248C94.7126 23.7137 95.3532 21.8536 95.4173 19.8652Z" fill="#141924"/>
<path d="M151.6 104.808C149.294 109.298 148.205 114.429 148.654 119.496C149.149 124.672 151.343 129.47 153.494 134.173C153.849 134.949 154.202 135.722 154.547 136.494C155.924 139.541 157.286 142.587 158.647 145.634C160.008 148.681 161.369 151.728 162.747 154.774L151.6 104.808ZM151.6 104.808C151.658 104.697 151.717 104.582 151.778 104.464M151.6 104.808L151.778 104.464M151.778 104.464C153.829 100.469 158.031 92.2866 169.665 89.6703L151.778 104.464ZM191.963 141.553L191.963 141.553L191.968 141.547C193.848 139.127 194.501 136.128 194.761 133.274C195.084 130.481 195.084 127.76 194.955 125.053L194.954 125.044L194.954 125.036C194.501 119.529 193.077 113.943 190.411 109.06C189.836 107.989 189.926 106.715 190.414 105.267C190.858 103.949 191.6 102.576 192.343 101.2C192.417 101.063 192.492 100.925 192.566 100.787C193.361 99.3086 194.14 97.8078 194.382 96.4798C194.505 95.8043 194.498 95.1344 194.257 94.5159C194.012 93.8893 193.548 93.3671 192.85 92.959L192.85 92.9585C190.646 91.6741 186.94 90.2629 182.745 89.4049C178.548 88.5467 173.812 88.2316 169.556 89.1823L169.555 89.1825C157.692 91.8504 153.397 100.216 151.336 104.23C151.274 104.35 151.214 104.466 151.156 104.579L151.156 104.579C148.809 109.148 147.699 114.374 148.156 119.54L148.156 119.54L148.156 119.544C148.66 124.811 150.894 129.694 153.044 134.393C153.398 135.166 153.75 135.934 154.091 136.698L154.092 136.7C155.468 139.745 156.829 142.791 158.19 145.837L158.19 145.838L158.19 145.838C159.552 148.885 160.913 151.933 162.291 154.98L162.291 154.981C162.449 155.329 162.608 155.694 162.768 156.064L162.769 156.066C162.929 156.433 163.09 156.804 163.251 157.16C163.504 157.73 163.868 158.487 164.496 158.959L164.496 158.959L164.503 158.964C165.215 159.478 166.017 159.566 166.763 159.436C167.501 159.309 168.205 158.968 168.784 158.594L168.785 158.593C170.967 157.17 173.11 155.627 175.234 154.097C175.803 153.687 176.371 153.277 176.938 152.872C179.626 150.95 182.378 149.027 185.133 147.103C185.477 146.864 185.831 146.623 186.19 146.378C188.202 145.009 190.393 143.519 191.963 141.553Z" fill="#050522" stroke="white"/>
<path d="M188.858 138.06L189.089 138.219L189.345 138.105C189.932 137.844 190.465 137.578 191.001 137.243C194.863 135.006 198.862 132.673 201.88 129.07C204.919 125.442 206.937 120.562 206.937 113.274C206.937 104.016 203.281 97.6091 197.75 93.5331C192.24 89.4733 184.918 87.759 177.611 87.759C170.953 87.759 164.816 90.2427 160.18 94.2953C159.718 94.6924 159.259 95.1519 158.879 95.5325L158.873 95.5386L158.658 95.7533L158.75 96.0427C161.198 103.783 165.221 111.498 172.621 115.76L172.626 115.763C174.718 116.941 177.007 117.793 179.363 118.253C179.642 118.318 179.907 118.241 180.093 118.147C180.282 118.053 180.464 117.906 180.584 117.73C181.894 115.915 184.05 114.872 186.264 114.744C188.478 114.615 190.698 115.402 192.149 117.182L192.15 117.183C193.531 118.866 194.137 121.162 193.835 123.34L193.835 123.342C193.538 125.545 192.171 127.397 190.194 128.416C187.959 129.565 185.311 129.621 183.093 128.48L183.093 128.48L183.088 128.478C182.789 128.328 182.474 128.3 182.184 128.399C181.904 128.494 181.696 128.691 181.56 128.908C181.301 129.32 181.23 129.933 181.547 130.415C183.44 133.419 185.92 136.033 188.858 138.06Z" fill="#050522" stroke="white"/>
<path d="M192.728 124.884C193.817 122.511 193.433 119.496 191.639 117.636C190.679 116.61 189.461 115.968 188.116 115.712C187.54 115.519 186.899 115.391 186.194 115.455C184.593 115.519 182.992 116.161 181.967 117.38C181.454 117.7 180.878 117.957 180.301 118.085C178.764 118.406 177.162 117.636 175.945 116.738C173.383 115.006 170.949 112.825 168.771 110.581C166.272 108.015 163.966 105.193 161.916 102.178C161.98 101.537 161.276 100.831 160.635 101.344C156.6 104.487 153.909 109.234 153.076 114.237C152.628 116.931 152.82 119.625 153.461 122.319C154.101 125.012 155.126 127.706 156.664 130.08C158.073 132.196 159.995 133.736 162.237 134.762C164.223 135.66 166.401 136.301 168.258 137.52C169.091 138.097 169.86 138.803 170.372 139.701C171.013 140.856 171.205 142.203 172.166 143.229C174.152 145.281 177.162 145.025 179.661 144.127C181.006 143.678 182.799 143.165 183.504 141.818C183.824 141.176 183.888 140.407 183.888 139.637C183.888 138.739 183.824 137.841 183.76 136.943C183.568 134.056 182.992 131.17 182.095 128.348C183.952 129.053 185.938 129.438 187.86 128.925C188.437 128.797 189.013 128.54 189.461 128.284C190.166 127.963 190.871 127.514 191.447 126.873C192.088 126.424 192.536 125.654 192.728 124.884Z" fill="white"/>
<path d="M173.767 146.821C172.806 144.319 171.909 141.818 170.884 139.316C170.5 138.29 169.923 137.392 168.899 136.943C167.938 136.494 166.913 136.366 165.952 136.045C162.301 134.698 159.098 132.197 156.792 129.054C154.485 125.911 153.012 122.126 152.884 118.214C152.756 114.301 153.973 110.324 156.087 107.053C158.521 103.333 162.108 100.382 166.336 98.9068C167.297 98.5861 166.657 97.1108 165.696 97.4316C157.881 100.061 152.051 107.694 151.347 115.904C150.642 124.179 155.382 132.261 162.493 136.237C163.454 136.815 164.543 137.264 165.568 137.649C166.08 137.841 166.657 137.969 167.233 138.162C167.874 138.354 168.514 138.482 168.899 138.996C169.283 139.509 169.475 140.214 169.731 140.792L170.564 142.972C171.141 144.448 171.717 145.987 172.294 147.462C172.678 148.36 174.151 147.783 173.767 146.821Z" fill="#141924"/>
<path d="M192.219 116.161C190.233 114.108 187.223 113.082 184.468 113.852C181.457 114.686 179.343 117.636 179.536 120.715C179.6 121.741 181.137 121.485 181.137 120.523C181.009 118.406 182.482 116.417 184.404 115.584C186.454 114.75 188.888 115.327 190.618 116.738C192.411 118.278 193.244 120.715 193.052 123.024C192.924 125.269 191.835 127.771 189.529 128.476C188.248 128.861 186.774 128.861 185.429 128.733C184.212 128.604 182.867 128.284 181.97 127.386C181.265 126.68 179.984 127.642 180.689 128.348C182.738 130.465 186.134 130.721 188.888 130.272C191.963 129.759 193.821 127.322 194.397 124.371C194.974 121.485 194.205 118.278 192.219 116.161Z" fill="#141924"/>
<path d="M200.864 142.074C196.637 141.625 192.601 140.086 189.142 137.712C186.259 135.724 183.825 133.158 181.967 130.208C181.583 129.631 182.095 128.604 182.864 128.989C185.234 130.208 188.053 130.144 190.423 128.925C192.537 127.835 194.01 125.846 194.33 123.473C194.651 121.164 194.01 118.726 192.537 116.93C189.398 113.082 182.992 113.595 180.174 117.508C180.045 117.7 179.725 117.893 179.469 117.828C177.163 117.379 174.921 116.546 172.871 115.391C165.632 111.222 161.661 103.653 159.227 95.956C159.611 95.5711 160.059 95.1222 160.508 94.7373C161.084 96.5974 161.725 98.3934 162.429 100.189C165.504 107.502 171.077 114.493 179.213 116.225C181.134 113.916 184.145 112.697 187.156 112.761C190.039 112.825 192.729 114.301 194.33 116.738C195.868 119.111 196.38 122.062 195.676 124.756C194.459 129.566 189.206 132.325 184.53 131.362C186.195 133.543 188.309 135.467 190.615 136.943C193.69 138.931 197.213 140.214 200.928 140.535C202.082 140.599 201.889 142.138 200.864 142.074Z" fill="#141924"/>
<path d="M157.943 119.625C157.303 120.202 156.534 120.394 155.701 120.202C154.676 120.01 154.548 121.549 155.509 121.806C156.726 122.062 158.007 121.741 158.904 120.908C159.673 120.202 158.712 118.919 157.943 119.625Z" fill="#141924"/>
<path d="M226.085 184.842L226.091 184.841C226.256 184.824 226.436 184.753 226.599 184.673C226.773 184.587 226.974 184.466 227.189 184.311C227.622 184.001 228.133 183.543 228.65 182.917C229.685 181.663 230.741 179.732 231.216 176.964C232.166 171.43 230.788 162.612 222.428 149.186C221.471 147.641 220.375 146.121 219.288 144.613C218.763 143.886 218.241 143.161 217.737 142.438C216.174 140.194 214.764 137.929 213.89 135.491L213.889 135.488C212.339 131.25 211.573 126.497 210.844 121.979C210.799 121.702 210.755 121.425 210.71 121.149C210.681 120.97 210.653 120.791 210.624 120.611C209.503 113.609 208.275 105.943 203.426 100.254C202.829 99.5246 202.171 98.8663 201.457 98.2163L201.445 98.2057L201.433 98.1958C201.201 98.0098 200.949 97.9097 200.68 97.9097C200.51 97.9097 200.358 97.9501 200.231 97.9995C199.954 97.9589 199.654 97.9952 199.393 98.1429C199.045 98.3394 198.829 98.6998 198.827 99.1546C198.764 101.152 198.804 103.168 198.843 105.167C198.864 106.226 198.885 107.279 198.891 108.322C198.907 111.358 198.794 114.347 198.196 117.278C197.187 122.142 194.687 126.889 190.035 128.914C188.97 129.353 187.815 129.713 186.681 129.773L186.644 129.775L186.609 129.782C186.612 129.781 186.611 129.781 186.604 129.782C186.589 129.783 186.548 129.786 186.472 129.788C186.375 129.79 186.248 129.79 186.1 129.787C185.804 129.782 185.436 129.769 185.077 129.749C184.717 129.729 184.373 129.704 184.123 129.676C184.122 129.676 184.122 129.676 184.122 129.676C184.108 129.48 184.073 129.26 183.991 129.058C183.912 128.862 183.78 128.661 183.563 128.513C183.347 128.364 183.086 128.297 182.799 128.297H182.775L182.75 128.299C182.187 128.356 181.866 128.756 181.68 129.073C181.584 129.235 181.506 129.407 181.443 129.548L181.431 129.574C181.368 129.713 181.323 129.815 181.276 129.896L181.265 129.915L181.256 129.936C181.224 130.006 181.192 130.075 181.16 130.145C180.487 131.618 179.883 132.94 178.785 134.097C177.537 135.409 176.096 136.541 174.579 137.553C172.766 138.763 170.888 139.879 168.99 140.994C168.791 141.111 168.591 141.228 168.392 141.345C166.693 142.341 164.984 143.344 163.313 144.411L163.309 144.413C155.59 149.438 148.34 155.649 143.736 163.895L143.734 163.898C141.271 168.377 139.643 173.258 139.317 178.411L139.316 178.427V178.443C139.316 178.69 139.387 178.965 139.514 179.197C139.635 179.416 139.859 179.686 140.215 179.764C154.281 183.364 168.726 185.163 183.226 185.806L183.23 185.806C190.542 186.063 197.791 186.127 205.041 185.934L205.041 185.934C212.09 185.742 219.085 185.485 226.085 184.842Z" fill="#050522" stroke="white"/>
<path d="M243.907 213.018L244.139 212.744L243.953 212.436C243.519 211.717 243.086 211.003 242.655 210.291C241.236 207.951 239.837 205.645 238.514 203.338L238.514 203.338L238.507 203.326C237.698 201.999 236.883 200.678 236.068 199.36C232.937 194.292 229.823 189.254 227.19 183.93L227.189 183.928C225.709 180.965 224.427 177.874 223.174 174.746C222.898 174.057 222.624 173.365 222.349 172.673C221.378 170.23 220.404 167.777 219.353 165.374C216.652 159.201 213.416 153.292 208.315 148.509L208.313 148.507C203.956 144.47 198.335 141.578 192.225 141.446L192.224 141.446C185.68 141.315 179.36 143.935 174.235 147.767L174.234 147.768C168.783 151.862 164.581 157.372 160.981 163.036C159.119 165.929 157.321 168.887 155.588 171.908L155.588 171.908L155.586 171.912C153.856 174.99 152.171 178.102 151.002 181.483C146.846 192.996 148.988 206.192 156.391 215.817C157.297 217.049 158.327 218.146 159.405 219.227C161.192 222.165 163.041 225.039 164.887 227.906L164.89 227.91L164.89 227.911C168.675 233.757 172.588 239.41 176.694 244.997L176.849 245.209L177.111 245.201C203.843 244.427 227.74 232.108 243.907 213.018Z" fill="#050522" stroke="white"/>
<path d="M148.648 165.743C137.054 176.454 125.523 187.23 113.929 197.942L104.064 207.114C103.295 207.82 104.256 209.103 105.025 208.397C116.619 197.685 128.15 186.91 139.744 176.198C143.011 173.119 146.342 170.104 149.609 167.026C150.378 166.32 149.417 165.037 148.648 165.743Z" fill="#141924"/>
<path d="M165.138 139.45C160.59 148.238 149.828 150.547 141.821 154.973C134.326 159.142 128.369 165.748 124.717 173.51C122.667 177.807 121.386 182.49 121.002 187.3C120.938 188.326 122.475 188.519 122.603 187.493C123.308 179.026 126.895 171.008 132.468 164.594C135.223 161.451 138.554 158.693 142.141 156.64C146.561 154.075 151.43 152.407 155.978 149.97C160.334 147.596 164.369 144.517 166.675 140.028C167.124 139.13 165.651 138.552 165.138 139.45Z" fill="#050522"/>
<path d="M147.617 35.4998C146.4 34.4094 144.478 34.2169 143.197 35.2432C141.851 36.7826 141.98 38.7069 142.94 39.9256C144.094 41.3367 146.143 41.2726 147.425 40.0539C148.834 38.8352 149.026 36.7826 147.617 35.4998ZM146.4 38.9634C145.695 39.6049 144.67 39.6049 144.158 38.8352C143.709 38.1296 143.645 37.2316 144.222 36.5902C144.862 36.0129 145.887 36.077 146.528 36.6543C147.232 37.2316 147.104 38.322 146.4 38.9634Z" fill="#7666FF"/>
<path d="M234.816 106.411C233.086 105 231.421 103.653 229.691 102.242C229.563 101.408 228.218 101.344 228.025 102.242C227.513 104.551 227.385 106.86 227.577 109.234C227.577 109.619 228.089 110.003 228.474 109.939C230.588 109.362 232.638 108.656 234.687 107.758C235.2 107.566 235.264 106.796 234.816 106.411ZM229.307 104.038C230.46 105 231.613 105.898 232.766 106.86C231.549 107.374 230.332 107.823 229.05 108.143C228.986 106.796 229.114 105.385 229.307 104.038Z" fill="#050522"/>
<path d="M144.042 172.092C123.095 191.335 118.675 195.184 118.675 195.184L112.974 179.854L75.5 193.965C75.5 193.965 81.9058 213.528 89.9131 234.246C97.2798 253.232 114.64 261.186 128.732 255.22C136.996 251.757 148.526 243.29 158.199 233.861C164.975 227.253 171.052 221.338 176.465 216C206.411 186.47 216.043 174.621 211.432 160.932C206.499 146.307 199.196 140.727 187.089 142.523C176.136 144.191 164.989 152.85 144.042 172.092Z" fill="#050522"/>
<path d="M189.911 201.919C183.313 208.397 176.715 214.811 169.924 221.097C168.003 222.893 166.081 224.689 164.095 226.485C163.326 227.191 164.287 228.409 165.056 227.768C171.846 221.546 178.572 215.196 185.17 208.782C187.092 206.922 188.95 205.062 190.807 203.266C191.64 202.432 190.615 201.149 189.911 201.919Z" fill="white"/>
<path d="M341 48.4438C341 62.5964 329.488 74.0757 315.295 74.0757H230.135C226.272 77.2993 221.935 79.9726 217.361 81.9382C212.315 84.1397 206.401 85.6336 200.881 84.297C199.778 84.0611 198.989 82.4886 200.172 81.7023C203.878 79.0291 208.215 76.1199 211.053 72.3459C206.243 70.4589 202.143 67.2353 199.226 63.0681C196.308 58.901 194.573 53.869 194.573 48.4438C194.573 34.2913 206.086 22.812 220.279 22.812H315.295C322.391 22.812 328.857 25.7212 333.509 30.36C338.083 34.9989 341 41.3676 341 48.4438Z" fill="#050522"/>
<path d="M213.838 47.1683C213.996 45.9165 215.971 46.2295 215.813 47.403C215.655 48.4984 217.077 49.4372 217.867 49.9849C219.369 51.002 221.028 51.7061 222.687 52.2537C226.163 53.3491 229.797 53.1926 232.878 51.1584C236.354 48.8113 239.356 45.6818 243.306 44.1953C247.493 42.6306 252.076 43.4912 255.789 45.9165C257.685 47.1683 259.423 48.6548 261.556 49.5154C263.847 50.4543 266.296 50.689 268.745 50.6108C270.799 50.5325 273.011 50.3761 274.986 49.7502C276.408 49.2807 277.514 48.4201 278.62 47.403C280.121 45.9165 281.385 44.1953 283.124 42.9435C284.862 41.6135 286.916 40.9093 289.128 40.9876C293.473 41.0658 297.344 43.7259 300.899 45.9165C302.321 46.7771 303.664 47.716 305.244 48.1854C306.587 48.5766 308.009 48.7331 309.431 48.8113C311.801 48.8895 315.515 48.7331 317.095 46.5424C317.411 46.073 317.569 45.6036 317.648 45.0559C317.727 43.8041 319.702 44.1171 319.623 45.2906C319.307 48.4201 316.226 49.9066 313.46 50.4543C310.379 51.002 306.903 50.8455 303.98 49.7502C302.242 49.1243 300.662 47.9507 299.082 47.0119C297.107 45.8383 295.211 44.6647 293.078 43.8041C291.103 43.0218 288.891 42.6306 286.837 43.2565C284.546 44.0388 283.045 45.7601 281.464 47.4813C280.358 48.6548 279.173 49.9066 277.751 50.689C276.092 51.6278 274.275 52.019 272.379 52.2537C269.851 52.5667 267.323 52.7232 264.795 52.332C262.188 51.9408 259.976 50.9237 257.843 49.4372C256.026 48.2636 254.367 46.8554 252.313 46.073C250.179 45.2124 247.651 45.0559 245.36 45.6036C241.094 46.6989 237.934 50.2196 234.379 52.6449C231.061 54.9138 227.19 55.3832 223.398 54.3662C221.581 53.8967 219.764 53.1926 218.183 52.2537C216.761 51.4714 215.26 50.4543 214.47 48.9678C213.838 48.4984 213.759 47.8725 213.838 47.1683Z" fill="white"/>
</g>
<defs>
<clipPath id="clip0">
<rect width="341" height="257" fill="white"/>
</clipPath>
</defs>
</svg>
