<svg width="212" height="229" viewBox="0 0 212 229" fill="none" xmlns="http://www.w3.org/2000/svg">
<path d="M210.273 114.856V105.033C210.273 107.435 208.853 109.945 206.085 112.091C205.43 112.637 204.665 113.11 203.827 113.619L191.519 120.714C191.155 120.932 190.791 121.114 190.39 121.332C182.634 125.262 171.637 125.516 165.228 121.805C164.936 121.66 164.681 121.478 164.463 121.332C161.95 119.622 160.676 117.476 160.676 115.22V125.043C160.676 127.517 162.169 129.882 165.228 131.628C171.964 135.521 183.763 135.048 191.519 130.537L203.827 123.442C208.088 121.005 210.273 117.84 210.273 114.856Z" fill="white"/>
<path d="M164.427 121.369L164.5 121.223V114.602C164.5 114.493 164.5 114.384 164.5 114.274C164.573 112.419 165.811 110.564 168.287 109.145C173.349 106.234 181.506 106.234 186.531 109.145C186.968 109.399 187.369 109.654 187.733 109.945C194.178 108.635 201.133 109.254 205.722 111.91C205.831 111.982 205.977 112.055 206.086 112.128C208.853 109.981 210.273 107.471 210.273 105.07C210.273 102.596 208.78 100.231 205.722 98.4849C198.985 94.5921 187.186 95.065 179.43 99.5763L167.122 106.671C162.861 109.145 160.677 112.273 160.677 115.257C160.64 117.512 161.915 119.659 164.427 121.369Z" fill="white"/>
<path d="M187.73 109.945C189.515 111.327 190.389 112.965 190.316 114.602V121.223L190.389 121.369C190.753 121.187 191.153 120.969 191.518 120.75L203.826 113.656C204.663 113.183 205.428 112.674 206.084 112.128C205.974 112.055 205.829 111.982 205.719 111.91C201.095 109.254 194.139 108.635 187.73 109.945Z" fill="#9999A7"/>
<path d="M190.317 114.602C190.244 116.457 188.969 118.276 186.53 119.695C181.504 122.606 173.311 122.606 168.286 119.695C165.846 118.276 164.571 116.457 164.499 114.602V121.223L164.426 121.369C164.681 121.551 164.936 121.696 165.19 121.842C171.599 125.553 182.597 125.262 190.353 121.369L190.28 121.223V114.602H190.317Z" fill="#050522"/>
<path d="M168.287 119.695C173.349 122.606 181.506 122.606 186.531 119.695C188.971 118.276 190.245 116.457 190.318 114.602C190.391 112.965 189.517 111.328 187.733 109.945C187.368 109.654 186.968 109.399 186.531 109.145C181.506 106.234 173.312 106.234 168.287 109.145C165.811 110.564 164.573 112.419 164.5 114.274C164.5 114.384 164.5 114.493 164.5 114.602C164.573 116.457 165.847 118.276 168.287 119.695Z" fill="#DDF951"/>
<path d="M184.344 188.02L177.971 182.744L137.441 149.019L137.332 149.164C134.128 147.018 129.867 147.309 126.954 149.928C124.296 152.329 123.531 156.04 124.733 159.133L133.946 167.974C136.349 168.119 138.716 168.519 140.901 169.211C142.357 169.683 143.705 170.266 144.943 170.957C148.475 172.994 150.223 175.65 150.223 178.306V183.618L170.724 203.3C174.621 207.047 180.739 207.12 184.708 203.482C189.332 199.298 189.15 192.022 184.344 188.02Z" fill="#DDF951"/>
<path d="M140.137 220.436C140.137 221.527 140.392 222.546 140.829 223.455C141.957 225.857 144.434 227.566 147.274 227.566C151.207 227.566 154.411 224.365 154.411 220.436C154.411 217.562 152.7 215.088 150.26 213.96C149.35 213.56 148.366 213.305 147.274 213.305C143.305 213.305 140.137 216.507 140.137 220.436Z" fill="white"/>
<path d="M151.241 82.6589C149.784 83.4957 147.381 83.4957 145.924 82.6589C145.196 82.2223 144.832 81.6766 144.832 81.1309V104.124C144.832 104.67 145.196 105.252 145.924 105.652C147.381 106.489 149.748 106.489 151.241 105.652C151.969 105.215 152.333 104.67 152.333 104.124V81.1309C152.37 81.713 152.006 82.2587 151.241 82.6589Z" fill="white"/>
<path d="M145.964 79.6029C145.235 80.0395 144.871 80.5852 144.871 81.1309C144.871 81.6767 145.235 82.2588 145.964 82.659C147.42 83.4957 149.787 83.4957 151.28 82.659C152.008 82.2224 152.373 81.6767 152.373 81.1309C152.373 80.5852 152.008 80.0395 151.28 79.6029C149.787 78.7661 147.42 78.7661 145.964 79.6029Z" fill="white"/>
<path d="M144.945 185.619C137.917 189.657 126.519 189.657 119.491 185.619C115.995 183.581 114.211 180.925 114.211 178.27V214.287C114.211 216.943 115.959 219.599 119.491 221.636C125.245 224.947 133.948 225.565 140.757 223.419C140.32 222.509 140.065 221.491 140.065 220.399C140.065 216.47 143.27 213.269 147.203 213.269C148.259 213.269 149.278 213.487 150.189 213.923V183.581L148.805 182.271C147.967 183.508 146.657 184.636 144.945 185.619Z" fill="#9999A7"/>
<path d="M148.84 182.271L150.224 183.581V178.27C150.224 179.652 149.75 180.998 148.84 182.271Z" fill="white"/>
<path d="M144.943 185.619C146.655 184.636 147.966 183.472 148.84 182.271C149.75 180.998 150.223 179.652 150.223 178.269C150.223 175.614 148.475 172.958 144.943 170.92C143.705 170.193 142.358 169.611 140.901 169.174L132.234 178.269L144.943 185.619Z" fill="#FF4084"/>
<path d="M119.527 185.619C126.556 189.657 137.953 189.657 144.981 185.619L132.236 178.306L132.273 167.937C127.648 167.937 123.023 168.956 119.491 170.993C115.995 173.031 114.211 175.686 114.211 178.342C114.247 180.962 115.995 183.618 119.527 185.619Z" fill="white"/>
<path d="M140.901 169.21C138.716 168.519 136.349 168.119 133.946 167.974C133.4 167.937 132.853 167.937 132.271 167.937L132.234 178.306L140.901 169.21Z" fill="#050522"/>
<path d="M126.954 149.928C129.867 147.309 134.127 147.018 137.332 149.164L137.441 149.055L131.433 144.071C130.777 143.525 130.049 143.089 129.284 142.798C126.589 141.742 123.458 142.252 121.236 144.289C118.287 146.945 117.886 151.347 120.071 154.476C120.144 154.549 120.18 154.658 120.253 154.731C120.508 155.058 120.763 155.349 121.054 155.64L124.732 159.133C123.567 156.004 124.332 152.329 126.954 149.928Z" fill="#050522"/>
<path d="M121.24 144.253C123.462 142.215 126.593 141.706 129.288 142.761C130.599 139.269 131.4 135.23 131.619 130.719C131.691 129.809 131.691 128.863 131.691 127.917C131.691 107.908 121.168 84.6962 106.165 68.652C101.103 63.2675 95.568 58.6834 89.7053 55.3C78.1254 48.6058 67.6379 47.9873 60.0272 52.3531L47.9375 59.3383C55.5118 55.2272 65.7807 55.9912 77.1422 62.5399C100.302 75.9283 119.092 108.417 119.092 135.157C119.092 148.182 114.613 157.459 107.366 161.971L119.347 155.058C119.383 155.022 119.42 155.022 119.456 154.985L119.966 154.44C117.89 151.311 118.291 146.945 121.24 144.253Z" fill="white"/>
<path d="M119.197 135.157C119.197 108.417 100.407 75.9283 77.2467 62.5399C65.8853 55.9912 55.5799 55.2636 48.0421 59.3383L47.8964 59.4111L47.6051 59.5566C39.9944 63.9224 35.2969 73.3088 35.2969 86.6972C35.2969 91.5723 35.9159 96.6657 37.0812 101.759C40.0672 114.893 46.6219 128.281 55.2158 139.378C58.2382 140.251 61.0785 141.379 63.5912 142.834C68.9441 145.89 71.9301 149.819 72.622 153.821C72.7313 154.403 72.7677 155.022 72.7677 155.604V156.404C74.2243 157.423 75.7173 158.369 77.2467 159.242C89.0815 166.045 99.751 166.591 107.362 161.898L107.471 161.861C114.718 157.459 119.197 148.182 119.197 135.157ZM106.051 146.363C100.37 154.658 89.5913 156.259 77.2467 149.128C58.9301 138.614 44.1093 112.965 44.1093 91.8634C44.1093 77.6018 50.8824 69.0885 60.8965 68.3245C65.7032 67.9243 71.2747 69.3432 77.2103 72.7631C95.4905 83.3137 110.311 108.963 110.311 130.064C110.311 136.867 108.782 142.397 106.051 146.363Z" fill="white"/>
<path d="M89.7774 141.924C71.4972 131.374 56.6764 105.725 56.6764 84.6235C56.6764 77.8202 58.2058 72.2902 60.9369 68.3246C50.8864 69.0886 44.1133 77.6019 44.1133 91.8634C44.1133 112.965 58.9341 138.614 77.2143 149.164C89.5589 156.295 100.374 154.694 106.018 146.399C101.248 146.727 95.6766 145.344 89.7774 141.924Z" fill="#050522"/>
<path d="M82.8168 210.976V193.222C82.8168 193.986 82.307 194.787 81.2874 195.369C79.2118 196.569 75.898 196.569 73.8224 195.369C72.8028 194.787 72.293 193.986 72.293 193.222V210.976C72.293 211.74 72.7664 212.468 73.7131 213.05C73.7496 213.087 73.786 213.087 73.8224 213.123C75.898 214.324 79.2118 214.324 81.2874 213.123C82.2706 212.541 82.8168 211.74 82.8168 210.976Z" fill="white"/>
<path d="M73.7872 195.369C75.8629 196.569 79.1766 196.569 81.2523 195.369C82.2719 194.787 82.7817 193.986 82.7817 193.222C82.7817 192.458 82.2719 191.658 81.2523 191.076C79.1766 189.875 75.8629 189.875 73.7872 191.076C72.7676 191.658 72.2578 192.458 72.2578 193.222C72.2578 194.023 72.7676 194.787 73.7872 195.369Z" fill="white"/>
<path d="M72.7668 155.713C72.7668 155.131 72.7304 154.512 72.6211 153.93C71.9292 149.892 68.9068 145.999 63.5902 142.943C61.0776 141.488 58.2373 140.324 55.2148 139.487" fill="white"/>
<path d="M106.273 162.662C106.055 162.334 106.2 161.861 106.528 161.679C98.8447 166.118 88.6121 165.063 77.6149 158.732C76.2675 157.968 74.8838 157.095 73.5 156.113V157.859C74.6289 158.623 75.7577 159.315 76.8866 159.969C83.6233 163.862 90.1416 165.827 96.0043 165.827C100.119 165.827 103.943 164.845 107.293 162.916C107.184 162.989 107.038 163.026 106.929 163.026C106.637 163.026 106.383 162.88 106.273 162.662Z" fill="#050522"/>
<path d="M106.707 161.57L106.998 161.388C106.998 161.388 106.998 161.388 106.962 161.388C106.889 161.461 106.78 161.498 106.707 161.57Z" fill="#050522"/>
<path d="M55.6206 138.832C47.0267 127.699 40.6905 114.493 37.7773 101.686C36.6121 96.5202 35.993 91.4996 35.993 86.77C35.993 74.1092 40.2171 64.6864 47.9006 60.2478C47.5365 60.4297 47.0995 60.3206 46.9174 59.9932C46.7354 59.6293 46.8446 59.1928 47.1723 59.0109C39.0154 63.7041 34.5 73.5635 34.5 86.77C34.5 91.6087 35.1191 96.7385 36.3207 102.014C39.1611 114.493 45.1695 127.263 53.3264 138.25C54.0183 138.395 54.6738 138.577 55.3657 138.759C55.4749 138.759 55.5477 138.796 55.6206 138.832Z" fill="#050522"/>
<path d="M77.577 61.9213C69.3473 57.1917 61.4453 55.2999 54.5993 56.3913L48.3359 59.9931C48.3359 59.9931 48.3359 59.9931 48.3724 59.9931C56.0195 55.8456 66.1428 56.9734 76.8851 63.1583C99.8264 76.4012 118.471 108.672 118.471 135.157C118.471 147.491 114.429 156.768 107.073 161.352H107.109L113.227 157.823C117.597 152.439 119.927 144.653 119.927 135.157C119.927 108.235 100.919 75.3825 77.577 61.9213Z" fill="#050522"/>
<path d="M77.5753 72.1445C71.7853 68.7974 66.0682 67.233 61.043 67.5968C61.2615 67.6332 61.4799 67.7787 61.5892 67.997C61.7348 68.2516 61.662 68.5427 61.5164 68.761C61.4435 68.8337 61.4071 68.9429 61.3343 69.0156C61.6984 68.9793 62.099 68.9793 62.4631 68.9793C66.8693 68.9793 71.8217 70.4709 76.847 73.3814C94.9087 83.7866 109.584 109.217 109.584 130.027C109.584 136.321 108.2 141.706 105.615 145.635C105.724 145.635 105.833 145.635 105.979 145.599C106.416 145.562 106.78 145.89 106.78 146.326C106.78 146.472 106.744 146.581 106.671 146.69C109.547 142.506 111.04 136.722 111.04 130.027C111.04 108.744 96.0376 82.7679 77.5753 72.1445Z" fill="#050522"/>
<path d="M106.089 147.09C105.579 147.127 105.069 147.163 104.56 147.163C98.7333 154.294 88.5736 154.84 77.6127 148.509C59.5146 138.104 44.8394 112.674 44.8394 91.8633C44.8394 79.2389 50.4109 70.7256 59.5146 69.234C59.7695 68.7974 60.0608 68.3244 60.3157 67.9242C60.3157 67.9242 60.3157 67.9242 60.3157 67.8879C60.3885 67.7787 60.4978 67.7059 60.607 67.6332C60.6434 67.6332 60.6798 67.5968 60.7162 67.5968C50.0103 68.5063 43.3828 77.7836 43.3828 91.8633C43.3828 113.146 58.3857 139.123 76.848 149.783C82.201 152.875 87.3719 154.403 92.033 154.403C98.0414 154.403 103.176 151.856 106.599 146.836C106.49 146.981 106.308 147.09 106.089 147.09Z" fill="#050522"/>
<path d="M61.0426 67.5968C60.9333 67.5968 60.8241 67.5968 60.7148 67.6332C60.7513 67.6332 60.8241 67.6332 60.8605 67.6332C60.9333 67.5968 60.9697 67.5968 61.0426 67.5968Z" fill="#050522"/>
<path d="M60.9706 69.0522C60.4607 69.0886 59.9874 69.1613 59.514 69.2341C57.1834 73.3088 55.9453 78.5841 55.9453 84.6235C55.9453 105.907 70.9482 131.919 89.4105 142.543C94.6542 145.563 99.8615 147.163 104.559 147.163C104.887 146.799 105.178 146.399 105.469 145.963C105.542 145.854 105.615 145.781 105.651 145.672C100.954 145.963 95.601 144.435 90.1388 141.306C72.0771 130.901 57.4019 105.47 57.4019 84.6599C57.4019 78.4022 58.7493 73.0178 61.3347 69.0522C61.2255 69.0158 61.0798 69.0158 60.9706 69.0522Z" fill="#050522"/>
<path d="M60.318 67.8879C60.0267 68.3244 59.7354 68.761 59.4805 69.234C59.9539 69.1612 60.4637 69.0884 60.9371 69.0521C61.0463 69.0521 61.1556 69.0521 61.3012 69.0157C61.374 68.9429 61.4105 68.8338 61.4833 68.761C61.6654 68.5427 61.7018 68.2517 61.5561 67.997C61.4469 67.7787 61.2284 67.6332 61.0099 67.5968C60.9371 67.5968 60.9006 67.5968 60.8278 67.5968C60.7914 67.5968 60.7186 67.5968 60.6822 67.5968C60.6457 67.5968 60.6093 67.6332 60.5729 67.6332C60.5001 67.7059 60.3908 67.7787 60.318 67.8879Z" fill="#050522"/>
<path d="M105.98 145.635C105.871 145.635 105.762 145.635 105.616 145.672C105.543 145.781 105.507 145.854 105.434 145.963C105.142 146.399 104.851 146.763 104.523 147.163C105.033 147.163 105.543 147.127 106.053 147.091C106.271 147.091 106.453 146.981 106.599 146.836L106.635 146.799L106.672 146.763C106.745 146.654 106.781 146.545 106.781 146.399C106.781 145.963 106.417 145.635 105.98 145.635Z" fill="#050522"/>
<path d="M47.6453 58.7197C49.7937 57.5555 52.1243 56.7915 54.6005 56.3913L60.4633 53.0078C68.1468 48.5693 78.4522 49.6243 89.413 55.9547C95.0209 59.1927 100.483 63.5948 105.618 69.0884C105.618 69.1248 105.654 69.1248 105.654 69.1612C121.021 85.6057 130.962 108.672 130.962 127.917C130.962 128.936 130.926 129.846 130.889 130.682C130.671 134.793 129.979 138.541 128.814 141.851C129.069 141.924 129.287 141.997 129.542 142.106C129.761 142.179 129.979 142.288 130.198 142.397C131.436 138.941 132.164 135.012 132.346 130.792C132.382 129.918 132.419 129.009 132.419 127.954C132.419 108.38 122.332 84.9508 106.746 68.2517C106.746 68.2153 106.71 68.2153 106.674 68.1789C101.43 62.5398 95.822 58.0285 90.0685 54.7177C78.6342 48.1327 67.819 47.0776 59.6621 51.7708L47.6453 58.7197L47.1719 58.9744C47.2447 58.938 47.3175 58.9016 47.4268 58.9016C47.4996 58.8289 47.5724 58.7561 47.6453 58.7197Z" fill="#050522"/>
<path d="M48.3381 59.993C48.2652 60.0294 48.1924 60.0658 48.1196 60.0658C48.0832 60.1386 48.0103 60.175 47.9375 60.2477L48.3381 59.993Z" fill="#050522"/>
<path d="M46.9132 59.9567C47.0953 60.3205 47.5687 60.4296 47.8964 60.2113C47.9693 60.175 48.0421 60.1022 48.0785 60.0294C47.7872 60.0658 47.4595 59.9203 47.3138 59.6656C47.1681 59.411 47.2046 59.0835 47.3866 58.8652C47.3138 58.8652 47.2046 58.9016 47.1317 58.938C46.8404 59.1927 46.7312 59.6292 46.9132 59.9567Z" fill="#050522"/>
<path d="M54.5956 56.3914C52.1194 56.7916 49.7888 57.5556 47.6404 58.7198C47.5675 58.7562 47.4947 58.8289 47.4219 58.9017C47.7132 58.8653 48.0045 58.9744 48.1502 59.2655C48.2958 59.5202 48.2594 59.8476 48.0773 60.1023C48.1502 60.1023 48.223 60.0659 48.2958 60.0295L54.5956 56.3914Z" fill="#050522"/>
<path d="M48.1879 59.2655C48.0422 59.0108 47.7509 58.8653 47.4596 58.9017C47.2775 59.1199 47.2411 59.4474 47.3868 59.702C47.5324 59.9931 47.8601 60.1022 48.1515 60.0659C48.2971 59.8476 48.3335 59.5201 48.1879 59.2655Z" fill="#050522"/>
<path d="M106.527 161.679C106.6 161.643 106.637 161.607 106.709 161.57L106.527 161.679Z" fill="#050522"/>
<path d="M107.073 161.352L107 161.388C107 161.388 107.036 161.388 107.073 161.352C107.036 161.352 107.036 161.352 107.073 161.352Z" fill="#050522"/>
<path d="M119.491 154.876C119.382 154.694 119.272 154.549 119.163 154.367C119.163 154.367 119.127 154.367 119.127 154.403C119.127 154.403 119.09 154.439 119.054 154.439L113.191 157.823C111.662 159.715 109.841 161.352 107.802 162.589C107.765 162.589 107.765 162.589 107.729 162.625L107.692 162.662C107.62 162.698 107.51 162.771 107.438 162.807L119.746 155.713C119.819 155.676 119.891 155.64 119.964 155.604L120.001 155.567C119.891 155.422 119.782 155.313 119.673 155.167C119.636 155.058 119.564 154.985 119.491 154.876Z" fill="#050522"/>
<path d="M107.764 162.625C107.655 162.662 107.546 162.698 107.437 162.698C107.182 162.698 106.963 162.589 106.818 162.371C106.599 162.043 106.708 161.607 107.036 161.388C107.036 161.388 107 161.388 107 161.425L106.708 161.607C106.635 161.643 106.599 161.679 106.526 161.716C106.198 161.934 106.089 162.371 106.271 162.698C106.417 162.916 106.635 163.062 106.89 163.062C107 163.062 107.145 163.026 107.254 162.953L107.473 162.807C107.582 162.735 107.655 162.698 107.764 162.625C107.728 162.625 107.764 162.625 107.764 162.625Z" fill="#050522"/>
<path d="M107.074 161.352C107.038 161.352 107.038 161.352 107.074 161.352C107.366 161.206 107.766 161.316 107.985 161.643C108.203 161.97 108.094 162.407 107.766 162.625C107.802 162.625 107.802 162.625 107.839 162.589C109.878 161.316 111.662 159.715 113.228 157.823L107.074 161.352Z" fill="#050522"/>
<path d="M107.982 161.643C107.799 161.316 107.399 161.206 107.035 161.352C106.707 161.57 106.634 162.007 106.816 162.334C106.962 162.553 107.18 162.662 107.435 162.662C107.545 162.662 107.654 162.625 107.763 162.589C108.091 162.407 108.164 161.97 107.982 161.643Z" fill="#050522"/>
<path d="M148.914 183.363L149.497 183.909V182.635C149.46 182.672 149.46 182.708 149.424 182.708C149.278 182.926 149.096 183.145 148.914 183.363Z" fill="#050522"/>
<path d="M184.82 187.474L131.946 143.489C131.436 143.052 130.854 142.688 130.235 142.397C130.162 142.615 130.089 142.834 130.016 143.052C129.907 143.343 129.616 143.525 129.324 143.525C129.252 143.525 129.142 143.525 129.069 143.489C128.705 143.343 128.487 142.943 128.632 142.543C128.705 142.324 128.778 142.106 128.851 141.888C126.011 141.051 122.988 141.742 120.767 143.743C117.744 146.472 117.125 150.947 119.165 154.403C119.492 154.185 119.929 154.294 120.148 154.585C120.366 154.912 120.33 155.313 120.002 155.567C120.184 155.749 120.366 155.967 120.548 156.186L132.055 167.246C132.128 167.246 132.165 167.246 132.238 167.246C132.238 167.246 132.238 167.246 132.274 167.246C132.784 167.246 133.366 167.246 133.985 167.282C134.095 167.282 134.168 167.282 134.277 167.319L125.392 158.805C125.392 158.842 125.428 158.914 125.428 158.951C125.574 159.315 125.392 159.751 124.991 159.897C124.918 159.933 124.809 159.933 124.736 159.933C124.445 159.933 124.153 159.751 124.044 159.46C123.753 158.66 123.571 157.823 123.498 157.023L121.604 155.203C121.313 154.912 121.058 154.621 120.876 154.367C120.803 154.294 120.767 154.221 120.694 154.112C118.691 151.238 119.128 147.272 121.75 144.871C123.753 143.052 126.52 142.543 129.033 143.525C129.761 143.816 130.417 144.18 130.999 144.689L133.985 147.163C135.296 147.345 136.571 147.818 137.736 148.618C138.064 148.837 138.173 149.31 137.918 149.637C137.773 149.855 137.554 149.965 137.299 149.965L177.501 183.399L183.874 188.674C186.022 190.457 187.26 193.04 187.333 195.805C187.406 198.57 186.241 201.19 184.201 203.045C180.524 206.392 174.806 206.32 171.201 202.863L150.918 183.399V185.4L170.182 203.918C172.294 205.956 175.025 206.974 177.792 206.974C180.451 206.974 183.073 206.028 185.185 204.137C187.552 201.99 188.826 198.97 188.79 195.805C188.717 192.531 187.26 189.511 184.82 187.474Z" fill="#050522"/>
<path d="M128.846 141.852C128.774 142.07 128.701 142.288 128.628 142.506C128.482 142.87 128.664 143.307 129.065 143.452C129.138 143.489 129.247 143.489 129.32 143.489C129.611 143.489 129.902 143.307 130.012 143.016C130.085 142.797 130.157 142.579 130.23 142.361C130.012 142.252 129.793 142.179 129.575 142.07C129.32 141.997 129.101 141.924 128.846 141.852Z" fill="#050522"/>
<path d="M120.147 154.549C119.929 154.221 119.492 154.148 119.164 154.367C119.273 154.549 119.383 154.731 119.492 154.876C119.565 154.949 119.601 155.058 119.674 155.131C119.783 155.276 119.892 155.385 120.002 155.531C120.329 155.313 120.366 154.876 120.147 154.549Z" fill="#050522"/>
<path d="M127.466 150.438C130.088 148.036 133.984 147.782 136.934 149.746C137.043 149.819 137.189 149.855 137.335 149.855L133.984 147.09C131.326 146.69 128.559 147.454 126.483 149.383C124.335 151.347 123.278 154.148 123.497 156.95L125.354 158.733C124.334 155.786 125.136 152.548 127.466 150.438Z" fill="#050522"/>
<path d="M137.952 149.564C138.171 149.237 138.098 148.764 137.77 148.546C136.605 147.782 135.33 147.272 134.02 147.09L137.37 149.855C137.588 149.892 137.807 149.783 137.952 149.564Z" fill="#050522"/>
<path d="M124.08 159.387C124.189 159.678 124.481 159.86 124.772 159.86C124.845 159.86 124.954 159.86 125.027 159.824C125.391 159.678 125.61 159.278 125.464 158.878C125.464 158.842 125.427 158.769 125.427 158.733L123.57 156.95C123.57 157.75 123.752 158.587 124.08 159.387Z" fill="#050522"/>
<path d="M186.641 1.74615C186.677 1.74615 186.713 1.78253 186.713 1.78253C186.677 1.74615 186.641 1.74615 186.641 1.74615C186.641 1.70977 186.641 1.74615 186.641 1.74615Z" fill="#050522"/>
<path d="M186.965 1.81897C187.038 1.81897 187.074 1.81897 187.147 1.78259C187.074 1.78259 187.001 1.81897 186.965 1.81897Z" fill="#050522"/>
<path d="M150.223 214.687C149.822 214.687 149.494 214.36 149.494 213.96V212.905C148.766 212.686 148.001 212.577 147.237 212.577C142.903 212.577 139.371 216.106 139.371 220.436C139.371 221.309 139.517 222.182 139.808 222.982C140.063 222.91 140.318 222.837 140.573 222.764C140.973 222.655 141.374 222.873 141.483 223.237C141.592 223.637 141.374 224.037 141.01 224.146C140.828 224.219 140.609 224.256 140.427 224.328C141.811 226.766 144.433 228.294 147.237 228.294C151.57 228.294 155.102 224.765 155.102 220.436C155.102 217.525 153.5 214.869 150.951 213.523V213.96C150.951 214.36 150.623 214.687 150.223 214.687ZM153.646 220.436C153.646 223.965 150.769 226.839 147.237 226.839C144.76 226.839 142.503 225.383 141.447 223.164C141.046 222.327 140.828 221.418 140.828 220.436C140.828 216.907 143.704 214.032 147.237 214.032C148.183 214.032 149.057 214.214 149.895 214.615C152.189 215.67 153.646 217.925 153.646 220.436Z" fill="#050522"/>
<path d="M158.854 24.1572V25.4306L169.451 31.5427L165.7 33.6892L166.064 33.9075C166.428 34.1258 166.538 34.5624 166.319 34.8898C166.173 35.1081 165.955 35.2536 165.7 35.2536C165.591 35.2536 165.445 35.2172 165.336 35.1445L164.243 34.526L138.098 49.5879C138.207 49.5152 138.353 49.4788 138.462 49.4788C138.862 49.4788 139.19 49.8062 139.19 50.2064V51.4798L151.171 58.3923V57.9557C151.171 57.5555 151.498 57.228 151.899 57.228C152.299 57.228 152.627 57.5555 152.627 57.9557V58.3923L183.616 40.5289V39.2556C183.616 38.9645 183.762 38.7462 184.017 38.6007C184.017 38.6007 184.017 38.6007 183.98 38.6007L151.899 57.1553L139.918 50.2428L171.272 32.1612C171.49 32.0156 171.636 31.7974 171.636 31.5427C171.636 31.288 171.49 31.0333 171.272 30.9242L160.711 24.8121L198.619 23.6115L196.543 45.4768L184.745 38.6735C184.745 38.6735 184.745 38.6735 184.709 38.6735C184.927 38.7826 185.109 39.0373 185.109 39.3283V40.6017L196.434 47.1504V46.7138C196.434 46.35 196.725 46.0225 197.09 45.9862L198.728 28.8505V22.8475C198.728 22.4473 199.056 22.1199 199.457 22.1199L158.089 23.4296C158.089 23.4296 158.089 23.4296 158.053 23.4296H158.089C158.526 23.4296 158.854 23.757 158.854 24.1572Z" fill="#050522"/>
<path d="M151.171 63.995V62.7217L139.191 55.8092V51.4798L138.099 50.8613C137.88 50.7158 137.734 50.4975 137.734 50.2428V56.2457C137.734 56.5004 137.88 56.7551 138.099 56.8642L151.536 64.6135C151.536 64.6135 151.536 64.6135 151.572 64.6135C151.354 64.5044 151.171 64.2497 151.171 63.995Z" fill="#050522"/>
<path d="M196.398 52.644V51.3707L185.073 44.822V45.2586C185.073 45.6588 184.745 45.9862 184.344 45.9862C183.944 45.9862 183.616 45.6588 183.616 45.2586V44.822L152.627 62.7217V63.9951C152.627 64.2861 152.481 64.5044 152.227 64.65C152.227 64.65 152.227 64.65 152.263 64.65L184.344 46.1681L196.762 53.3353H196.798C196.543 53.1534 196.398 52.9351 196.398 52.644Z" fill="#050522"/>
<path d="M199.531 22.1199C199.64 22.1563 199.713 22.1926 199.823 22.229C199.713 22.1926 199.64 22.1563 199.531 22.1199Z" fill="#050522"/>
<path d="M197.852 46.6774V52.644C197.852 52.6804 197.852 52.7168 197.852 52.7532V52.7168L200.109 28.9233C200.109 28.8869 200.109 28.8869 200.109 28.8505V22.8475V22.8112C200.109 22.8475 200.109 22.8839 200.109 22.9203L197.852 46.6774Z" fill="#050522"/>
<path d="M138.099 50.8613L139.191 51.4797V50.2064C139.191 49.8062 138.863 49.4788 138.463 49.4788C138.317 49.4788 138.208 49.5151 138.099 49.5879C138.062 49.6243 137.989 49.6607 137.953 49.6971C137.916 49.7334 137.88 49.7698 137.844 49.8426C137.844 49.8426 137.844 49.879 137.807 49.879C137.771 49.9153 137.771 49.9517 137.771 49.9881V50.0245C137.771 50.0972 137.734 50.1336 137.734 50.2064C137.734 50.4974 137.88 50.7157 138.099 50.8613Z" fill="#050522"/>
<path d="M198.658 22.8475V28.8141L197.02 45.9498C197.056 45.9498 197.092 45.9498 197.092 45.9498C197.493 45.9498 197.821 46.2772 197.821 46.6774V46.7138L200.078 22.9566C200.078 22.9202 200.078 22.8839 200.078 22.8475C200.078 22.8111 200.078 22.8111 200.078 22.7747C200.078 22.7383 200.078 22.7383 200.042 22.702C200.042 22.6656 200.042 22.6656 200.006 22.6292C200.006 22.5928 199.969 22.5928 199.969 22.5564C199.969 22.5564 199.969 22.5201 199.933 22.5201C199.933 22.4837 199.896 22.4837 199.86 22.4473L199.823 22.4109C199.787 22.3745 199.751 22.3381 199.714 22.3381C199.641 22.2654 199.532 22.229 199.423 22.229H199.386C199.35 22.229 199.314 22.229 199.277 22.229C198.986 22.1199 198.658 22.4473 198.658 22.8475Z" fill="#050522"/>
<path d="M151.9 63.1583L152.628 62.7217V58.3923L152.264 58.6106C152.155 58.6834 152.009 58.7198 151.9 58.7198C151.791 58.7198 151.645 58.6834 151.536 58.6106L151.172 58.3923V62.7217L151.9 63.1583Z" fill="#050522"/>
<path d="M151.9 58.7198C152.009 58.7198 152.155 58.6834 152.264 58.6106L152.628 58.3924V57.9558C152.628 57.5556 152.301 57.2281 151.9 57.2281C151.5 57.2281 151.172 57.5556 151.172 57.9558V58.3924L151.536 58.6106C151.645 58.6834 151.791 58.7198 151.9 58.7198Z" fill="#050522"/>
<path d="M152.628 63.995V62.7217L151.9 63.1583L151.172 62.7217V63.995C151.172 64.2861 151.318 64.5044 151.572 64.6499C151.609 64.6863 151.645 64.6863 151.682 64.6863H151.718C151.791 64.6863 151.827 64.7227 151.9 64.7227C151.973 64.7227 152.009 64.7227 152.082 64.6863H152.119C152.155 64.6863 152.191 64.6499 152.228 64.6499C152.483 64.5044 152.628 64.2497 152.628 63.995Z" fill="#050522"/>
<path d="M183.981 44.6401C184.2 44.4946 184.491 44.4946 184.71 44.6401L185.074 44.8584V40.529L184.345 40.0924L183.617 40.529V44.8584L183.981 44.6401Z" fill="#050522"/>
<path d="M185.074 40.5289V39.2556C185.074 38.9645 184.928 38.7462 184.673 38.6007C184.637 38.5643 184.6 38.5643 184.564 38.5643H184.528C184.455 38.5643 184.418 38.528 184.345 38.528C184.273 38.528 184.236 38.528 184.163 38.5643H184.127C184.091 38.5643 184.054 38.6007 184.018 38.6007C183.799 38.7099 183.617 38.9645 183.617 39.2556V40.5289L184.345 40.0924L185.074 40.5289Z" fill="#050522"/>
<path d="M183.981 44.6401L183.617 44.8584V45.295C183.617 45.6952 183.945 46.0226 184.345 46.0226C184.746 46.0226 185.074 45.6952 185.074 45.295V44.8584L184.71 44.6401C184.491 44.5309 184.2 44.5309 183.981 44.6401Z" fill="#050522"/>
<path d="M157.763 30.7787L164.244 34.526L165.701 33.6892L158.855 29.7236V25.3942L157.763 24.7757C157.471 24.6302 157.362 24.3028 157.435 23.9753C157.435 24.0117 157.398 24.0845 157.398 24.1572V30.1602C157.398 30.4149 157.544 30.6695 157.763 30.7787Z" fill="#050522"/>
<path d="M157.762 24.7757L158.855 25.3942V24.1208C158.855 23.7206 158.527 23.3932 158.127 23.3932H158.09C158.017 23.3932 157.945 23.3932 157.908 23.4296H157.872C157.799 23.466 157.762 23.5023 157.69 23.5387C157.69 23.5387 157.653 23.5387 157.653 23.5751C157.617 23.6115 157.544 23.6842 157.508 23.7206C157.471 23.7934 157.435 23.8298 157.435 23.9025V23.9389C157.325 24.3027 157.471 24.6302 157.762 24.7757Z" fill="#050522"/>
<path d="M165.703 35.2537C165.958 35.2537 166.213 35.1082 166.322 34.8899C166.54 34.5261 166.395 34.0895 166.067 33.9076L165.703 33.6893L164.246 34.5261L165.339 35.1446C165.448 35.2174 165.593 35.2537 165.703 35.2537Z" fill="#050522"/>
<path d="M196.508 51.4434L196.908 47.3323C196.872 47.3323 196.799 47.2959 196.763 47.2595L196.398 47.0413V51.3707L196.508 51.4434Z" fill="#050522"/>
<path d="M196.908 47.3323L197.054 45.9135C196.69 45.9498 196.398 46.2773 196.398 46.6411V47.0777L196.763 47.296C196.799 47.296 196.872 47.3323 196.908 47.3323Z" fill="#050522"/>
<path d="M197.855 46.6774C197.819 46.9684 197.673 47.1867 197.454 47.2959C197.272 47.3686 197.09 47.405 196.908 47.3322L196.508 51.4433L196.398 51.3706V52.6439C196.398 52.935 196.544 53.1533 196.799 53.2988C196.835 53.3352 196.872 53.3352 196.908 53.3352H196.945C196.981 53.3352 197.017 53.3352 197.054 53.3716H197.09C197.163 53.3716 197.2 53.3716 197.272 53.3716H197.309C197.345 53.3716 197.382 53.3352 197.418 53.3352C197.418 53.3352 197.454 53.3352 197.454 53.2988C197.491 53.2624 197.527 53.2624 197.564 53.226L197.6 53.1897C197.637 53.1533 197.673 53.1169 197.709 53.0805C197.746 53.0441 197.746 52.9714 197.782 52.935V52.8986C197.782 52.8622 197.819 52.8258 197.819 52.7895C197.819 52.7531 197.819 52.7167 197.819 52.6803V46.6774H197.855Z" fill="#050522"/>
<path d="M197.452 47.2959C197.671 47.1868 197.817 46.9685 197.853 46.7138V46.6775V46.6411C197.853 46.2409 197.525 45.9135 197.125 45.9135C197.088 45.9135 197.052 45.9135 197.052 45.9135L196.906 47.3323C197.088 47.4051 197.27 47.3687 197.452 47.2959Z" fill="#050522"/>
<path d="M151.607 78.9843C149.895 78.002 147.274 78.002 145.562 78.9843C144.615 79.53 144.105 80.294 144.105 81.1308C144.105 80.7306 144.433 80.4032 144.834 80.4032C145.234 80.4032 145.562 80.7306 145.562 81.1308C145.562 80.8398 145.817 80.5123 146.29 80.2213C146.909 79.8574 147.747 79.6755 148.584 79.6755C149.422 79.6755 150.26 79.8574 150.879 80.2213C151.352 80.4759 151.607 80.8398 151.607 81.1308C151.607 80.7306 151.935 80.4032 152.335 80.4032C152.736 80.4032 153.064 80.7306 153.064 81.1308C153.1 80.294 152.554 79.53 151.607 78.9843Z" fill="#050522"/>
<path d="M145.598 83.3136C146.435 83.7866 147.528 84.0413 148.62 84.0413C149.713 84.0413 150.805 83.7866 151.642 83.3136V81.1307C151.642 81.4218 151.388 81.7492 150.914 82.0403C149.676 82.7679 147.564 82.7679 146.326 82.0403C145.853 81.7856 145.598 81.4582 145.598 81.1307V83.3136Z" fill="#050522"/>
<path d="M151.646 83.3136V104.124C151.646 104.415 151.391 104.742 150.918 105.033C149.68 105.761 147.568 105.761 146.329 105.033C145.856 104.779 145.601 104.451 145.601 104.124V83.3136C144.654 82.7679 144.145 82.0039 144.145 81.1671V104.16C144.145 104.997 144.654 105.761 145.601 106.307C146.439 106.78 147.531 107.034 148.624 107.034C149.716 107.034 150.808 106.78 151.646 106.307C152.593 105.761 153.103 104.997 153.103 104.16V81.1307C153.103 82.0039 152.556 82.7679 151.646 83.3136Z" fill="#050522"/>
<path d="M145.562 83.3136V81.1307C145.562 80.7305 145.234 80.4031 144.834 80.4031C144.433 80.4031 144.105 80.7305 144.105 81.1307C144.105 82.0039 144.652 82.7679 145.562 83.3136Z" fill="#050522"/>
<path d="M152.369 80.4031C151.968 80.4031 151.641 80.7305 151.641 81.1307V83.2772C152.587 82.7315 153.097 81.9675 153.097 81.1307C153.097 80.7305 152.769 80.4031 152.369 80.4031Z" fill="#050522"/>
<path d="M72.2608 192.495C72.6614 192.495 72.9891 192.822 72.9891 193.222C72.9891 192.677 73.4261 192.131 74.1544 191.694C75.0647 191.185 76.3028 190.894 77.5045 190.894C78.7426 190.894 79.9443 191.149 80.8547 191.694C81.6194 192.131 82.02 192.677 82.02 193.222C82.02 192.822 82.3477 192.495 82.7483 192.495C83.1488 192.495 83.4766 192.822 83.4766 193.222C83.4766 192.131 82.7847 191.149 81.583 190.457C79.2889 189.148 75.6838 189.148 73.3897 190.457C72.1516 191.149 71.4961 192.167 71.4961 193.222C71.5325 192.822 71.8602 192.495 72.2608 192.495Z" fill="#050522"/>
<path d="M80.8903 194.75C79.0696 195.805 75.9743 195.805 74.1536 194.75C73.3888 194.314 72.9883 193.768 72.9883 193.222V195.696C73.1339 195.805 73.2796 195.878 73.4253 195.987C74.5905 196.642 76.0471 196.969 77.5037 196.969C78.9603 196.969 80.4533 196.642 81.5822 195.987C81.7278 195.878 81.9099 195.805 82.0192 195.696V193.222C82.092 193.768 81.655 194.314 80.8903 194.75Z" fill="#050522"/>
<path d="M83.5508 210.976V193.222C83.5508 194.168 83.041 195.041 82.0942 195.696V210.976C82.0942 211.522 81.6572 212.068 80.9289 212.504C79.1082 213.559 76.0129 213.559 74.1922 212.504L74.1193 212.468C73.4275 212.031 73.0269 211.522 73.0269 211.013V195.733C72.0801 195.041 71.5703 194.204 71.5703 193.259V211.013C71.5703 211.74 71.8616 212.395 72.4443 212.977L73.3546 212.432C73.7188 212.213 74.1558 212.359 74.3378 212.686C74.5563 213.05 74.4107 213.487 74.0829 213.669L73.7188 213.887C74.8112 214.469 76.195 214.76 77.5423 214.76C78.9989 214.76 80.4919 214.433 81.6208 213.778C82.8589 213.05 83.5508 212.068 83.5508 210.976Z" fill="#050522"/>
<path d="M82.8181 192.495C82.4176 192.495 82.0898 192.822 82.0898 193.222V195.696C83.0366 195.005 83.5464 194.132 83.5464 193.222C83.5464 192.822 83.2187 192.495 82.8181 192.495Z" fill="#050522"/>
<path d="M72.9878 195.733V193.259C72.9878 192.858 72.6601 192.531 72.2595 192.531C71.859 192.531 71.5312 192.858 71.5312 193.259C71.5312 194.168 72.0411 195.041 72.9878 195.733Z" fill="#050522"/>
<path d="M194.538 72.0718C194.138 72.0718 193.81 72.3992 193.81 72.7994V77.5654L189.695 79.9302C189.331 80.1485 189.222 80.585 189.44 80.9125C189.586 81.1308 189.804 81.2763 190.059 81.2763C190.169 81.2763 190.314 81.2399 190.423 81.1671L194.538 78.8024L194.174 78.5841C193.81 78.3658 193.701 77.9292 193.919 77.6018C194.138 77.2379 194.575 77.1288 194.902 77.3471L195.267 77.5654V72.7994C195.267 72.3992 194.939 72.0718 194.538 72.0718Z" fill="#050522"/>
<path d="M194.903 78.6204L194.539 78.8387L198.654 81.2035C198.763 81.2762 198.909 81.3126 199.018 81.3126C199.273 81.3126 199.528 81.1671 199.637 80.9488C199.856 80.585 199.71 80.1484 199.382 79.9665L195.267 77.6017V78.0383C195.267 78.2566 195.122 78.5112 194.903 78.6204Z" fill="#050522"/>
<path d="M193.885 77.6381C193.667 78.0019 193.812 78.4385 194.14 78.6204L194.504 78.8387L194.868 78.6204C195.087 78.4749 195.232 78.2566 195.232 78.0019V77.5653L194.868 77.347C194.541 77.1651 194.104 77.2743 193.885 77.6381Z" fill="#050522"/>
<path d="M72.0429 161.352V156.659C72.0065 156.55 72.0065 156.404 72.0429 156.259" fill="#050522"/>
<path d="M72.0429 156.695V156.295C72.0065 156.441 72.0065 156.55 72.0429 156.695Z" fill="#050522"/>
<path d="M55.1814 140.178C55.327 140.178 55.5091 140.142 55.6183 140.032C55.9461 139.778 55.9825 139.341 55.764 139.014C55.7276 138.941 55.6548 138.905 55.6183 138.832C55.5455 138.795 55.4727 138.795 55.3634 138.759C54.708 138.577 54.0161 138.395 53.3242 138.25C53.7248 138.795 54.1618 139.378 54.5623 139.923C54.7444 140.069 54.9629 140.178 55.1814 140.178Z" fill="#050522"/>
<path d="M73.4985 157.896C73.4257 157.859 73.3528 157.823 73.3164 157.75L73.4985 157.896Z" fill="#050522"/>
<path d="M73.4609 156.113V155.677C73.4974 155.822 73.4609 155.968 73.4609 156.113Z" fill="#050522"/>
<path d="M73.4594 156.113C73.423 156.659 73.3866 157.204 73.2773 157.75C73.3502 157.787 73.423 157.823 73.4594 157.896V156.113Z" fill="#050522"/>
<path d="M74.2998 212.686C74.0813 212.323 73.6444 212.213 73.3166 212.432L72.4062 212.977C72.6612 213.232 72.9525 213.487 73.3166 213.705C73.353 213.741 73.3895 213.741 73.4259 213.778C73.4987 213.814 73.6079 213.851 73.6808 213.923L74.0449 213.705C74.4091 213.487 74.5183 213.05 74.2998 212.686Z" fill="#050522"/>
<path d="M114.248 177.578C114.648 177.578 114.976 177.906 114.976 178.306C114.976 175.796 116.724 173.431 119.892 171.612C123.024 169.793 127.139 168.774 131.581 168.665V167.937C131.581 167.61 131.836 167.319 132.127 167.246L132.091 167.209C127.211 167.246 122.623 168.337 119.164 170.338C115.522 172.412 113.52 175.25 113.52 178.306C113.52 177.906 113.847 177.578 114.248 177.578Z" fill="#050522"/>
<path d="M134.457 168.483C134.165 168.774 133.728 168.774 133.437 168.519L133 168.119V168.701C133.291 168.701 133.583 168.701 133.91 168.737C135.877 168.847 137.77 169.138 139.555 169.611L140.392 168.737C140.684 168.446 141.12 168.446 141.412 168.701C141.703 168.992 141.703 169.429 141.448 169.72L141.12 170.047C142.395 170.484 143.56 170.993 144.58 171.575C147.748 173.394 149.496 175.759 149.496 178.269C149.496 177.869 149.824 177.542 150.224 177.542C150.625 177.542 150.952 177.869 150.952 178.269C150.952 175.213 148.95 172.412 145.308 170.302C144.034 169.574 142.65 168.956 141.12 168.483C138.972 167.792 136.678 167.391 134.238 167.246L134.42 167.428C134.748 167.719 134.748 168.192 134.457 168.483Z" fill="#050522"/>
<path d="M144.945 184.782L145.309 185C145.674 185.218 145.783 185.655 145.564 185.982C145.492 186.091 145.419 186.201 145.309 186.237C146.766 185.4 148.004 184.418 148.915 183.326L148.332 182.781C148.041 182.49 148.041 182.053 148.295 181.762C148.587 181.471 149.024 181.471 149.315 181.726L149.461 181.871V178.269C149.461 179.506 149.06 180.707 148.223 181.835C147.494 182.926 146.365 183.945 144.945 184.782Z" fill="#050522"/>
<path d="M119.16 186.273C122.765 188.347 127.499 189.402 132.233 189.402C136.967 189.402 141.701 188.347 145.306 186.273C145.197 186.346 145.088 186.383 144.942 186.383C144.833 186.383 144.687 186.346 144.578 186.273L143.449 185.619C136.603 188.929 126.334 188.747 119.889 185C116.721 183.181 114.973 180.78 114.973 178.306V182.635C115.919 183.981 117.34 185.218 119.16 186.273Z" fill="#050522"/>
<path d="M132.272 167.209C132.199 167.209 132.126 167.209 132.09 167.209L132.126 167.246C132.163 167.209 132.236 167.209 132.272 167.209Z" fill="#050522"/>
<path d="M132.999 167.937V168.083L133.436 168.483C133.727 168.774 134.201 168.738 134.456 168.446C134.747 168.155 134.711 167.682 134.419 167.428L134.237 167.246C134.128 167.246 134.055 167.246 133.946 167.209C133.327 167.173 132.781 167.173 132.234 167.173C132.671 167.209 132.999 167.537 132.999 167.937Z" fill="#050522"/>
<path d="M149.35 181.762C149.058 181.471 148.585 181.507 148.33 181.798C148.039 182.089 148.075 182.562 148.366 182.817L148.949 183.363C149.131 183.144 149.313 182.926 149.459 182.708C149.495 182.672 149.495 182.635 149.532 182.635V181.908L149.35 181.762Z" fill="#050522"/>
<path d="M149.789 182.199L150.954 183.327V178.342C150.954 179.652 150.554 180.962 149.789 182.199Z" fill="#050522"/>
<path d="M149.5 212.905C149.864 213.014 150.192 213.123 150.52 213.305C150.665 213.378 150.811 213.45 150.957 213.523V185.328L149.5 183.945V212.905Z" fill="#050522"/>
<path d="M149.791 182.198C149.682 182.344 149.609 182.49 149.5 182.635V183.945L150.957 185.327V183.326L149.791 182.198Z" fill="#050522"/>
<path d="M149.5 212.905V213.96C149.5 214.36 149.828 214.687 150.228 214.687C150.629 214.687 150.957 214.36 150.957 213.96V213.523C150.811 213.45 150.665 213.378 150.52 213.305C150.192 213.159 149.864 213.014 149.5 212.905Z" fill="#050522"/>
<path d="M150.228 177.578C149.828 177.578 149.5 177.906 149.5 178.306V181.908L149.791 182.199C150.556 180.962 150.957 179.652 150.957 178.306C150.957 177.906 150.629 177.578 150.228 177.578Z" fill="#050522"/>
<path d="M149.5 182.635C149.609 182.49 149.718 182.344 149.791 182.199L149.5 181.908V182.635Z" fill="#050522"/>
<path d="M139.812 222.982C133.185 224.802 125.101 224.037 119.857 221.054C116.689 219.235 114.941 216.834 114.941 214.36V182.635C113.994 181.289 113.484 179.798 113.484 178.306V214.324C113.484 217.38 115.487 220.181 119.129 222.291C122.734 224.365 127.431 225.456 132.202 225.456C134.969 225.456 137.809 225.093 140.431 224.329C140.322 224.147 140.213 223.965 140.14 223.783C140.031 223.492 139.922 223.237 139.812 222.982Z" fill="#050522"/>
<path d="M141.484 223.237C141.374 222.837 140.937 222.655 140.573 222.764C140.318 222.837 140.064 222.91 139.809 222.982C139.918 223.237 139.991 223.528 140.136 223.783C140.209 223.965 140.318 224.146 140.428 224.328C140.61 224.256 140.828 224.219 141.01 224.146C141.411 224.037 141.593 223.637 141.484 223.237Z" fill="#050522"/>
<path d="M114.976 178.306C114.976 177.906 114.648 177.578 114.248 177.578C113.847 177.578 113.52 177.906 113.52 178.306C113.52 179.834 114.029 181.289 114.976 182.635V178.306Z" fill="#050522"/>
<path d="M131.508 178.306C131.508 178.124 131.581 177.942 131.69 177.797L132.964 176.487L133.001 168.665C132.746 168.665 132.491 168.665 132.236 168.665C132.018 168.665 131.763 168.665 131.544 168.665L131.508 178.306Z" fill="#050522"/>
<path d="M144.58 185C144.689 184.927 144.835 184.854 144.944 184.782L133.401 178.124L132.745 178.779C132.599 178.924 132.417 178.997 132.235 178.997C132.09 178.997 131.98 178.961 131.871 178.888L143.451 185.582C143.852 185.4 144.216 185.218 144.58 185Z" fill="#050522"/>
<path d="M145.6 185.982C145.819 185.618 145.673 185.182 145.345 185L144.981 184.782C144.872 184.854 144.763 184.927 144.617 185C144.253 185.218 143.852 185.4 143.488 185.618L144.617 186.273C144.726 186.346 144.872 186.382 144.981 186.382C145.091 186.382 145.236 186.346 145.345 186.273C145.418 186.201 145.528 186.128 145.6 185.982Z" fill="#050522"/>
<path d="M132.996 168.665V168.083L132.085 167.209C131.758 167.282 131.539 167.573 131.539 167.901V168.628C131.758 168.628 132.012 168.628 132.231 168.628C132.486 168.665 132.741 168.665 132.996 168.665Z" fill="#050522"/>
<path d="M133 168.083V167.937C133 167.537 132.672 167.209 132.272 167.209C132.199 167.209 132.163 167.209 132.09 167.246L133 168.083Z" fill="#050522"/>
<path d="M131.723 178.815C131.759 178.852 131.795 178.888 131.868 178.924C131.795 178.888 131.759 178.852 131.723 178.815Z" fill="#050522"/>
<path d="M132.965 177.869L133.402 178.124L141.122 170.047C140.976 170.011 140.83 169.938 140.685 169.902C140.321 169.793 139.92 169.683 139.556 169.574L132.965 176.487V177.869Z" fill="#050522"/>
<path d="M141.121 170.047L141.448 169.72C141.74 169.429 141.703 168.956 141.412 168.701C141.121 168.41 140.647 168.446 140.392 168.737L139.555 169.611C139.955 169.72 140.319 169.829 140.684 169.938C140.829 169.938 140.975 170.011 141.121 170.047Z" fill="#050522"/>
<path d="M132.747 178.815L133.403 178.16L132.966 177.906V176.487L131.691 177.796C131.546 177.942 131.473 178.124 131.509 178.306C131.509 178.379 131.509 178.415 131.546 178.488V178.524C131.546 178.56 131.582 178.597 131.582 178.633C131.582 178.633 131.582 178.67 131.619 178.67C131.655 178.706 131.655 178.742 131.691 178.779C131.691 178.779 131.691 178.815 131.728 178.815C131.764 178.851 131.801 178.888 131.873 178.924C131.983 178.997 132.128 179.033 132.238 179.033C132.42 179.033 132.638 178.961 132.747 178.815Z" fill="#050522"/>
<path d="M160.64 114.529C161.041 114.529 161.368 114.856 161.368 115.257C161.368 112.419 163.59 109.545 167.45 107.289L179.758 100.195C183.909 97.7935 189.226 96.5565 194.287 96.5565C198.439 96.5565 202.408 97.3933 205.357 99.1032C208.052 100.668 209.545 102.778 209.545 105.07C209.545 104.67 209.873 104.342 210.273 104.342C210.674 104.342 211.002 104.67 211.002 105.07C211.002 102.232 209.254 99.6853 206.086 97.8662C199.167 93.8643 187.041 94.3372 179.066 98.9577L166.758 106.052C162.424 108.562 159.948 111.909 159.948 115.257C159.912 114.856 160.239 114.529 160.64 114.529Z" fill="#050522"/>
<path d="M206.012 111.255C206.048 111.255 206.048 111.291 206.085 111.291L206.121 111.327C206.23 111.4 206.339 111.473 206.449 111.509C206.776 111.728 206.886 112.164 206.704 112.492C206.558 112.71 206.339 112.855 206.085 112.855C205.939 112.855 205.83 112.819 205.72 112.746C205.611 112.674 205.502 112.637 205.393 112.564L205.356 112.528C205.174 112.419 204.956 112.31 204.737 112.201C204.337 112.492 203.9 112.746 203.463 113.001L191.154 120.095C191.118 120.132 191.082 120.132 191.045 120.168V121.223C191.045 121.623 190.718 121.951 190.317 121.951C189.916 121.951 189.589 121.623 189.589 121.223V120.932C182.051 124.534 171.6 124.679 165.555 121.223C165.446 121.15 165.336 121.078 165.227 121.041V121.26C165.227 121.66 164.899 121.987 164.499 121.987C164.098 121.987 163.771 121.66 163.771 121.26V119.986C162.205 118.64 161.367 117.003 161.367 115.293V119.55C162.023 120.459 162.933 121.296 163.989 122.024C164.244 122.206 164.535 122.351 164.827 122.533C167.995 124.352 172.219 125.298 176.625 125.298C181.432 125.298 186.457 124.206 190.681 122.096C191.045 121.914 191.446 121.696 191.846 121.478L204.155 114.383C205.029 113.874 205.793 113.365 206.485 112.819C207.76 111.837 208.743 110.782 209.508 109.654V105.179C209.544 107.18 208.306 109.363 206.012 111.255Z" fill="#050522"/>
<path d="M186.165 119.077C181.322 121.878 173.456 121.878 168.65 119.077C166.537 117.84 165.299 116.239 165.227 114.602V118.167C165.918 118.967 166.792 119.695 167.921 120.35C170.543 121.842 173.966 122.606 177.426 122.606C180.885 122.606 184.308 121.842 186.93 120.35C188.022 119.695 188.933 118.967 189.624 118.167V114.602C189.515 116.239 188.314 117.84 186.165 119.077Z" fill="#050522"/>
<path d="M164.498 113.547C164.898 113.547 165.226 113.874 165.226 114.274C165.299 112.601 166.501 111 168.649 109.763C173.492 106.962 181.358 106.962 186.165 109.763C186.565 110.018 186.929 110.236 187.257 110.491C188.786 111.655 189.624 113.11 189.551 114.529V114.383C189.551 113.983 189.879 113.656 190.279 113.656C190.644 113.656 190.971 113.947 191.008 114.311C190.971 112.928 190.389 111.582 189.296 110.381C188.823 110.454 188.35 110.527 187.84 110.636C187.439 110.709 187.075 110.454 186.966 110.054C186.893 109.654 187.148 109.29 187.548 109.181C187.658 109.144 187.767 109.144 187.876 109.108C187.585 108.89 187.257 108.672 186.893 108.453C181.649 105.434 173.128 105.434 167.921 108.453C165.335 109.945 163.842 111.982 163.77 114.201C163.77 114.201 163.77 114.201 163.77 114.238C163.77 113.874 164.097 113.547 164.498 113.547Z" fill="#050522"/>
<path d="M211.003 114.856V105.033C211.003 106.525 210.493 108.053 209.546 109.508V114.856C209.546 117.694 207.325 120.568 203.465 122.824L191.157 129.918C183.582 134.284 172.112 134.757 165.594 131.01C162.899 129.445 161.406 127.335 161.406 125.043V119.477C160.459 118.167 159.949 116.748 159.949 115.22V125.043C159.949 127.881 161.697 130.428 164.865 132.247C167.997 134.066 172.221 134.939 176.664 134.939C181.98 134.939 187.552 133.666 191.921 131.155L204.23 124.061C208.527 121.587 211.003 118.24 211.003 114.856Z" fill="#050522"/>
<path d="M161.367 115.257C161.367 114.856 161.039 114.529 160.638 114.529C160.238 114.529 159.91 114.856 159.91 115.257C159.91 116.748 160.42 118.204 161.367 119.513V115.257Z" fill="#050522"/>
<path d="M210.271 104.342C209.871 104.342 209.543 104.67 209.543 105.07V109.545C210.49 108.089 211 106.598 211 105.07C211 104.67 210.672 104.342 210.271 104.342Z" fill="#050522"/>
<path d="M187.914 109.181C187.987 109.254 188.096 109.326 188.169 109.363C188.606 109.69 188.97 110.054 189.298 110.381C195.015 109.472 200.732 110.163 204.701 112.201C205.029 111.982 205.32 111.764 205.612 111.546C205.757 111.436 205.867 111.327 206.012 111.218C201.497 108.672 194.578 107.871 187.914 109.181Z" fill="#050522"/>
<path d="M204.734 112.2C204.953 112.31 205.135 112.419 205.353 112.528L205.39 112.564C205.499 112.637 205.608 112.673 205.718 112.746C205.827 112.819 205.972 112.855 206.082 112.855C206.337 112.855 206.555 112.746 206.701 112.491C206.919 112.164 206.81 111.691 206.446 111.509C206.337 111.436 206.227 111.364 206.118 111.327L206.082 111.291C206.045 111.291 206.045 111.255 206.009 111.255C205.9 111.364 205.754 111.473 205.608 111.582C205.353 111.764 205.062 111.982 204.734 112.2Z" fill="#050522"/>
<path d="M187.005 110.09C187.077 110.491 187.478 110.745 187.878 110.673C188.352 110.563 188.825 110.491 189.335 110.418C189.007 110.054 188.607 109.727 188.206 109.399C188.133 109.326 188.024 109.254 187.951 109.217C187.842 109.254 187.733 109.254 187.624 109.29C187.187 109.326 186.932 109.69 187.005 110.09Z" fill="#050522"/>
<path d="M180.922 112.019V112.056C180.96 112.056 180.922 112.019 180.922 112.019Z" fill="#050522"/>
<path d="M172.107 117.84C172.217 117.84 172.362 117.803 172.472 117.731L179.572 113.619V113.074H177.57L171.707 116.457C171.343 116.676 171.233 117.112 171.452 117.44C171.598 117.731 171.853 117.84 172.107 117.84Z" fill="#050522"/>
<path d="M180.339 111.655C180.303 111.655 180.303 111.655 180.339 111.655H173.056C172.656 111.655 172.328 111.982 172.328 112.382C172.328 112.783 172.656 113.11 173.056 113.11H177.608L179.975 111.764C180.048 111.691 180.194 111.655 180.339 111.655Z" fill="#050522"/>
<path d="M180.667 113.001L179.574 113.619V116.53C179.574 116.93 179.902 117.258 180.303 117.258C180.703 117.258 181.031 116.93 181.031 116.53V112.346V112.31C181.031 112.601 180.922 112.892 180.667 113.001Z" fill="#050522"/>
<path d="M179.578 113.656L180.671 113.037C180.926 112.892 181.035 112.637 181.035 112.383C181.035 112.346 181.035 112.346 181.035 112.31C181.035 112.273 181.035 112.273 181.035 112.237C181.035 112.201 181.035 112.201 180.998 112.164C180.998 112.128 180.962 112.128 180.962 112.091C180.962 112.055 180.926 112.055 180.926 112.019C180.926 111.982 180.889 111.982 180.889 111.946L180.853 111.91L180.816 111.873C180.816 111.873 180.78 111.837 180.744 111.837C180.707 111.837 180.707 111.8 180.671 111.8C180.634 111.8 180.634 111.764 180.598 111.764C180.561 111.764 180.561 111.764 180.525 111.728C180.489 111.728 180.489 111.728 180.452 111.691C180.416 111.691 180.416 111.691 180.379 111.691C180.343 111.691 180.343 111.691 180.307 111.691C180.161 111.691 180.052 111.728 179.906 111.8L177.539 113.147H179.542V113.656H179.578Z" fill="#050522"/>
<path d="M191.046 114.638C191.01 115.875 190.5 117.076 189.59 118.131V120.932C189.736 120.859 189.918 120.787 190.063 120.714C190.391 120.568 190.719 120.386 191.046 120.168V114.493C191.046 114.529 191.046 114.602 191.046 114.638Z" fill="#050522"/>
<path d="M189.59 120.932V121.223C189.59 121.623 189.918 121.951 190.318 121.951C190.719 121.951 191.046 121.623 191.046 121.223V120.168C190.719 120.35 190.391 120.532 190.063 120.714C189.918 120.787 189.736 120.859 189.59 120.932Z" fill="#050522"/>
<path d="M190.318 113.656C189.918 113.656 189.59 113.983 189.59 114.383V114.529C189.59 114.529 189.59 114.529 189.59 114.565V118.131C190.5 117.076 191.01 115.875 191.046 114.638C191.046 114.602 191.046 114.529 191.046 114.493V114.42C191.046 114.383 191.046 114.383 191.046 114.347C191.01 113.983 190.719 113.656 190.318 113.656Z" fill="#050522"/>
<path d="M163.77 114.638C163.77 114.529 163.77 114.42 163.77 114.274V119.914C164.097 120.205 164.425 120.459 164.826 120.714C164.971 120.787 165.08 120.896 165.226 120.969V118.094C164.352 117.076 163.842 115.875 163.77 114.638Z" fill="#050522"/>
<path d="M163.77 119.95V121.223C163.77 121.623 164.097 121.951 164.498 121.951C164.898 121.951 165.226 121.623 165.226 121.223V121.005C165.08 120.932 164.971 120.823 164.826 120.75C164.461 120.496 164.097 120.241 163.77 119.95Z" fill="#050522"/>
<path d="M163.77 114.638C163.806 115.875 164.316 117.076 165.226 118.131V114.602C165.226 114.529 165.226 114.42 165.226 114.347C165.226 113.947 164.898 113.619 164.498 113.619C164.097 113.619 163.77 113.947 163.77 114.347C163.77 114.42 163.77 114.529 163.77 114.638Z" fill="#050522"/>
<circle cx="49.3335" cy="157.748" r="32.3335" fill="#5E39F3"/>
<circle cx="9.5" cy="117.147" r="9" stroke="#5E39F3"/>
</svg>
