<svg width="210" height="274" viewBox="0 0 210 274" fill="none" xmlns="http://www.w3.org/2000/svg">
<path d="M176.765 272.907H35.5999C29.6679 272.907 24.8623 268.111 24.8623 262.191V174.816C24.8623 168.896 29.6679 164.1 35.5999 164.1H176.765C182.697 164.1 187.503 168.896 187.503 174.816V262.266C187.503 268.111 182.697 272.907 176.765 272.907Z" fill="#5E39F3"/>
<path d="M91.5402 119.288C91.5402 119.288 92.8167 113.968 93.3423 110.446C93.8679 106.924 94.3935 98.6809 94.3935 98.6809C94.3935 98.6809 87.0349 94.3346 86.3591 84.2931L85.6833 83.4688C85.6833 83.4688 75.3963 87.4404 73.7444 76.9494C72.0924 66.5333 84.1816 67.9571 85.4581 68.9312V63.311C85.4581 63.311 92.9668 61.063 98.1479 56.5668C103.329 52.0706 106.483 45.776 106.483 45.776C106.483 45.776 110.162 53.7942 116.094 57.541C122.026 61.2878 127.657 63.386 127.657 63.386V69.0062C127.657 69.0062 138.545 65.3343 139.521 75.7504C139.521 75.7504 139.972 83.319 134.415 83.8435C128.784 84.3681 127.282 83.5438 127.282 83.5438C127.282 83.5438 125.705 93.2105 118.947 98.6809C118.947 98.6809 119.773 112.244 120.824 115.541C120.824 115.541 122.852 119.363 121.725 121.686C120.599 124.009 115.944 129.704 106.483 129.18C97.0216 128.655 93.5675 124.384 92.8167 123.635C92.1409 122.96 91.5402 119.288 91.5402 119.288Z" fill="white"/>
<path d="M120.517 225.825C121.975 219.663 118.151 213.487 111.976 212.032C105.801 210.577 99.6137 214.393 98.1557 220.556C96.6976 226.718 100.521 232.893 106.696 234.348C112.871 235.803 119.059 231.987 120.517 225.825Z" fill="white"/>
<path d="M130.06 84.293C130.06 84.293 128.333 91.6368 129.76 97.4818C131.187 103.327 135.917 106.099 138.996 108.198C142.074 110.296 146.129 112.694 147.331 117.64C147.331 117.64 134.866 114.942 127.733 114.417C120.524 113.893 120.524 113.893 120.524 113.893L119.022 98.6058C119.022 98.6058 125.931 93.8849 127.357 83.4688L130.06 84.293Z" fill="#050522"/>
<path d="M124.429 36.7088C122.176 34.9852 118.872 33.8612 115.794 33.1868C115.944 33.2617 124.579 37.0834 124.804 46.6003C125.03 56.1921 107.309 45.851 107.309 45.851C107.309 45.851 107.384 46.6003 107.609 47.8742C113.992 59.864 127.808 63.386 127.808 63.386V69.0062L131.037 68.1819C131.037 68.1819 131.637 62.262 132.238 54.6185C132.764 46.975 130.286 41.13 124.429 36.7088Z" fill="black"/>
<path d="M147.331 117.715C146.054 112.769 142.074 110.371 138.996 108.273C135.917 106.175 131.187 103.402 129.76 97.557C128.333 91.712 130.06 84.3683 130.06 84.3683L127.357 83.6189C126.832 87.4406 125.63 90.4381 124.204 92.7611C123.903 94.6345 123.077 102.428 127.357 106.774C129.234 108.648 130.06 111.72 130.361 114.792C137.569 115.542 147.331 117.715 147.331 117.715Z" fill="white"/>
<path d="M93.3423 85.9417C88.0111 85.9417 83.656 80.4714 83.656 73.7271C83.656 66.9829 88.0111 61.5126 93.3423 61.5126C98.6736 61.5126 103.029 66.9829 103.029 73.7271C103.029 75.0011 102.954 75.9752 102.653 77.0243C102.578 77.474 102.128 77.6988 101.677 77.6238C101.227 77.5489 101.001 77.0993 101.076 76.6497C101.302 75.6755 101.377 74.8512 101.377 73.7271C101.377 67.8821 97.6974 63.0862 93.2672 63.0862C88.762 63.0862 85.1578 67.8821 85.1578 73.7271C85.1578 79.5722 88.8371 84.3681 93.2672 84.3681C95.5199 84.3681 97.3971 83.3939 98.8988 81.3706C99.1241 80.9959 99.6497 80.9959 100.025 81.2208C100.401 81.4456 100.401 81.9701 100.175 82.3448C98.4483 84.6678 96.0455 85.9417 93.3423 85.9417Z" fill="black"/>
<path d="M119.848 85.9417C114.517 85.9417 110.162 80.4714 110.162 73.7271C110.162 66.9829 114.517 61.5126 119.848 61.5126C125.18 61.5126 129.535 66.9829 129.535 73.7271C129.535 80.4714 125.18 85.9417 119.848 85.9417ZM119.848 63.1612C115.343 63.1612 111.739 67.9571 111.739 73.8021C111.739 79.6471 115.418 84.443 119.848 84.443C124.354 84.443 127.958 79.6471 127.958 73.8021C127.958 67.8821 124.279 63.1612 119.848 63.1612Z" fill="black"/>
<path d="M110.613 74.5513C110.387 74.5513 110.237 74.4764 110.087 74.3265C108.66 73.0526 107.309 72.3782 106.032 72.5281C104.305 72.6779 103.179 74.0268 103.179 74.0268C102.879 74.4015 102.428 74.4015 102.053 74.1767C101.677 73.8769 101.677 73.4273 101.903 73.0526C101.978 72.9777 103.479 71.1043 105.882 70.9544C107.684 70.8045 109.411 71.5539 111.138 73.2025C111.439 73.5022 111.439 74.0268 111.138 74.3265C110.988 74.4764 110.763 74.5513 110.613 74.5513Z" fill="black"/>
<path d="M176.765 273.732H35.5999C29.2174 273.732 24.0364 268.561 24.0364 262.191V174.816C24.0364 168.446 29.2174 163.351 35.5999 163.351H176.765C183.147 163.351 188.253 168.521 188.253 174.816V262.191C188.329 268.561 183.147 273.732 176.765 273.732ZM35.5999 164.849C30.1185 164.849 25.6132 169.271 25.6132 174.816V262.191C25.6132 267.662 30.0434 272.158 35.5999 272.158H176.765C182.246 272.158 186.752 267.662 186.752 262.191V174.816C186.752 169.346 182.321 164.849 176.765 164.849H35.5999Z" fill="black"/>
<path d="M177.216 273.657C176.765 273.657 176.465 273.282 176.465 272.907C176.465 272.458 176.84 272.158 177.216 272.158C190.957 272.158 200.267 265.938 204.848 253.574C217.763 218.803 189.98 147.464 175.714 135.25C157.317 119.513 142.675 115.991 120.449 114.792C119.999 114.792 119.698 114.417 119.698 113.968C119.698 113.518 120.074 113.219 120.524 113.219C143.126 114.492 157.993 118.014 176.69 134.051C191.182 146.49 219.34 218.803 206.275 254.098C201.469 267.062 191.707 273.657 177.216 273.657Z" fill="black"/>
<path d="M36.0503 273.732C19.6061 273.732 8.64327 266.613 3.38712 252.525C-9.75325 217.155 18.5549 146.79 33.4222 134.051C51.6686 118.389 69.6897 114.492 92.8918 113.219C93.3423 113.219 93.7178 113.518 93.7178 113.968C93.7178 114.417 93.4174 114.792 92.9669 114.792C70.0651 116.066 52.3444 119.963 34.4735 135.25C19.7563 147.839 -8.10131 217.155 4.88888 252C9.84467 265.414 20.357 272.158 36.1254 272.158C36.5759 272.158 36.8763 272.533 36.8763 272.907C36.8763 273.357 36.5008 273.732 36.0503 273.732Z" fill="black"/>
<path d="M81.9291 85.1923C81.7038 85.1923 81.5537 85.1923 81.3284 85.1923C78.9256 85.0424 76.748 83.9933 75.1712 82.1948C73.5943 80.3964 72.7684 78.1483 72.9186 75.7503C73.0687 73.3524 74.12 71.1792 75.9221 69.6056C77.7242 68.0319 80.0519 67.2076 82.3796 67.3575C83.3558 67.4324 84.2568 67.6572 85.1579 67.957C85.5333 68.1068 85.7586 68.5565 85.6084 69.0061C85.4582 69.3808 85.0077 69.6056 84.5572 69.4557C83.8063 69.1559 83.0554 69.0061 82.3045 68.9311C80.3522 68.7813 78.4751 69.4557 76.9733 70.7296C75.4715 72.0035 74.6456 73.802 74.4954 75.8253C74.3452 77.7736 75.021 79.647 76.2975 81.1457C77.574 82.6444 79.3761 83.4687 81.4035 83.6186C82.7551 83.6935 84.1066 83.3938 85.233 82.7943C85.6084 82.5695 86.0589 82.7194 86.2842 83.0941C86.5094 83.4687 86.3593 83.9184 85.9838 84.1432C84.7824 84.8925 83.3558 85.1923 81.9291 85.1923Z" fill="black"/>
<path d="M80.1266 81.2207C79.9013 81.2207 79.6761 81.1458 79.5259 80.921C79.2256 80.5463 79.3006 80.0967 79.6761 79.7969L84.1063 76.3499C84.4066 76.0501 84.9322 76.1251 85.2326 76.4997C85.5329 76.8744 85.4578 77.324 85.0824 77.6238L80.6522 81.0708C80.502 81.1458 80.3519 81.2207 80.1266 81.2207Z" fill="black"/>
<path d="M84.1817 75.9003C84.0315 75.9003 83.8814 75.8253 83.7312 75.7504L79.0757 72.3034C78.7003 72.0785 78.6252 71.554 78.9256 71.1793C79.1508 70.8046 79.6764 70.7297 80.0519 71.0294L84.7073 74.4765C85.0828 74.7013 85.1579 75.2259 84.8575 75.6005C84.7073 75.8253 84.4821 75.9003 84.1817 75.9003Z" fill="black"/>
<path d="M131.487 85.1923C130.06 85.1923 128.634 84.8176 127.357 84.2181C126.982 83.9933 126.832 83.5437 127.057 83.169C127.282 82.7943 127.733 82.6444 128.108 82.8693C129.309 83.4687 130.661 83.7685 131.937 83.6935C133.89 83.5437 135.692 82.7194 137.043 81.2207C138.32 79.7219 138.996 77.8485 138.846 75.9002C138.695 73.9519 137.869 72.1534 136.368 70.8046C134.866 69.5306 133.064 68.8562 131.036 69.0061C130.21 69.081 129.384 69.2309 128.634 69.6056C128.258 69.7554 127.808 69.6056 127.582 69.156C127.432 68.7813 127.582 68.3317 127.958 68.1069C128.859 67.7322 129.91 67.5074 130.886 67.4324C133.289 67.2826 135.542 68.0319 137.344 69.6805C139.146 71.2542 140.197 73.4273 140.347 75.8253C140.497 78.2232 139.747 80.4713 138.095 82.2698C136.518 84.0682 134.34 85.1173 131.937 85.2672C131.862 85.1923 131.637 85.1923 131.487 85.1923Z" fill="black"/>
<path d="M133.289 81.2207C133.138 81.2207 132.913 81.1457 132.838 81.0708L128.258 77.5488C127.882 77.2491 127.882 76.7994 128.108 76.4248C128.408 76.0501 128.858 76.0501 129.234 76.2749L133.814 79.7969C134.19 80.0966 134.19 80.5462 133.964 80.9209C133.739 81.1457 133.514 81.2207 133.289 81.2207Z" fill="black"/>
<path d="M128.934 76.125C128.709 76.125 128.484 76.0501 128.333 75.8253C128.108 75.4506 128.183 75.001 128.484 74.7013L133.439 71.0294C133.815 70.8046 134.265 70.8795 134.566 71.1793C134.791 71.5539 134.716 72.0036 134.415 72.3033L129.46 75.9752C129.234 76.0501 129.084 76.125 128.934 76.125Z" fill="black"/>
<path d="M106.708 102.727C102.803 102.727 97.1715 101.978 92.6663 98.456C89.2122 95.6834 86.9596 91.3371 85.6831 84.9676C85.4578 83.9934 85.3076 82.4947 85.1575 80.4714C85.1575 80.0218 85.4578 79.6471 85.9083 79.6471C86.3589 79.6471 86.7343 79.9468 86.7343 80.3965C86.8845 82.3448 87.0347 83.8435 87.1848 84.7427C88.3862 90.6627 90.4887 94.7842 93.6424 97.2571C97.7722 100.554 103.028 101.229 106.708 101.229C107.158 101.229 107.459 101.603 107.459 101.978C107.459 102.428 107.158 102.727 106.708 102.727Z" fill="black"/>
<path d="M85.6833 68.8561C85.3078 68.8561 84.9324 68.5564 84.9324 68.1068C84.9324 68.0319 84.7822 65.559 84.7822 63.3109C84.7822 62.8613 85.1577 62.5615 85.5331 62.5615C85.9836 62.5615 86.3591 62.9362 86.284 63.3858C86.2089 65.559 86.4342 68.0319 86.4342 68.0319C86.5092 68.4815 86.1338 68.8561 85.6833 68.8561Z" fill="black"/>
<path d="M85.5333 64.1353C85.1579 64.1353 84.8575 63.9104 84.7824 63.5358C84.6322 63.0861 84.9326 62.7115 85.308 62.5616C100.175 58.515 105.807 45.5511 105.882 45.4762C106.032 45.1015 106.483 44.8767 106.933 45.0266C107.309 45.1764 107.534 45.626 107.384 46.0757C107.159 46.6002 101.377 59.789 85.8336 64.0603C85.6835 64.1353 85.6084 64.1353 85.5333 64.1353Z" fill="black"/>
<path d="M106.558 102.727C106.107 102.727 105.807 102.353 105.807 101.978C105.807 101.528 106.182 101.229 106.558 101.229C110.237 101.229 115.493 100.554 119.623 97.257C122.777 94.7841 124.879 90.6626 126.081 84.7427C126.306 83.6936 126.456 82.1199 126.606 79.7969C126.606 79.3473 126.982 78.9726 127.432 79.0476C127.883 79.0476 128.183 79.4222 128.183 79.8719C128.033 82.2698 127.883 83.9184 127.657 85.0424C126.381 91.3371 124.128 95.7583 120.674 98.5309C116.094 101.978 110.537 102.727 106.558 102.727Z" fill="black"/>
<path d="M127.733 68.9311C127.282 68.9311 126.982 68.5564 126.982 68.1068C126.982 66.1585 126.982 64.4349 126.982 63.3858C126.982 62.9362 127.357 62.5615 127.733 62.5615C128.183 62.5615 128.559 62.9362 128.559 63.3109C128.559 64.4349 128.559 66.1585 128.559 68.1068C128.559 68.5564 128.183 68.9311 127.733 68.9311Z" fill="black"/>
<path d="M127.732 64.1354C111.964 59.7891 106.107 46.6753 105.807 46.0758C105.657 45.7011 105.807 45.2515 106.182 45.0267C106.558 44.8768 107.008 45.0267 107.233 45.4014C107.309 45.5512 113.09 58.4402 127.883 62.5617C128.333 62.7116 128.558 63.0863 128.408 63.5359C128.408 63.9106 128.108 64.1354 127.732 64.1354Z" fill="black"/>
<path d="M106.858 130.004C100.551 130.004 94.6938 127.382 92.0658 123.335C90.7142 121.237 90.4138 119.064 91.1647 117.19C93.1921 112.469 93.5675 98.8309 93.5675 98.681C93.5675 98.2314 93.943 97.9316 94.3935 97.9316C94.844 97.9316 95.1444 98.3063 95.1444 98.7559C95.1444 99.3554 94.6938 112.844 92.5914 117.865C91.9907 119.213 92.291 120.862 93.3423 122.511C95.2945 125.508 100.25 128.506 106.858 128.506C113.165 128.506 118.046 126.632 120.149 123.485C121.275 121.761 121.5 119.738 120.749 117.94C118.647 112.994 118.196 99.4304 118.196 98.8309C118.196 98.3813 118.497 98.0066 118.947 98.0066C119.398 98.0066 119.773 98.3063 119.773 98.7559C119.773 98.9058 120.224 112.544 122.176 117.265C123.152 119.513 122.852 122.136 121.425 124.309C120.074 126.407 116.244 130.004 106.858 130.004Z" fill="black"/>
<path d="M130.811 68.182C130.286 68.1071 129.985 67.7324 130.06 67.2828C131.862 55.7426 131.862 49.8976 130.06 44.8769C126.907 35.9595 115.869 32.7372 106.558 32.7372C106.107 32.7372 105.807 32.3626 105.807 31.9879C105.807 31.5383 106.182 31.2385 106.558 31.2385C116.394 31.3135 128.108 34.7605 131.562 44.4273C133.439 49.7477 133.439 55.8176 131.562 67.5825C131.562 67.8823 131.187 68.182 130.811 68.182Z" fill="black"/>
<path d="M81.9291 68.1819C81.5537 68.1819 81.1782 67.8821 81.1782 67.5074C79.301 55.7425 79.3761 49.6727 81.1782 44.3522C84.5572 34.6854 96.2709 31.2384 106.182 31.1635C106.633 31.1635 106.933 31.5381 107.008 31.9128C107.008 32.3624 106.633 32.6622 106.258 32.6622C96.9467 32.7371 85.9088 35.8844 82.7551 44.8018C80.953 49.8225 80.953 55.7425 82.7551 67.2077C82.8302 67.6573 82.5298 68.032 82.0793 68.1069C82.0042 68.1819 81.9291 68.1819 81.9291 68.1819Z" fill="#050522"/>
<path d="M95.1444 63.1612C94.844 63.1612 94.5437 62.9364 94.3935 62.6367C94.2433 62.262 94.4686 61.8124 94.844 61.5876C96.7212 60.8382 98.8987 60.6884 100.776 61.063C101.226 61.138 101.452 61.5876 101.377 61.9623C101.302 62.4119 100.851 62.6367 100.476 62.5618C98.9738 62.1871 97.0966 62.4119 95.5198 63.0114C95.2945 63.0863 95.2194 63.1612 95.1444 63.1612Z" fill="black"/>
<path d="M119.398 63.1612C119.323 63.1612 119.173 63.1612 119.098 63.0862C117.596 62.4118 115.794 62.2619 113.992 62.6366C113.616 62.7115 113.166 62.4867 113.091 62.0371C113.016 61.5875 113.241 61.2128 113.691 61.1379C115.719 60.6883 117.896 60.8381 119.773 61.6624C120.149 61.8123 120.374 62.2619 120.149 62.7115C119.999 62.9363 119.698 63.1612 119.398 63.1612Z" fill="black"/>
<path d="M107.834 91.8617C106.032 91.8617 104.53 91.4121 104.38 91.3371C104.005 91.1873 103.779 90.7377 103.854 90.363C104.005 89.9883 104.455 89.7635 104.831 89.8384C104.831 89.8384 108.66 91.0374 111.138 89.3888C112.414 88.4896 113.165 86.9909 113.316 84.7428C113.316 84.2932 113.691 83.9934 114.066 83.9934C114.517 83.9934 114.892 84.3681 114.817 84.8177C114.667 87.5154 113.691 89.4637 111.964 90.6627C110.687 91.6369 109.186 91.8617 107.834 91.8617Z" fill="black"/>
<path d="M101.226 84.3681C101.076 84.3681 100.851 84.2932 100.701 84.1433C100.401 83.9185 97.9977 81.6704 97.9226 79.3474C97.9226 78.5231 98.223 77.6988 98.8237 77.0993C99.4995 76.35 100.325 76.0502 101.302 76.0502C102.353 76.0502 103.254 76.4998 103.93 76.9494C104.38 72.6781 104.756 66.6083 103.855 65.2594C103.629 64.8847 103.704 64.4351 104.08 64.2103C104.455 63.9855 104.906 64.0604 105.206 64.4351C106.783 66.8331 105.582 76.5748 105.356 78.5231C105.281 78.8228 105.131 79.0477 104.831 79.1975C104.53 79.2725 104.23 79.1975 104.005 78.9727C103.629 78.598 102.428 77.6239 101.302 77.6239C100.776 77.6239 100.325 77.8487 99.95 78.2234C99.6496 78.5231 99.4995 78.8978 99.4995 79.3474C99.5745 80.7712 101.151 82.4947 101.752 83.0193C102.052 83.319 102.128 83.7686 101.827 84.1433C101.602 84.2932 101.377 84.3681 101.226 84.3681Z" fill="black"/>
<path d="M106.783 164.849C106.333 164.849 106.032 164.475 106.032 164.1V136.748C106.032 136.299 106.408 135.999 106.783 135.999C107.234 135.999 107.534 136.374 107.534 136.748V164.1C107.534 164.55 107.234 164.849 106.783 164.849Z" fill="black"/>
<path d="M65.7852 118.464C65.1845 118.314 64.8842 117.865 65.0344 117.49C66.461 112.244 70.2154 109.846 73.8196 107.523C76.3726 105.875 79.0007 104.226 80.8028 101.528C85.1579 95.2339 82.3797 84.7428 82.3797 84.6679C82.2295 84.2183 82.5298 83.8436 82.9053 83.6937C83.3558 83.5438 83.7312 83.8436 83.8814 84.2183C84.0316 84.6679 86.8098 95.4587 82.0793 102.353C80.0519 105.275 77.2737 107.074 74.6456 108.722C71.1165 110.97 67.8126 113.069 66.5361 117.79C66.461 118.239 66.1607 118.464 65.7852 118.464Z" fill="#050522"/>
<path d="M147.33 118.464C146.955 118.464 146.655 118.239 146.579 117.865C145.303 113.144 141.999 111.045 138.47 108.797C135.842 107.074 133.064 105.35 131.036 102.428C126.306 95.5336 129.159 84.5929 129.309 84.1433C129.384 83.7686 129.835 83.4689 130.285 83.6188C130.736 83.6937 130.961 84.1433 130.811 84.5929C130.811 84.6679 128.033 95.3088 132.388 101.603C134.265 104.301 136.818 105.95 139.371 107.598C142.975 109.921 146.73 112.319 148.156 117.565C148.306 118.014 148.006 118.389 147.631 118.539C147.481 118.464 147.405 118.464 147.33 118.464Z" fill="black"/>
<circle cx="105.176" cy="63.0642" r="62.3433" stroke="#050522" stroke-width="1.44146"/>
<path d="M158.87 63.0643C158.87 42.6735 147.504 24.9374 130.762 15.8462M105.176 9.36987C111.903 9.36987 118.341 10.607 124.275 12.8661" stroke="#050522" stroke-width="1.44146" stroke-linecap="round"/>
<path d="M96.5868 57.4702C92.8809 61.1761 87.4624 63.2256 85.2164 63.7871V69.2617L81.8473 67.5772C81.5666 66.735 80.8367 63.8713 80.1629 59.1547C79.3206 53.259 82.2685 46.0999 83.5319 41.4675C84.7953 36.8351 95.7445 33.0449 100.377 32.2027C105.009 31.3604 116.38 33.4661 117.643 33.8872C118.654 34.2241 120.872 35.7121 121.854 36.4139L129.435 46.9421L125.223 54.1012L113.011 52.8378L105.852 46.9421C104.307 48.9073 100.293 53.7643 96.5868 57.4702Z" fill="black"/>
<path d="M83.3826 96.8589C84.0564 94.8375 83.6633 87.5942 83.3826 84.2252L85.0671 83.3829L85.9093 85.0674L88.8572 92.2266L92.2262 97.2801L94.7529 98.9646L93.0684 109.914V113.283L88.4361 113.704L70.7488 116.231C69.2047 116.511 66.0322 116.904 65.6953 116.231L66.1164 114.546C67.5202 113.002 70.9173 109.577 73.2756 108.229C76.2234 106.545 82.5403 99.3857 83.3826 96.8589Z" fill="black"/>
</svg>
