<?xml version="1.0" encoding="utf-8"?>
<!-- Generator: Adobe Illustrator 25.0.1, SVG Export Plug-In . SVG Version: 6.00 Build 0)  -->
<svg version="1.1" id="Layer_1" xmlns="http://www.w3.org/2000/svg" xmlns:xlink="http://www.w3.org/1999/xlink" x="0px" y="0px"
	 viewBox="0 0 30 30" style="enable-background:new 0 0 30 30;" xml:space="preserve">
<g>
	<path d="M15,15.9c-0.3,0-0.6,0-0.8-0.1l-12-3.4C0.9,12,0,10.8,0,9.5C0,8.2,0.9,7,2.2,6.6l12-3.4c0.5-0.2,1.1-0.2,1.6,0l12,3.4
		C29.1,7,30,8.2,30,9.5c0,1.3-0.9,2.5-2.2,2.9l-12,3.4C15.6,15.9,15.3,15.9,15,15.9z M15,5.1c-0.1,0-0.2,0-0.3,0l-12,3.4
		C2.3,8.7,2,9.1,2,9.5c0,0.4,0.3,0.8,0.7,1l12,3.4c0.2,0.1,0.4,0.1,0.5,0l12-3.4c0.4-0.1,0.7-0.5,0.7-1s-0.3-0.8-0.7-1l-12-3.4
		C15.2,5.1,15.1,5.1,15,5.1z M2.4,7.6L2.4,7.6L2.4,7.6z"/>
</g>
<g>
	<path d="M15,27c-4.2,0-8.4-2-10-2.8c-0.6-0.3-1-1-1-1.7v-9.9c0-0.6,0.4-1,1-1s1,0.4,1,1v9.9C7.1,23,11.1,25,15,25
		c3.9,0,7.9-2,9-2.6l0-9.9c0-0.6,0.4-1,1-1s1,0.4,1,1v9.9c0,0.7-0.4,1.4-1,1.7C23.4,25,19.2,27,15,27z"/>
</g>
<g>
	<path d="M29,27c-0.6,0-1-0.4-1-1V9.5c0-0.6,0.4-1,1-1s1,0.4,1,1V26C30,26.6,29.6,27,29,27z"/>
</g>
</svg>
