<?xml version="1.0" encoding="utf-8"?>
<!-- Generator: Adobe Illustrator 25.0.1, SVG Export Plug-In . SVG Version: 6.00 Build 0)  -->
<svg version="1.1" id="Layer_1" xmlns="http://www.w3.org/2000/svg" xmlns:xlink="http://www.w3.org/1999/xlink" x="0px" y="0px"
	 viewBox="0 0 30 30" style="enable-background:new 0 0 30 30;" xml:space="preserve">
<g>
	<path d="M27,29h-5.4L1,8.4c-0.8-0.8-0.8-2,0-2.8L5.6,1c0.8-0.8,2-0.8,2.8,0L29,21.6V27C29,28.1,28.1,29,27,29z M22.4,27H27v-4.6
		L7,2.4L2.4,7L22.4,27z"/>
</g>
<g>
	<path d="M7,29.6c-0.5,0-1-0.2-1.4-0.6L1,24.4c-0.8-0.8-0.8-2,0-2.8l7.3-7.3c0.4-0.4,1-0.4,1.4,0s0.4,1,0,1.4L2.4,23L7,27.6l7.3-7.3
		c0.4-0.4,1-0.4,1.4,0s0.4,1,0,1.4L8.4,29C8,29.4,7.5,29.6,7,29.6z"/>
</g>
<g>
	<path d="M21.5,15.5c-0.3,0-0.5-0.1-0.7-0.3c-0.4-0.4-0.4-1,0-1.4L27.6,7L23,2.4l-7.3,6.8c-0.4,0.4-1,0.4-1.4,0s-0.4-1,0-1.4
		l7.3-6.8c0.8-0.7,2-0.7,2.8,0L29,5.6c0.8,0.8,0.8,2,0,2.8l-6.8,6.8C22,15.4,21.8,15.5,21.5,15.5z"/>
</g>
<g>
	<path d="M5,12c-0.3,0-0.5-0.1-0.7-0.3c-0.4-0.4-0.4-1,0-1.4l6-6c0.4-0.4,1-0.4,1.4,0s0.4,1,0,1.4l-6,6C5.5,11.9,5.3,12,5,12z"/>
</g>
<g>
	<path d="M20,27c-0.3,0-0.5-0.1-0.7-0.3c-0.4-0.4-0.4-1,0-1.4l6-6c0.4-0.4,1-0.4,1.4,0s0.4,1,0,1.4l-6,6C20.5,26.9,20.3,27,20,27z"
		/>
</g>
</svg>
